objid	container	server_template_crc	cell_index	px	py	pz	qw	qx	qy	qz	scripts	objvars
i	i	h	i	f	f	f	f	f	f	f	s	p
2055797	0	object/static/particle/pt_flocking_glowzees.iff	0	1393.9	108.084	647.157	1	0	0	0		$|
2055798	0	object/static/particle/pt_flocking_glowzees.iff	0	1392.42	107.837	648.456	1	0	0	0		$|
9705902	0	object/static/structure/tatooine/guild_ball_free_style_01.iff	0	1391.83	104.405	646.164	1	0	0	0		$|
9705904	0	object/building/endor/endor_tiki_torch.iff	0	1393.98	107.825	644.709	1	0	0	0		$|
9705905	0	object/building/endor/endor_tiki_torch.iff	0	1391.42	108.145	648.683	1	0	0	0		$|
