TEMPLATE	PM_NAME	PM_CATEGORY	PM_SUBCATEGORY	PM_TYPE	PM_FLAG
s	s	s[unknown]	s	I[0]	I[0]
object/building/tatooine/cloning_facility_tatooine.iff		cloningfacility			
object/building/tatooine/cloning_facility_tatooine_small.iff		cloningfacility			
object/building/tatooine/bank_tatooine.iff		bank			
object/building/naboo/bank_naboo.iff		bank			
object/building/corellia/bank_corellia.iff		bank			
object/building/tatooine/cantina_tatooine.iff		cantina			1
object/building/tatooine/capitol_tatooine.iff		capitol			
object/building/tatooine/guild_combat_tatooine_style_01.iff		guild	guild_combat		
object/building/tatooine/guild_commerce_tatooine_style_01.iff		guild	guild_commerce		
object/building/tatooine/guild_theater_tatooine_style_01.iff		guild	guild_theater		1
object/building/tatooine/guild_university_tatooine_style_01.iff		guild	guild_university		
object/building/tatooine/hospital_tatooine_style01.iff		medicalcenter			1
object/building/tatooine/hospital_tatooine_style02.iff		medicalcenter			1
object/building/tatooine/hotel_tatooine_style_01.iff		hotel			
object/building/tatooine/hotel_tatooine_general.iff		hotel			
object/building/tatooine/junkshop_watto.iff	@map_loc_n:junkshop_watto	junkshop			
object/building/tatooine/lucky_despot.iff	@map_loc_n:lucky_despot	cantina			1
object/building/tatooine/shuttleport_tatooine.iff		shuttleport			
object/building/tatooine/starport_tatooine.iff		starport			
object/building/corellia/cantina_corellia.iff		cantina			1
object/building/corellia/cloning_corellia.iff		cloningfacility			
object/building/corellia/guild_combat_corellia_style_01.iff		guild	guild_combat		
object/building/corellia/guild_commerce_corellia_style_01.iff		guild	guild_commerce		
object/building/corellia/guild_theater_corellia_s01.iff		guild	guild_theater		1
object/building/corellia/guild_university_corellia_style_01.iff		guild	guild_university		
object/building/corellia/hospital_corellia.iff		medicalcenter			1
object/building/corellia/hospital_corellia_s02.iff		medicalcenter			1
object/building/corellia/hotel_corellia.iff		hotel			
object/building/corellia/shuttleport_corellia.iff		shuttleport			
object/building/corellia/starport_corellia.iff		starport			
object/building/naboo/cantina_naboo.iff		cantina			1
object/building/naboo/capitol_naboo_theed.iff		capitol			
object/building/naboo/cloning_facility_naboo.iff		cloningfacility			
object/building/naboo/guild_combat_naboo_style_01.iff		guild	guild_combat		
object/building/naboo/guild_commerce_naboo_style_01.iff		guild	guild_commerce		
object/building/naboo/guild_theater_naboo_s01.iff		guild	guild_theater		1
object/building/naboo/guild_university_naboo_style_01.iff		guild	guild_university		
object/building/naboo/hangar_naboo_theed.iff		starport			
object/building/naboo/hospital_naboo_style01.iff		medicalcenter			1
object/building/naboo/hospital_naboo_style02.iff		medicalcenter			1
object/building/naboo/hotel_naboo_theed.iff		hotel			
object/building/naboo/palace_naboo_theed.iff	@map_loc_n:theed_palace	capitol			
object/building/naboo/shuttleport_naboo.iff		shuttleport			
object/building/naboo/starport_naboo.iff		starport			
object/building/military/outpost_cloning_facility.iff		cloningfacility			
object/building/military/outpost_cloning_facility_s02.iff		cloningfacility			
object/building/military/outpost_cloning_facility_s03.iff		cloningfacility			
object/building/military/outpost_starport.iff		starport			
object/building/military/small_imperial_cloning_facility.iff		cloningfacility			
object/building/military/small_imperial_cloning_facility_s02.iff		cloningfacility			
object/building/corellia/capitol_corellia.iff		capitol			
object/building/poi/scout_camp_s4.iff			camp		1
object/building/poi/scout_camp_s5.iff			camp		1
object/building/player/city/cloning_naboo.iff		cloningfacility			
object/building/player/city/cloning_corellia.iff		cloningfacility			
object/building/player/city/cloning_tatooine.iff		cloningfacility			
object/building/player/city/hospital_naboo.iff		medicalcenter			
object/building/player/city/hospital_corellia.iff		medicalcenter			
object/building/player/city/hospital_tatooine.iff		medicalcenter			
object/building/player/city/cityhall_tatooine.iff		city			
object/building/player/city/cityhall_naboo.iff		city			
object/building/player/city/cityhall_corellia.iff		city			
object/building/player/city/theater_tatooine.iff		theater
object/building/player/city/theater_naboo.iff		theater
object/building/player/city/theater_corellia.iff		theater
object/building/player/city/shuttleport_tatooine.iff		shuttleport
object/building/player/city/shuttleport_naboo.iff		shuttleport
object/building/player/city/shuttleport_corellia.iff		shuttleport
object/building/player/city/bank_corellia.iff		bank
object/building/player/city/bank_tatooine.iff		bank
object/building/player/city/bank_naboo.iff		bank
object/building/player/city/cantina_tatooine.iff		cantina
object/building/player/city/cantina_naboo.iff		cantina
object/building/player/city/cantina_corellia.iff		cantina
object/building/corellia/garage_corellia.iff		garage
object/building/naboo/parking_garage_naboo_style_1.iff		garage
object/building/tatooine/parking_garage_tatooine_style_1.iff		garage
object/building/player/player_garage_tatooine_style_01.iff		garage
object/building/player/player_garage_corellia_style_01.iff		garage			
object/building/player/player_garage_naboo_style_01.iff		garage			
object/building/tatooine/salon_tatooine.iff		salon			
object/building/corellia/salon_corellia.iff		salon			
object/building/naboo/salon_naboo.iff		salon			
object/building/faction_perk/hq/hq_s01_rebel_pvp.iff		rebel	sf_rebel_forward_base		1
object/building/faction_perk/hq/hq_s01_imp_pvp.iff		imperial	sf_imperial_forward_base		1
object/building/faction_perk/hq/hq_s02_rebel_pvp.iff		rebel	sf_rebel_minor_base		1
object/building/faction_perk/hq/hq_s02_imp_pvp.iff		imperial	sf_imperial_minor_base		1
object/building/faction_perk/hq/hq_s03_rebel_pvp.iff		rebel	sf_rebel_major_base		1
object/building/faction_perk/hq/hq_s03_imp_pvp.iff		imperial	sf_imperial_major_base		1
object/building/faction_perk/hq/hq_s04_rebel_pvp.iff		rebel	sf_rebel_hq		1
object/building/faction_perk/hq/hq_s04_imp_pvp.iff		imperial	sf_imperial_hq		1
object/building/faction_perk/hq/hq_s05_rebel_pvp.iff		rebel	sf_rebel_hq		1
object/building/faction_perk/hq/hq_s05_imp_pvp.iff		imperial	sf_imperial_hq		1
object/building/faction_perk/hq/hq_s04_rebel.iff		rebel	rebel_hq		
object/building/faction_perk/hq/hq_s04_imp.iff		imperial	imperial_hq
object/building/faction_perk/hq/hq_s05_rebel.iff		rebel	rebel_hq
object/building/faction_perk/hq/hq_s05_imp.iff		imperial	imperial_hq
object/building/kashyyyk/mun_kachirho_starport.iff		starport	
object/building/mustafar/structures/must_new_mining_facility.iff		cantina	
object/building/mustafar/structures/must_mining_cantina_marker.iff		starport	
object/building/mustafar/structures/must_mining_clone_marker.iff		cloningfacility	
object/building/naboo/rori_restuss_starport.iff		starport	
object/building/naboo/rori_restuss_shuttleport.iff		shuttleport	
object/building/dathomir/dathomir_quarantine_zone_starport.iff		starport	
object/building/dathomir/dathomir_quarantine_zone_cantina.iff		cantina	
