objid	container	server_template_crc	cell_index	px	py	pz	qw	qx	qy	qz	scripts	objvars
i	i	h	i	f	f	f	f	f	f	f	s	p
192316	0	object/static/particle/particle_test_31.iff	0	887.229	32.7514	544.48	1	0	0	0		$|
192319	0	object/static/particle/particle_test_31.iff	0	886.756	37.8322	557.952	1	0	0	0		$|
192322	0	object/static/particle/particle_test_31.iff	0	871.882	49.3948	533.135	1	0	0	0		$|
192325	0	object/static/particle/particle_test_31.iff	0	874.055	33.4946	664.367	1	0	0	0		$|
192328	0	object/static/particle/particle_test_31.iff	0	850.454	39.403	654.707	1	0	0	0		$|
192334	0	object/static/particle/particle_test_31.iff	0	827.984	48.7725	632.813	1	0	0	0		$|
192337	0	object/static/particle/particle_test_31.iff	0	822.092	46.4622	505.901	1	0	0	0		$|
4275364	0	object/building/general/corellia_drall_cave.iff	0	1021.74	32.2214	85.2769	0.707107	0	0.707106	0		$|
8675708	0	object/tangible/camp/camp_tent_s5.iff	0	1811.28	30.1654	893.765	1	0	0	0		$|
8675709	0	object/tangible/camp/camp_light_s2.iff	0	1807.32	29.8893	893.049	1	0	0	0		$|
8675710	0	object/tangible/camp/camp_lawn_chair.iff	0	1807.67	30.2339	896.373	-0.440178	0	0.897911	0		$|
8675711	0	object/tangible/camp/camp_crate_s1.iff	0	1808.11	29.7789	891.15	1	0	0	0		$|
8675712	0	object/tangible/camp/camp_chair_s3.iff	0	1807.01	30.0539	894.194	1	0	0	0		$|
8675713	0	object/static/item/item_container_energy_liquid.iff	0	1809.03	29.8125	890.641	1	0	0	0		$|
8675714	0	object/static/item/item_container_energy_liquid.iff	0	1808.83	29.8097	890.924	1	0	0	0		$|
8675721	0	object/tangible/camp/camp_tent_s4.iff	0	769.896	423.726	1771.88	1	0	0	0		$|
8675722	0	object/tangible/camp/camp_chair_s1.iff	0	766.635	423.914	1774.43	-0.305817	0	0.95209	0		$|
8675723	0	object/tangible/camp/camp_crate_s1.iff	0	764.392	423.32	1769.05	1	0	0	0		$|
8675724	0	object/static/item/item_bottle_fat.iff	0	765.092	423.324	1769.11	1	0	0	0		$|
8675725	0	object/static/item/item_bottle_pear.iff	0	765.189	423.451	1769.45	0.656219	0	0	0.754571		$|
8675726	0	object/static/item/item_bottle_tall.iff	0	763.646	423.311	1768.87	1	0	0	0		$|
8675727	0	object/static/item/item_con_drink_flask.iff	0	764.112	423.388	1769.35	-0.656219	0	0	0.754571		$|
8675728	0	object/static/item/item_con_glass_full_s2.iff	0	764.241	423.697	1769.08	1	0	0	0		$|
8675729	0	object/static/item/item_con_glass_beaker.iff	0	764.127	423.691	1769.07	1	0	0	0		$|
8675730	0	object/static/item/item_con_pitcher_full.iff	0	764.618	423.699	1769.06	1	0	0	0		$|
8675731	0	object/static/item/item_con_ration_kit_lg.iff	0	767.226	423.425	1769.74	1	0	0	0		$|
8675732	0	object/static/item/item_con_ration_kit_m.iff	0	767.394	423.443	1769.5	-0.338946	0	0.940806	0		$|
8675734	0	object/static/item/item_con_ration_kit_m.iff	0	767.201	423.419	1770.04	1	0	0	0		$|
39693	0	object/static/corellia/rock_crystal_arch_agrilat_medium.iff	0	972.177	18.0233	679.031	0.7991	0	-0.601198	0		$|
40554	0	object/static/corellia/rock_crystal_arch_agrilat_half_medium.iff	0	1045.26	18.3666	667.47	0.922997	0	-0.384808	0		$|
40555	0	object/static/corellia/rock_crystal_arch_agrilat_half_medium.iff	0	929.809	18.3166	735.395	0.779884	0	-0.625925	0		$|
55198	0	object/static/corellia/rock_crystal_geyser_agrilat_main.iff	0	778.167	17.377	530.932	1	0	0	0		$|
55199	0	object/static/corellia/rock_crystal_arch_agrilat_half_medium.iff	0	606.035	20.1889	594.847	-0.179812	0	0.983701	0		$|
55201	0	object/static/corellia/rock_crystal_agrilat_arch_small.iff	0	1050.69	18.201	606.307	0.291502	0	0.95657	0		$|
56149	0	object/static/corellia/rock_bowl_agrilat_single.iff	0	904.227	18	611.011	1	0	0	0		$|
56150	0	object/static/corellia/rock_bowl_agrilat_single.iff	0	868.448	18	347.12	1	0	0	0		$|
56151	0	object/static/corellia/rock_bowl_agrilat_double.iff	0	947.901	17.9874	531.198	1	0	0	0		$|
56152	0	object/static/corellia/rock_crystal_geyser_agrilat_large.iff	0	676.874	18	452.373	1	0	0	0		$|
56153	0	object/static/corellia/rock_crystal_geyser_agrilat_small.iff	0	680.475	18	438.656	1	0	0	0		$|
56154	0	object/static/corellia/rock_crystal_geyser_agrilat_small.iff	0	706.11	18	452.053	1	0	0	0		$|
56155	0	object/static/corellia/rock_crystal_geyser_agrilat_large.iff	0	763.308	18	392.229	1	0	0	0		$|
56156	0	object/static/corellia/rock_crystal_geyser_agrilat_small.iff	0	752.66	18	377.735	1	0	0	0		$|
56157	0	object/static/corellia/rock_crystal_arch_agrilat_half_medium.iff	0	1002.19	18	626.724	0.39934	0	0.916803	0		$|
56158	0	object/static/corellia/rock_crystal_arch_agrilat_medium.iff	0	1031.07	18	540.939	1	0	0	0		$|
56159	0	object/static/corellia/rock_crystal_arch_agrilat_half_medium.iff	0	1003.05	17.9464	526.837	-0.357693	0	0.933839	0		$|
56160	0	object/static/corellia/rock_crystal_arch_agrilat_half_medium.iff	0	1053.95	18.2484	494.328	0.973666	0	0.227978	0		$|
56161	0	object/static/corellia/rock_crystal_geyser_agrilat_large.iff	0	928.967	18	377.667	0.968912	0	0.247404	0		$|
56162	0	object/static/corellia/rock_crystal_geyser_agrilat_small.iff	0	949.41	18	390.769	1	0	0	0		$|
56163	0	object/static/corellia/rock_crystal_geyser_agrilat_small.iff	0	920.278	18	364.505	1	0	0	0		$|
56164	0	object/static/corellia/rock_crystal_arch_agrilat_half_medium.iff	0	650.827	18.1361	575.414	0.978031	0	0.20846	0		$|
56165	0	object/static/corellia/rock_bowl_agrilat_double.iff	0	713.338	19.9046	643.176	1	0	0	0		$|
56166	0	object/static/corellia/rock_bowl_agrilat_single.iff	0	798.398	18	697.935	1	0	0	0		$|
56167	0	object/static/corellia/rock_crystal_mound_agrilat_large.iff	0	783.615	16.1192	665.553	1	0	0	0		$|
56168	0	object/static/corellia/rock_crystal_geyser_agrilat_small.iff	0	764.984	18.0168	662.903	1	0	0	0		$|
56169	0	object/static/corellia/rock_crystal_mound_agrilat_medium.iff	0	812.074	16.0652	669.322	1	0	0	0		$|
56170	0	object/static/corellia/rock_crystal_mound_agrilat_medium.iff	0	835.735	16.7591	609.453	1	0	0	0		$|
56172	0	object/static/corellia/rock_crystal_mound_agrilat_large.iff	0	861.03	16.0436	619.643	1	0	0	0		$|
56173	0	object/static/corellia/rock_crystal_geyser_agrilat_large.iff	0	871.362	18	533.795	1	0	0	0		$|
56174	0	object/static/corellia/rock_crystal_geyser_agrilat_small.iff	0	887.57	18	545.064	1	0	0	0		$|
56175	0	object/static/corellia/rock_crystal_geyser_agrilat_small.iff	0	887.134	18	558.415	1	0	0	0		$|
56176	0	object/static/corellia/rock_crystal_arch_agrilat_half_medium.iff	0	906.384	18.1757	679.213	0.484504	0	0.874789	0		$|
56177	0	object/static/corellia/rock_crystal_agrilat_arch_small.iff	0	856.659	17.999	732.191	0.510313	0	0.859989	0		$|
56178	0	object/static/corellia/rock_bowl_agrilat_single.iff	0	614.274	18.1421	448.512	1	0	0	0		$|
56179	0	object/static/corellia/rock_crystal_mound_agrilat_medium.iff	0	633.836	16.3619	364.904	1	0	0	0		$|
56180	0	object/static/corellia/rock_crystal_mound_agrilat_large.iff	0	639.065	15.5943	388.161	1	0	0	0		$|
56181	0	object/static/corellia/rock_crystal_mound_agrilat_large.iff	0	799.852	16.0994	330.817	1	0	0	0		$|
56182	0	object/static/corellia/rock_crystal_geyser_agrilat_large.iff	0	906.756	18.3057	202.855	1	0	0	0		$|
56183	0	object/static/corellia/rock_crystal_geyser_agrilat_small.iff	0	899.571	18.4049	191.202	0.896053	0	0.443948	0		$|
56184	0	object/static/corellia/rock_crystal_geyser_agrilat_small.iff	0	923.033	18.3057	202.35	1	0	0	0		$|
56185	0	object/static/corellia/rock_crystal_geyser_agrilat_small.iff	0	994.374	18.3057	204.85	1	0	0	0		$|
56186	0	object/static/corellia/rock_crystal_geyser_agrilat_large.iff	0	1060.91	18.4845	238.103	1	0	0	0		$|
56187	0	object/static/corellia/rock_crystal_mound_agrilat_large.iff	0	1007.97	15.6094	183.434	1	0	0	0		$|
56188	0	object/static/corellia/rock_crystal_mound_agrilat_medium.iff	0	1030.31	16.3869	232.358	1	0	0	0		$|
56191	0	object/static/corellia/rock_crystal_geyser_agrilat_large.iff	0	1120.58	18.3057	97.0308	1	0	0	0		$|
56192	0	object/static/corellia/rock_crystal_geyser_agrilat_small.iff	0	1105.75	18.3057	105.516	1	0	0	0		$|
56193	0	object/static/corellia/rock_crystal_geyser_agrilat_small.iff	0	1101.52	18.3057	89.335	1	0	0	0		$|
56194	0	object/static/corellia/rock_crystal_agrilat_arch_small.iff	0	1083.9	18.3057	42.4976	1	0	0	0		$|
56195	0	object/static/corellia/rock_crystal_arch_agrilat_half_medium.iff	0	1241.21	18.6306	90.5068	-0.397879	0	0.917438	0		$|
56196	0	object/static/corellia/rock_crystal_arch_agrilat_half_medium.iff	0	1287.47	18.3057	58.5552	0.975897	0	0.21823	0		$|
56198	0	object/static/corellia/rock_crystal_geyser_agrilat_small.iff	0	1328.71	18.3057	32.3286	1	0	0	0		$|
56200	0	object/static/corellia/rock_crystal_mound_agrilat_medium.iff	0	1302.54	17.384	27.7124	1	0	0	0		$|
56209	0	object/static/corellia/rock_crystal_agrilat_arch_small.iff	0	1473.59	18.3057	97.1123	0.505088	0	0.863068	0		$|
56210	0	object/static/corellia/rock_crystal_geyser_agrilat_small.iff	0	1443.94	18.3057	56.9063	0.458047	0	0.888928	0		$|
56211	0	object/static/corellia/rock_crystal_geyser_agrilat_small.iff	0	1491.42	18.3057	83.0894	1	0	0	0		$|
56212	0	object/static/corellia/rock_crystal_geyser_agrilat_large.iff	0	1419.68	18.3057	74.9546	1	0	0	0		$|
56213	0	object/static/corellia/rock_crystal_geyser_agrilat_small.iff	0	1499.97	18.3057	62.8965	1	0	0	0		$|
56214	0	object/static/corellia/rock_crystal_geyser_agrilat_small.iff	0	1537.61	18.3056	40.4189	1	0	0	0		$|
56215	0	object/static/corellia/rock_crystal_mound_agrilat_medium.iff	0	1465.49	15.983	62.5474	1	0	0	0		$|
56216	0	object/static/corellia/rock_crystal_mound_agrilat_medium.iff	0	1438.72	16.3956	74.6392	1	0	0	0		$|
56217	0	object/static/corellia/rock_crystal_arch_agrilat_medium.iff	0	1326.54	19.5679	142.93	0.865324	0	-0.501213	0		$|
56218	0	object/static/corellia/rock_bowl_agrilat_double.iff	0	1447.82	18.3057	315.521	1	0	0	0		$|
56219	0	object/static/corellia/rock_crystal_geyser_agrilat_large.iff	0	1670.21	18.3057	479.881	1	0	0	0		$|
56220	0	object/static/corellia/rock_crystal_geyser_agrilat_small.iff	0	1643.54	18.3056	511.419	1	0	0	0		$|
56221	0	object/static/corellia/rock_crystal_geyser_agrilat_small.iff	0	1657.33	18.3057	472.732	1	0	0	0		$|
56222	0	object/static/corellia/rock_crystal_geyser_agrilat_small.iff	0	1695.47	18.3057	426.64	1	0	0	0		$|
59766	0	object/static/corellia/rock_crystal_mound_agrilat_medium.iff	0	38.4406	14.6314	645.287	1	0	0	0		$|
59767	0	object/static/corellia/rock_crystal_mound_agrilat_medium.iff	0	30.2084	15.2368	650.187	1	0	0	0		$|
59769	0	object/static/corellia/rock_crystal_geyser_agrilat_small.iff	0	56.2458	16.0372	624.387	0.985585	0	-0.169182	0		$|
59770	0	object/static/corellia/rock_crystal_geyser_agrilat_small.iff	0	46.8687	17.0516	618.466	1	0	0	0		$|
59773	0	object/static/corellia/rock_crystal_geyser_agrilat_small.iff	0	44.1675	18.3057	627.603	0.849482	0	-0.527618	0		$|
59774	0	object/static/corellia/rock_crystal_mound_agrilat_medium.iff	0	96.7679	15.739	539.661	0.959662	0	-0.281157	0		$|
65316	0	object/static/corellia/rock_crystal_mound_agrilat_medium.iff	0	115.952	15.0364	549.604	1	0	0	0		$|
65318	0	object/static/corellia/rock_crystal_mound_agrilat_medium.iff	0	139.868	16.4559	441.656	1	0	0	0		$|
65319	0	object/static/corellia/rock_crystal_geyser_agrilat_small.iff	0	122.582	15.7996	489.745	0.913089	0	0.407761	0		$|
65320	0	object/static/corellia/rock_crystal_geyser_agrilat_small.iff	0	129.345	18.3057	497.458	1	0	0	0		$|
65321	0	object/static/corellia/rock_crystal_geyser_agrilat_small.iff	0	162.002	17.6125	482.82	-0.25785	0	0.966185	0		$|
65323	0	object/static/corellia/rock_crystal_mound_agrilat_medium.iff	0	164.802	14.931	295.045	0.85294	0	-0.522009	0		$|
65324	0	object/static/corellia/rock_crystal_mound_agrilat_medium.iff	0	159.689	15.1697	303.404	1	0	0	0		$|
65325	0	object/static/corellia/rock_crystal_mound_agrilat_medium.iff	0	156.692	14.7431	291.533	1	0	0	0		$|
65326	0	object/static/corellia/rock_crystal_mound_agrilat_large.iff	0	226.106	15.5811	290.698	1	0	0	0		$|
65327	0	object/static/corellia/rock_crystal_mound_agrilat_medium.iff	0	217.332	15.2911	314.532	0.819649	0	-0.572867	0		$|
65328	0	object/static/corellia/rock_crystal_mound_agrilat_medium.iff	0	245.933	14.8898	337.576	0.703663	0	0.710534	0		$|
65329	0	object/static/corellia/rock_crystal_mound_agrilat_medium.iff	0	249.357	15.1952	328.628	0.755097	0	-0.655613	0		$|
65330	0	object/static/corellia/rock_crystal_arch_agrilat_half_medium.iff	0	229.624	12.2259	350.17	-0.353015	0.004286	0.935604	-0.002574		$|
65331	0	object/static/corellia/rock_crystal_arch_agrilat_half_medium.iff	0	273.351	18.3057	314.244	0.950797	0	0.309816	0		$|
65335	0	object/static/corellia/rock_crystal_geyser_agrilat_small.iff	0	297.031	17.3187	371.211	-0.075724	0	0.997129	0		$|
65336	0	object/static/corellia/rock_crystal_geyser_agrilat_small.iff	0	307.816	14.841	366.733	0.774419	0	0.632673	0		$|
65337	0	object/static/corellia/rock_crystal_mound_agrilat_medium.iff	0	306.862	15.7131	377.746	1	0	0	0		$|
134317	0	object/static/corellia/rock_crystal_mound_agrilat_medium.iff	0	172.568	16.2213	343.85	0.693104	0	0.720837	0		$|
134318	0	object/static/corellia/rock_crystal_mound_agrilat_medium.iff	0	170.516	14.8941	332.958	0.922997	0	-0.384808	0		$|
134320	0	object/static/corellia/rock_crystal_arch_agrilat_half_medium.iff	0	376.879	15.9798	304.559	-0.310573	0	0.950549	0		$|
134321	0	object/static/corellia/rock_crystal_geyser_agrilat_small.iff	0	364.115	-1.67044	202.032	1	0	0	0		$|
134322	0	object/static/corellia/rock_crystal_agrilat_arch_small.iff	0	371.482	17.7014	258.336	0.851125	0	-0.524963	0		$|
174317	0	object/static/corellia/rock_crystal_mound_agrilat_medium.iff	0	104.579	15.4613	201.913	-0.37166	0	0.928369	0		$|
174318	0	object/static/corellia/rock_crystal_mound_agrilat_medium.iff	0	93.9355	16.0989	199.167	0.891569	0	0.452886	0		$|
174319	0	object/static/corellia/rock_crystal_mound_agrilat_medium.iff	0	97.3386	14.9323	209.577	0.723737	0	-0.690076	0		$|
174320	0	object/static/corellia/rock_crystal_mound_agrilat_medium.iff	0	85.9512	16.2919	168.057	-0.209239	0	0.977865	0		$|
174321	0	object/static/corellia/rock_crystal_mound_agrilat_medium.iff	0	72.9337	15.4057	241.533	-0.522828	0	0.852438	0		$|
174322	0	object/static/corellia/rock_crystal_mound_agrilat_medium.iff	0	75.4487	14.9651	230.191	-0.31381	0	0.949486	0		$|
180316	0	object/static/corellia/rock_crystal_mound_agrilat_medium.iff	0	37.8317	15.3315	888.633	-0.238476	0	0.971148	0		$|
180317	0	object/static/corellia/rock_crystal_mound_agrilat_large.iff	0	53.8524	15.5775	884.802	1	0	0	0		$|
180318	0	object/static/corellia/rock_crystal_mound_agrilat_medium.iff	0	40.4626	15.3607	874.068	0.857709	0	-0.514136	0		$|
180319	0	object/static/corellia/rock_crystal_mound_agrilat_medium.iff	0	188.962	15.1274	954.703	1	0	0	0		$|
180320	0	object/static/corellia/rock_crystal_mound_agrilat_medium.iff	0	200.986	15.2329	953.301	0.488873	0	0.872355	0		$|
180321	0	object/static/corellia/rock_crystal_mound_agrilat_medium.iff	0	283.791	16.1963	882.431	-0.500558	0.0756375	0.86233	-0.0103513		$|
180322	0	object/static/corellia/rock_crystal_mound_agrilat_medium.iff	0	226.414	15.5524	869.479	0.95555	0.021426	0.285148	0.071801		$|
180323	0	object/static/corellia/rock_crystal_mound_agrilat_medium.iff	0	195.012	15.9226	822.85	0.902705	0.036324	-0.427578	-0.031324		$|
180324	0	object/static/corellia/rock_crystal_mound_agrilat_large.iff	0	289.24	14.5268	900.542	0.751346	-0.023074	-0.65898	0.026308		$|
180326	0	object/static/corellia/rock_crystal_mound_agrilat_medium.iff	0	384.81	14.8954	649.627	0.92586	-0.016894	0.375179	-0.041692		$|
180327	0	object/static/corellia/rock_crystal_mound_agrilat_medium.iff	0	391.271	14.9276	643.273	0.943383	0.02428	0.323132	0.070887		$|
180328	0	object/static/corellia/rock_crystal_mound_agrilat_medium.iff	0	392.212	14.7744	652.643	0.453392	-0.026732	0.890806	-0.013606		$|
180329	0	object/static/corellia/rock_crystal_mound_agrilat_medium.iff	0	350.731	14.9864	704.254	0.926799	0	-0.375559	0		$|
180330	0	object/static/corellia/rock_crystal_mound_agrilat_medium.iff	0	360.459	15.9739	711.152	0.935897	0	-0.352274	0		$|
180331	0	object/static/corellia/rock_crystal_mound_agrilat_medium.iff	0	534.539	15.5658	273.831	0.898261	0	-0.439462	0		$|
180332	0	object/static/corellia/rock_crystal_mound_agrilat_medium.iff	0	510.024	14.9325	290.47	0.9992	0	0	-0.039989		$|
180333	0	object/static/corellia/rock_crystal_mound_agrilat_medium.iff	0	539.792	14.7431	284.535	0.761003	-0.025914	0.647515	-0.0304561		$|
180334	0	object/static/corellia/rock_crystal_arch_agrilat_half_medium.iff	0	458.208	16.7146	362.44	-0.281414	-0.057532	0.957711	0.016905		$|
180335	0	object/static/corellia/rock_crystal_arch_agrilat_half_medium.iff	0	517.342	0.028469	317.082	0.971736	-0.001799	0.232657	-0.039949		$|
180336	0	object/static/corellia/rock_crystal_mound_agrilat_medium.iff	0	456.746	14.9843	346.846	0.939361	-0.001714	-0.342893	-0.004697		$|
180337	0	object/static/corellia/rock_crystal_mound_agrilat_medium.iff	0	459.744	16.2927	334.4	0.906145	0.016852	0.421073	0.036265		$|
180338	0	object/static/corellia/rock_crystal_geyser_agrilat_small.iff	0	449.666	18.3057	421.941	0.882333	0	-0.470626	0		$|
180339	0	object/static/corellia/rock_crystal_geyser_agrilat_large.iff	0	461.397	18.3057	436.424	0.939373	0	0.342898	0		$|
180340	0	object/static/corellia/rock_crystal_geyser_agrilat_small.iff	0	456.009	18.3057	409.029	-0.485908	0	0.87401	0		$|
180341	0	object/static/corellia/rock_crystal_geyser_agrilat_small.iff	0	529.512	18.3057	599.105	0.810498	0	-0.585742	0		$|
180342	0	object/static/corellia/rock_crystal_mound_agrilat_medium.iff	0	516.193	15.4323	597.992	1	0	0	0		$|
180343	0	object/static/corellia/rock_crystal_mound_agrilat_large.iff	0	520.581	14.7101	617.083	1	0	0	0		$|
180344	0	object/static/corellia/rock_crystal_mound_agrilat_medium.iff	0	468.033	18.3057	500.327	0.138755	0	0.990327	0		$|
180345	0	object/static/corellia/rock_crystal_mound_agrilat_medium.iff	0	458.735	18.4206	492.711	0.921061	0	0.389418	0		$|
180346	0	object/static/corellia/rock_bowl_agrilat_single.iff	0	594.132	18.3057	832.54	1	0	0	0		$|
180348	0	object/static/corellia/rock_crystal_geyser_agrilat_small.iff	0	626.863	16.5358	836.83	0.844588	0	0.535417	0		$|
180349	0	object/static/corellia/rock_crystal_geyser_agrilat_small.iff	0	622.435	15.8105	803.818	0.917121	0	-0.398609	0		$|
180350	0	object/static/corellia/rock_crystal_mound_agrilat_medium.iff	0	403.247	15.6209	827.196	0.985585	0	0.169182	0		$|
180351	0	object/static/corellia/rock_crystal_mound_agrilat_medium.iff	0	414.283	17.9881	816.497	1	0	0	0		$|
180352	0	object/static/corellia/rock_crystal_arch_agrilat_half_medium.iff	0	213.393	18.3056	878.569	-0.284833	-0.047904	0.957274	0.014254		$|
180353	0	object/static/corellia/rock_crystal_arch_agrilat_half_medium.iff	0	262.406	8.43725	853.087	0.978645	-0.013553	0.193292	-0.068617		$|
180354	0	object/static/corellia/rock_crystal_arch_agrilat_half_medium.iff	0	231.148	16.1867	853.9	-0.479034	0.123682	0.868171	-0.03883		$|
180355	0	object/static/corellia/rock_crystal_arch_agrilat_half_medium.iff	0	265.157	9.85593	803.882	0.882354	-0.057019	0.45377	-0.110872		$|
180356	0	object/static/corellia/rock_crystal_geyser_agrilat_small.iff	0	76.199	16.2159	840.229	-0.483111	0	0.875559	0		$|
180357	0	object/static/corellia/rock_crystal_geyser_agrilat_small.iff	0	86.5083	18.3057	838.893	0.988771	0	-0.149438	0		$|
180359	0	object/static/corellia/rock_crystal_mound_agrilat_large.iff	0	77.8604	14.0982	829.242	0.867429	0.014904	-0.496656	-0.026031		$|
180372	0	object/static/corellia/rock_crystal_agrilat_arch_small.iff	0	1329.24	18.3057	427.907	0.830942	0	-0.55636	0		$|
180373	0	object/static/corellia/rock_crystal_agrilat_arch_small.iff	0	1347.57	19.935	458.539	0.738464	0	0.674293	0		$|
180374	0	object/static/corellia/rock_crystal_mound_agrilat_medium.iff	0	1404.86	16.3226	509.501	0.94441	0	0.328769	0		$|
180375	0	object/static/corellia/rock_crystal_mound_agrilat_medium.iff	0	1399.77	18.3057	490.458	0.997189	0	0	-0.0749296		$|
180376	0	object/static/corellia/rock_crystal_mound_agrilat_large.iff	0	1310.9	18.3057	458.221	0.965044	-0.002619	0.261896	-0.009651		$|
180377	0	object/static/corellia/rock_crystal_arch_agrilat_half_medium.iff	0	1245.1	15.5209	504.027	0.754634	0.022942	-0.655212	-0.026423		$|
180378	0	object/static/corellia/rock_crystal_arch_agrilat_half_medium.iff	0	1234.02	18.3057	427.469	0.587354	0	0.80933	0		$|
180399	0	object/static/corellia/rock_crystal_geyser_agrilat_small.iff	0	1205.47	18.3057	363.696	0.857709	0	0.514136	0		$|
180400	0	object/static/corellia/rock_crystal_mound_agrilat_medium.iff	0	1210.74	16.9327	350.953	1	0	0	0		$|
180401	0	object/static/corellia/rock_crystal_geyser_agrilat_small.iff	0	1232.77	17.3138	235.895	-0.337447	0	0.941344	0		$|
180402	0	object/static/corellia/rock_crystal_mound_agrilat_medium.iff	0	1612.54	16.8673	566.863	1	0	0	0		$|
180403	0	object/static/corellia/rock_crystal_mound_agrilat_medium.iff	0	1615.85	17.1479	549.627	0.836463	0	0.548023	0		$|
180404	0	object/static/corellia/rock_crystal_geyser_agrilat_small.iff	0	1596.18	18.3057	579.235	-0.505479	0	0.862839	0		$|
180405	0	object/static/corellia/rock_crystal_mound_agrilat_medium.iff	0	1638.2	16.289	614.386	0.882333	0	0.470626	0		$|
180406	0	object/static/corellia/rock_crystal_geyser_agrilat_small.iff	0	1550.44	17.351	568.538	-0.480125	0	0.8772	0		$|
180407	0	object/static/corellia/rock_crystal_geyser_agrilat_small.iff	0	1557.84	17.1213	580.354	0.930507	0	-0.366273	0		$|
180408	0	object/static/corellia/rock_crystal_mound_agrilat_medium.iff	0	1578.37	16.5035	599.766	0.830942	0	0.55636	0		$|
180409	0	object/static/corellia/rock_crystal_geyser_agrilat_large.iff	0	1352.51	18.3057	712.93	0.941075	0	0.338197	0		$|
180410	0	object/static/corellia/rock_crystal_geyser_agrilat_small.iff	0	1349.27	18.3057	697.572	0.521195	0	0.853437	0		$|
180411	0	object/static/corellia/rock_crystal_geyser_agrilat_small.iff	0	1310.64	16.4504	744.448	-0.472488	0	0.881337	0		$|
180412	0	object/static/corellia/rock_crystal_mound_agrilat_medium.iff	0	1311.26	16.5193	728.442	0.682224	0	0.731144	0		$|
180413	0	object/static/corellia/rock_crystal_mound_agrilat_large.iff	0	1425.06	15.691	718.401	0.956802	0	-0.29074	0		$|
180414	0	object/static/corellia/rock_crystal_mound_agrilat_large.iff	0	1395.79	16.8667	748.891	1	0	0	0		$|
180415	0	object/static/corellia/rock_crystal_geyser_agrilat_small.iff	0	1385.73	18.3057	705.082	0.908966	0	0.416871	0		$|
180416	0	object/static/corellia/rock_crystal_geyser_agrilat_small.iff	0	1475.33	16.0288	678.999	0.728273	0	-0.685287	0		$|
180417	0	object/static/corellia/rock_crystal_geyser_agrilat_small.iff	0	1462.29	17.3111	681.099	1	0	0	0		$|
180418	0	object/static/corellia/rock_crystal_arch_agrilat_half_medium.iff	0	971.597	16.6377	806.943	0.818993	0.028407	-0.572408	-0.028146		$|
180419	0	object/static/corellia/rock_crystal_geyser_agrilat_small.iff	0	926.066	17.1273	943.336	0.833713	0	-0.552198	0		$|
180420	0	object/static/corellia/rock_crystal_geyser_agrilat_small.iff	0	1001.79	17.96	955.915	0.353019	0	0.935616	0		$|
180421	0	object/static/corellia/rock_crystal_geyser_agrilat_small.iff	0	1042.91	17.6371	930.047	0.786423	0	-0.617689	0		$|
180422	0	object/static/corellia/rock_crystal_mound_agrilat_medium.iff	0	937.277	16.0774	932.614	0.814341	0	-0.580387	0		$|
180423	0	object/static/corellia/rock_crystal_mound_agrilat_medium.iff	0	927.23	15.9062	952.866	1	0	0	0		$|
180424	0	object/static/corellia/rock_crystal_mound_agrilat_medium.iff	0	1033.9	16.01	970.818	0.942755	0	-0.333487	0		$|
180425	0	object/static/corellia/rock_crystal_mound_agrilat_medium.iff	0	1197.49	16.3224	928.146	0.93043	-0.00718599	-0.366155	0.013349		$|
180426	0	object/static/corellia/rock_crystal_mound_agrilat_medium.iff	0	1171.02	16.9726	968.495	1	0	0	0		$|
180427	0	object/static/corellia/rock_crystal_mound_agrilat_large.iff	0	1322.69	16.9114	890.019	0.99639	0	0.084898	0		$|
180428	0	object/static/corellia/rock_crystal_mound_agrilat_medium.iff	0	1301.2	16.9982	915.775	-0.42666	0	0.904412	0		$|
180429	0	object/static/corellia/rock_crystal_arch_agrilat_half_medium.iff	0	1649.62	15.0459	895.519	-0.504682	-0.0844873	0.857491	0.0535492		$|
180430	0	object/static/corellia/rock_crystal_arch_agrilat_half_medium.iff	0	1677.04	16.7382	837.92	0.841539	-0.045456	0.533483	-0.071704		$|
180431	0	object/static/corellia/rock_crystal_agrilat_arch_small.iff	0	1647.27	17.2198	862.543	0.774419	0	0.632673	0		$|
186316	0	object/static/corellia/rock_crystal_geyser_agrilat_small.iff	0	648.089	5.64564	305.965	1	0	0	0		$|
186317	0	object/static/corellia/rock_crystal_geyser_agrilat_small.iff	0	1690.98	18.3057	420.623	1	0	0	0		$|
186318	0	object/static/corellia/rock_crystal_geyser_agrilat_small.iff	0	1689.56	18.3057	420.064	1	0	0	0		$|
186319	0	object/static/corellia/rock_crystal_geyser_agrilat_small.iff	0	1546.59	18.3057	581.903	1	0	0	0		$|
186323	0	object/static/corellia/rock_crystal_mound_agrilat_medium.iff	0	819.797	8.93617	886.155	1	0	0	0		$|
186324	0	object/static/corellia/rock_crystal_mound_agrilat_medium.iff	0	831.898	16.3164	880.771	1	0	0	0		$|
186325	0	object/static/corellia/rock_crystal_geyser_agrilat_small.iff	0	1041.97	18	418.575	1	0	0	0		$|
186326	0	object/static/corellia/rock_crystal_geyser_agrilat_small.iff	0	1040.46	18.01	406.842	1	0	0	0		$|
186327	0	object/static/corellia/rock_crystal_mound_agrilat_large.iff	0	1068.38	18.0819	427.38	1	0	0	0		$|
186328	0	object/static/corellia/rock_crystal_geyser_agrilat_large.iff	0	1022.8	18.0006	396.445	1	0	0	0		$|
186329	0	object/static/corellia/rock_crystal_mound_agrilat_medium.iff	0	1138.02	18.2871	468.31	1	0	0	0		$|
186330	0	object/static/corellia/rock_crystal_geyser_agrilat_small.iff	0	1136.03	18.275	487.789	1	0	0	0		$|
186331	0	object/static/corellia/rock_crystal_geyser_agrilat_small.iff	0	1153.82	18.3048	470.871	1	0	0	0		$|
186332	0	object/static/corellia/rock_crystal_geyser_agrilat_large.iff	0	1065.44	18.001	457.437	1	0	0	0		$|
186333	0	object/static/corellia/rock_crystal_geyser_agrilat_small.iff	0	1080.99	18.0936	452.196	1	0	0	0		$|
186334	0	object/static/corellia/rock_crystal_geyser_agrilat_small.iff	0	1068.31	18.0833	426.656	1	0	0	0		$|
186335	0	object/static/corellia/rock_crystal_mound_agrilat_large.iff	0	1093.94	18.1634	447.011	1	0	0	0		$|
186336	0	object/static/corellia/rock_crystal_agrilat_arch_small.iff	0	974.073	18	445.595	0.953847	0	0.300293	0		$|
186337	0	object/static/corellia/rock_bowl_agrilat_single.iff	0	933.583	18	423.438	1	0	0	0		$|
186338	0	object/static/corellia/rock_crystal_mound_agrilat_medium.iff	0	935.967	18	425.263	1	0	0	0		$|
186339	0	object/static/corellia/rock_crystal_geyser_agrilat_small.iff	0	902.01	18	465.98	1	0	0	0		$|
186340	0	object/static/corellia/rock_crystal_geyser_agrilat_large.iff	0	903.102	18	454.643	1	0	0	0		$|
186341	0	object/static/corellia/rock_crystal_geyser_agrilat_small.iff	0	915.627	18	472.796	1	0	0	0		$|
186342	0	object/static/corellia/rock_crystal_geyser_agrilat_large.iff	0	809.059	18	437.143	1	0	0	0		$|
186343	0	object/static/corellia/rock_crystal_geyser_agrilat_small.iff	0	721.737	18	408.08	1	0	0	0		$|
186344	0	object/static/corellia/rock_crystal_geyser_agrilat_small.iff	0	673.255	18.3859	390.826	1	0	0	0		$|
186345	0	object/static/corellia/rock_crystal_geyser_agrilat_small.iff	0	720.03	18	394.226	-0.677082	0	0.735908	0		$|
186346	0	object/static/corellia/rock_crystal_mound_agrilat_large.iff	0	787.167	15.2807	368.368	1	0	0	0		$|
186347	0	object/static/corellia/rock_crystal_geyser_agrilat_small.iff	0	834.915	18	392.406	1	0	0	0		$|
186348	0	object/static/corellia/rock_crystal_geyser_agrilat_small.iff	0	846.518	18	385.598	1	0	0	0		$|
186349	0	object/static/corellia/rock_crystal_geyser_agrilat_small.iff	0	890.195	18	418.457	1	0	0	0		$|
186350	0	object/static/corellia/rock_crystal_geyser_agrilat_small.iff	0	882.253	18	410.533	1	0	0	0		$|
186351	0	object/static/corellia/rock_crystal_geyser_agrilat_small.iff	0	885.791	18.3063	397.297	1	0	0	0		$|
186352	0	object/static/corellia/rock_crystal_mound_agrilat_medium.iff	0	870.072	18	484.077	1	0	0	0		$|
186354	0	object/static/corellia/rock_crystal_mound_agrilat_medium.iff	0	841.652	18	466.942	1	0	0	0		$|
186355	0	object/static/corellia/rock_crystal_mound_agrilat_medium.iff	0	853.066	18	478.468	1	0	0	0		$|
186356	0	object/static/corellia/rock_crystal_mound_agrilat_medium.iff	0	907.467	16.8493	559.783	1	0	0	0		$|
186357	0	object/static/corellia/rock_crystal_mound_agrilat_medium.iff	0	942.01	18	689.041	1	0	0	0		$|
186358	0	object/static/corellia/rock_crystal_mound_agrilat_medium.iff	0	869.082	18	692.173	1	0	0	0		$|
186359	0	object/static/corellia/rock_crystal_geyser_agrilat_small.iff	0	970.693	18.0002	621.542	1	0	0	0		$|
186360	0	object/static/corellia/rock_crystal_geyser_agrilat_large.iff	0	971.2	18	593.104	1	0	0	0		$|
186361	0	object/static/corellia/rock_crystal_geyser_agrilat_small.iff	0	796.117	18.1197	773.175	1	0	0	0		$|
186362	0	object/static/corellia/rock_crystal_geyser_agrilat_small.iff	0	806.185	18.4972	896.205	1	0	0	0		$|
186363	0	object/static/corellia/rock_crystal_geyser_agrilat_small.iff	0	778.031	18.2892	816.903	1	0	0	0		$|
186364	0	object/static/corellia/rock_crystal_mound_agrilat_medium.iff	0	806.925	18.263	811.445	1	0	0	0		$|
186365	0	object/static/corellia/rock_crystal_mound_agrilat_medium.iff	0	698.563	18	598.806	1	0	0	0		$|
186366	0	object/static/corellia/rock_crystal_mound_agrilat_large.iff	0	680.647	18	545.948	1	0	0	0		$|
186367	0	object/static/corellia/rock_crystal_geyser_agrilat_small.iff	0	680.217	18	594.597	1	0	0	0		$|
186368	0	object/static/corellia/rock_crystal_geyser_agrilat_small.iff	0	672.601	18	499.446	1	0	0	0		$|
186369	0	object/static/corellia/rock_crystal_geyser_agrilat_small.iff	0	646.335	18	533.961	1	0	0	0		$|
186370	0	object/static/corellia/rock_crystal_geyser_agrilat_small.iff	0	658.442	18	494.007	1	0	0	0		$|
186371	0	object/static/corellia/rock_crystal_geyser_agrilat_small.iff	0	769.693	18.1722	614.43	1	0	0	0		$|
186372	0	object/static/corellia/rock_crystal_geyser_agrilat_large.iff	0	734.18	18.1559	602.639	1	0	0	0		$|
186373	0	object/static/corellia/rock_crystal_geyser_agrilat_large.iff	0	667.359	18.0746	570.145	1	0	0	0		$|
186374	0	object/static/corellia/rock_crystal_geyser_agrilat_large.iff	0	828.166	18	634.35	1	0	0	0		$|
186375	0	object/static/corellia/rock_crystal_geyser_agrilat_small.iff	0	850.361	18	655.795	1	0	0	0		$|
186376	0	object/static/corellia/rock_crystal_geyser_agrilat_small.iff	0	874.41	18	664.866	1	0	0	0		$|
186377	0	object/static/corellia/rock_crystal_arch_agrilat_medium.iff	0	868.167	18.4039	606.929	0.828148	0	-0.560509	0		$|
186378	0	object/static/corellia/rock_crystal_arch_agrilat_medium.iff	0	732.408	18.0063	396.174	0.828148	0	-0.560509	0		$|
186379	0	object/static/corellia/rock_crystal_agrilat_arch_small.iff	0	818.984	18.0969	335.915	0.802094	0	0.597198	0		$|
186380	0	object/static/corellia/rock_crystal_agrilat_arch_small.iff	0	919.552	18.2497	330.183	0.979061	0	-0.203567	0		$|
186381	0	object/static/corellia/rock_crystal_agrilat_arch_small.iff	0	965.469	18.0276	364.868	0.972514	0	0.232843	0		$|
186382	0	object/static/corellia/rock_crystal_mound_agrilat_medium.iff	0	1238.53	18.3057	474.821	1	0	0	0		$|
186383	0	object/static/corellia/rock_crystal_geyser_agrilat_small.iff	0	1220.27	18.3057	480.892	1	0	0	0		$|
186384	0	object/static/corellia/rock_crystal_mound_agrilat_medium.iff	0	1754.68	15.8588	624.983	1	0	0	0		$|
186385	0	object/static/corellia/rock_crystal_mound_agrilat_large.iff	0	1776.8	14.9869	609.947	1	0	0	0		$|
186386	0	object/static/corellia/rock_crystal_geyser_agrilat_small.iff	0	1772.86	18.3057	582.838	1	0	0	0		$|
186387	0	object/static/corellia/rock_crystal_agrilat_arch_small.iff	0	1658.28	18.4657	599.377	0.731685	0	0.681643	0		$|
186388	0	object/static/corellia/rock_crystal_mound_agrilat_medium.iff	0	800.068	16.4337	927.239	1	0	0	0		$|
529317	0	object/static/corellia/rock_crystal_agrilat_arch_small.iff	0	891.863	19.0716	541.228	1	0	0	0		$|
4275364	0	object/building/general/corellia_drall_cave.iff	0	1021.736	32.22141	85.27686	0.7071075	0	0.707106	0		$|
4275365	4275364	object/cell/cell.iff	1	0	0	0	1	1.401298E-45	0	0		$|
6036045	4275365	object/static/structure/corellia/corl_imprv_wall_4x16_s03.iff	0	-8.630271	-8.346423	-1.103695	0.7762495	0	-0.6084236	-0.08606472		$|
6036046	4275365	object/static/structure/tatooine/debris_tatt_pipe_narrow_1.iff	0	-10.31068	-6.369226	-8.520824	0.9025611	0	-0.3933144	-0.04435051		$|
4275366	4275364	object/cell/cell.iff	2	0	0	0	1	2.802597E-45	0	0		$|
6036048	4275366	object/tangible/container/loot/placable_loot_crate.iff	0	50.30782	-67.14603	-44.26173	0.883348	0	-0.4388346	-0.0536553		$|
4275367	4275364	object/cell/cell.iff	3	0	0	0	1	4.203895E-45	0	0		$|
4275368	4275364	object/cell/cell.iff	4	0	0	0	1	5.605194E-45	0	0		$|
4275369	4275364	object/cell/cell.iff	5	0	0	0	1	7.006492E-45	0	0		$|
4275370	4275364	object/cell/cell.iff	6	0	0	0	1	8.407791E-45	0	0		$|
683324	4275370	object/static/structure/general/streetlamp_medium_style_01_on.iff	0	52.65491	-70.80785	-115.9256	0.7179107	0	-0.6961352	0		$|
4275371	4275364	object/cell/cell.iff	7	0	0	0	1	9.809089E-45	0	0		$|
4275372	4275364	object/cell/cell.iff	8	0	0	0	1	1.121039E-44	0	0		$|
683325	4275372	object/static/structure/general/streetlamp_medium_style_01_on.iff	0	139.954	-66.82756	-125.382	0.9987503	0	-0.04997917	0		$|
6036049	4275372	object/tangible/container/loot/placable_loot_crate.iff	0	113.4743	-67.04577	-86.76102	0.0005240655	0	0.9944801	0.004972445		$|
6036050	4275372	object/tangible/container/loot/placable_loot_crate.iff	0	137.6884	-66.88319	-86.221	-0.2320325	0	0.9705241	-0.01027166		$|
4275373	4275364	object/cell/cell.iff	9	0	0	0	1	1.261169E-44	0	0		$|
4612071	4275373	object/tangible/collection/rare_pistol_oppressor.iff	0	195.0427	-65.97031	-97.34206	0.7141976	0	-0.01785868	-0.01749109		$|
6036051	4275373	object/tangible/container/loot/placable_loot_crate.iff	0	195.4821	-66.66642	-100.1481	0.8658943	0	-0.4950873	-0.02174893		$|
4275374	4275364	object/cell/cell.iff	10	0	0	0	1	1.401298E-44	0	0		$|
4275375	4275364	object/cell/cell.iff	11	0	0	0	1	1.541428E-44	0	0		$|
6036047	4275375	object/tangible/container/loot/placable_loot_crate.iff	0	90.55807	-46.44537	-147.3711	0.9415455	0	0.3339077	0.03217201		$|
