objid	container	server_template_crc	cell_index	px	py	pz	qw	qx	qy	qz	scripts	objvars
i	i	h	i	f	f	f	f	f	f	f	s	p
1331932	0	object/building/military/military_imperial_detachment_hq.iff	0	1120	30.6897	860	0.707107	0	-0.707106	0		$|
1331933	1331932	object/cell/cell.iff	1	0	0	0	1	1.401298E-45	0	0		$|
1331934	1331932	object/cell/cell.iff	2	0	0	0	1	2.802597E-45	0	0		$|
1331935	1331932	object/cell/cell.iff	3	0	0	0	1	4.203895E-45	0	0		$|
1331936	1331932	object/cell/cell.iff	4	0	0	0	1	5.605194E-45	0	0		$|
1331937	1331932	object/cell/cell.iff	5	0	0	0	1	7.006492E-45	0	0		$|
1331938	1331932	object/cell/cell.iff	6	0	0	0	1	8.407791E-45	0	0		$|
1331939	1331932	object/cell/cell.iff	7	0	0	0	1	9.809089E-45	0	0		$|
1110113	1331939	object/tangible/collection/scout_trooper_left_bracer.iff	7	-5.56154	-14.22352	-0.2914276	0.7485605	0	0.491173	0.1519375		$|
1331940	1331932	object/cell/cell.iff	8	0	0	0	1	1.121039E-44	0	0		$|
1331941	1331932	object/cell/cell.iff	9	0	0	0	1	1.261169E-44	0	0		$|
1331942	1331932	object/cell/cell.iff	10	0	0	0	1	1.401298E-44	0	0		$|
1331943	0	object/building/military/military_base_shed_imperial_barracks_s01.iff	0	1119	30.7801	875	0.707107	0	-0.707106	0		$|
1331944	1331943	object/cell/cell.iff	1	0	0	0	1	1.401298E-45	0	0		$|
1331945	1331943	object/cell/cell.iff	2	0	0	0	1	2.802597E-45	0	0		$|
1331946	1331943	object/cell/cell.iff	3	0	0	0	1	4.203895E-45	0	0		$|
1331947	1331943	object/cell/cell.iff	4	0	0	0	1	5.605194E-45	0	0		$|
1331948	1331943	object/cell/cell.iff	5	0	0	0	1	7.006492E-45	0	0		$|
1331949	1331943	object/cell/cell.iff	6	0	0	0	1	8.407791E-45	0	0		$|
1331950	0	object/building/military/military_base_shed_imperial_style_officer_s01.iff	0	1119	30.5743	845	-0.707107	0	0.707107	0		$|
1331951	1331950	object/cell/cell.iff	1	0	0	0	1	1.401298E-45	0	0		$|
1331952	1331950	object/cell/cell.iff	2	0	0	0	1	2.802597E-45	0	0		$|
1331953	1331950	object/cell/cell.iff	3	0	0	0	1	4.203895E-45	0	0		$|
1331954	1331950	object/cell/cell.iff	4	0	0	0	1	5.605194E-45	0	0		$|
1331955	1331950	object/cell/cell.iff	5	0	0	0	1	7.006492E-45	0	0		$|
1331956	1331950	object/cell/cell.iff	6	0	0	0	1	8.407791E-45	0	0		$|
1331957	0	object/static/structure/military/military_wall_med_imperial_32_style_01.iff	0	1128.97	31	860.025	0.707107	0	0.707106	0		$|
1331958	0	object/static/structure/military/military_wall_med_imperial_style_01.iff	0	1128.97	31	880.025	0.707107	0	0.707106	0		$|
1331960	0	object/static/structure/military/military_wall_med_imperial_32_style_01.iff	0	1112.97	31	884.025	1	0	0	0		$|
1331961	0	object/static/structure/military/military_wall_med_imperial_style_01.iff	0	1128.97	30.9042	840.025	0.707107	0	0.707107	0		$|
1331962	0	object/static/structure/military/military_wall_med_imperial_32_style_01.iff	0	1112.97	31	836.025	1	0	0	0		$|
1331964	0	object/static/structure/corellia/corl_imprv_wall_4x16_s03.iff	0	1096.97	31	876.025	0.707107	0	0.707106	0		$|
1331965	0	object/static/structure/corellia/corl_imprv_wall_4x16_s03.iff	0	1096.97	31	844.025	0.707107	0	0.707107	0		$|
1331967	0	object/static/structure/military/military_column_med_imperial_style_01.iff	0	1096.97	31	884.025	1	0	0	0		$|
1331968	0	object/static/structure/military/military_column_med_imperial_style_01.iff	0	1128.97	31	884.025	1	0	0	0		$|
1331969	0	object/static/structure/military/military_column_med_imperial_style_01.iff	0	1128.97	31	876.025	1	0	0	0		$|
1331970	0	object/static/structure/military/military_column_med_imperial_style_01.iff	0	1128.97	30.9595	844.025	1	0	0	0		$|
1331971	0	object/static/structure/military/military_column_med_imperial_style_01.iff	0	1128.97	30.9008	836.025	1	0	0	0		$|
1331972	0	object/static/structure/military/military_column_med_imperial_style_01.iff	0	1096.97	31	836.025	1	0	0	0		$|
1331974	0	object/static/structure/military/military_column_weak_imperial_style_01.iff	0	1096.97	31	868.025	1	0	0	0		$|
1331975	0	object/static/structure/military/military_column_weak_imperial_style_01.iff	0	1096.97	31	852.025	1	0	0	0		$|
1331982	0	object/static/structure/corellia/corl_power_arial_prime.iff	0	1127.02	30.9931	865.302	1	0	0	0		$|
1331983	0	object/static/structure/corellia/corl_power_transformer_s02.iff	0	1100.01	31	880.65	1	0	0	0		$|
1331984	0	object/static/structure/corellia/corl_power_connector.iff	0	1103.51	34.0077	880.667	1	0	0	0		$|
1331985	0	object/static/structure/corellia/corl_power_transformer_s02.iff	0	1107.49	31.0291	880.67	1	0	0	0		$|
1331988	0	object/static/structure/corellia/corl_tent_small.iff	0	1108.58	30.5511	839.479	0.707107	0	-0.707106	0		$|
1331989	0	object/static/structure/tatooine/palette_tatooine_style_01.iff	0	1108.61	30.4928	839.631	1	0	0	0		$|
1331990	0	object/static/structure/tatooine/debris_tatt_drum_storage_1.iff	0	1109.04	30.584	839.243	1	0	0	0		$|
1331991	0	object/static/structure/tatooine/debris_tatt_drum_storage_1.iff	0	1108.19	30.5959	839.263	1	0	0	0		$|
1331992	0	object/static/structure/tatooine/debris_tatt_crate_1.iff	0	1109.03	30.5976	840.095	0.707107	0	0.707107	0		$|
1331993	0	object/static/structure/tatooine/debris_tatt_drum_storage_2.iff	0	1108.02	30.6297	840.229	0.963771	0	-0.266731	0		$|
1331994	0	object/static/structure/tatooine/debris_tatt_crate_metal_1.iff	0	1108.62	31.4579	839.31	0.999687	0	-0.0249974	0		$|
1610866	0	object/static/structure/corellia/corl_imprv_bridge_insert_s01.iff	0	386.46	19.39	1111.61	-3.24463e-008	0.959661	8.56226e-009	0.281158		$|
1610867	0	object/static/structure/corellia/corl_imprv_bridge_insert_s01.iff	0	661.01	11.5713	1210.92	-4.25639e-008	0.99875	-1.8649e-009	-0.049979		$|
1610875	0	object/tangible/furniture/all/frn_bench_generic.iff	0	399.599	86	1043.41	0.862606	0	-0.505877	0		$|
1610876	0	object/tangible/furniture/all/frn_bench_generic.iff	0	397.858	86	1040.3	0.862606	0	-0.505877	0		$|
1610877	0	object/tangible/furniture/all/frn_bench_generic.iff	0	394.271	86	1038.01	0.990534	0	-0.137264	0		$|
1610878	0	object/tangible/furniture/all/frn_bench_generic.iff	0	390.861	86	1038.74	0.946042	0	0.324043	0		$|
1610879	0	object/tangible/furniture/all/frn_bench_generic.iff	0	399.642	86	1047.61	-0.603353	0	0.797474	0		$|
1610880	0	object/tangible/furniture/all/frn_bench_generic.iff	0	397.208	86	1050.08	-0.174108	0	0.984726	0		$|
2955365	0	object/building/corellia/filler_historic_32x16_s02.iff	0	788.835	86	1199.78	3.27029e-007	0	1	0		$|
2955370	0	object/building/corellia/filler_historic_32x16_s01.iff	0	753.107	86	1235.32	0.703845	0	0.710353	0		$|
2955381	0	object/building/corellia/filler_historic_32x16_s02.iff	0	621.702	85.5943	1127.8	0.272314	0	0.962209	0		$|
2955393	0	object/building/corellia/guild_university_corellia_style_01.iff	0	407.389	86	1017.03	0.967663	0	0.252245	0		$|
2955394	2955393	object/cell/cell.iff	1	0	0	0	1	1.401298E-45	0	0		$|
2955395	2955393	object/cell/cell.iff	2	0	0	0	1	2.802597E-45	0	0		$|
2955396	2955393	object/cell/cell.iff	3	0	0	0	1	4.203895E-45	0	0		$|
2955397	2955393	object/cell/cell.iff	4	0	0	0	1	5.605194E-45	0	0		$|
2955398	2955393	object/cell/cell.iff	5	0	0	0	1	7.006492E-45	0	0		$|
2955399	2955393	object/cell/cell.iff	6	0	0	0	1	8.407791E-45	0	0		$|
2955400	2955393	object/cell/cell.iff	7	0	0	0	1	9.809089E-45	0	0		$|
2955401	2955393	object/cell/cell.iff	8	0	0	0	1	1.121039E-44	0	0		$|
4612682	2955401	object/tangible/collection/rare_carbine_specops_bola.iff	8	-2.785562	3.663961	-7.044662	0.7109123	0	-0.7032804	0		$|
2955402	2955393	object/cell/cell.iff	9	0	0	0	1	1.261169E-44	0	0		$|
2955408	0	object/building/corellia/guild_commerce_corellia_style_01.iff	0	670.927	78	1133.6	0.961056	0	-0.276355	0		$|
2955409	2955408	object/cell/cell.iff	1	0	0	0	1	1.401298E-45	0	0		$|
4655382	2955409	object/tangible/terminal/terminal_bank.iff	1	-13.56458	2.5	13.86662	0.707107	0	0.7071065	0		$|
4655383	2955409	object/tangible/terminal/terminal_bank.iff	1	13.57956	2.5	14.17299	0.707107	0	-0.7071065	0		$|
2955410	2955408	object/cell/cell.iff	2	0	0	0	1	2.802597E-45	0	0		$|
2955411	2955408	object/cell/cell.iff	3	0	0	0	1	4.203895E-45	0	0		$|
2955412	2955408	object/cell/cell.iff	4	0	0	0	1	5.605194E-45	0	0		$|
2955413	2955408	object/cell/cell.iff	5	0	0	0	1	7.006492E-45	0	0		$|
2955414	2955408	object/cell/cell.iff	6	0	0	0	1	8.407791E-45	0	0		$|
2955415	2955408	object/cell/cell.iff	7	0	0	0	1	9.809089E-45	0	0		$|
2955416	2955408	object/cell/cell.iff	8	0	0	0	1	1.121039E-44	0	0		$|
2955417	2955408	object/cell/cell.iff	9	0	0	0	1	1.261169E-44	0	0		$|
2955418	0	object/building/corellia/guild_combat_corellia_style_01.iff	0	684.828	74	1335.62	-0.0207949	0	0.999784	0		$|
2955419	2955418	object/cell/cell.iff	1	0	0	0	1	1.401298E-45	0	0		$|
2955420	2955418	object/cell/cell.iff	2	0	0	0	1	2.802597E-45	0	0		$|
2955421	2955418	object/cell/cell.iff	3	0	0	0	1	4.203895E-45	0	0		$|
2955422	2955418	object/cell/cell.iff	4	0	0	0	1	5.605194E-45	0	0		$|
2955423	2955418	object/cell/cell.iff	5	0	0	0	1	7.006492E-45	0	0		$|
2955424	2955418	object/cell/cell.iff	6	0	0	0	1	8.407791E-45	0	0		$|
2955425	2955418	object/cell/cell.iff	7	0	0	0	1	9.809089E-45	0	0		$|
2955426	2955418	object/cell/cell.iff	8	0	0	0	1	1.121039E-44	0	0		$|
2955427	2955418	object/cell/cell.iff	9	0	0	0	1	1.261169E-44	0	0		$|
3005353	0	object/static/structure/corellia/corl_imprv_bridge_insert_s01.iff	0	629.05	84.9237	1150.62	0.872745	0	0.488177	0		$|
3005393	0	object/building/corellia/garage_corellia.iff	0	911.748	30.998	770.833	-0.422133	0	0.906534	0		$|
3005396	0	object/building/corellia/cantina_corellia.iff	0	615.828	78	1039.22	0.84104	0	0.540972	0		$|
3005397	3005396	object/cell/cell.iff	1	0	0	0	1	1.401298E-45	0	0		$|
8675406	3005397	object/tangible/furniture/tatooine/frn_tato_vase_style_01.iff	1	41.64432	0.104999	3.571995	1	0	0	0		$|
8675407	3005397	object/tangible/furniture/tatooine/frn_tato_vase_style_01.iff	1	45.28219	0.104999	3.556345	1	0	0	0		$|
8675408	3005397	object/tangible/furniture/tatooine/frn_tatt_chair_cantina_seat_2.iff	1	43.46785	0.104999	3.677125	3.200127E-08	0	1	0		$|
8675409	3005397	object/tangible/furniture/tatooine/frn_tatt_chair_cantina_seat_2.iff	1	39.75708	0.104999	3.7043	3.200127E-08	0	1	0		$|
8675410	3005397	object/tangible/furniture/tatooine/frn_tatt_chair_cantina_seat_2.iff	1	47.16235	0.104999	3.732574	3.200127E-08	0	1	0		$|
8675411	3005397	object/tangible/furniture/tatooine/frn_tatt_table_cantina_table_1.iff	1	43.42856	0.104999	2.132032	1	0	0	0		$|
8675412	3005397	object/tangible/furniture/tatooine/frn_tatt_table_cantina_table_1.iff	1	47.34473	0.105	1.901054	1	0	0	0		$|
8675413	3005397	object/tangible/furniture/tatooine/frn_tatt_table_cantina_table_1.iff	1	39.65493	0.104999	2.141865	1	0	0	0		$|
8675414	3005397	object/tangible/furniture/tatooine/frn_tatt_chair_cantina_seat.iff	1	42.21852	0.104999	1.154486	0.8445887	0	0.5354156	0		$|
8675415	3005397	object/tangible/furniture/tatooine/frn_tatt_chair_cantina_seat.iff	1	44.64269	0.104999	0.9424577	0.96639	0	-0.2570806	0		$|
8675416	3005397	object/tangible/furniture/tatooine/frn_tatt_chair_cantina_seat.iff	1	46.05541	0.103279	0.834527	0.9267984	0	0.3755592	0		$|
8675417	3005397	object/tangible/furniture/tatooine/frn_tatt_chair_cantina_seat.iff	1	48.48809	0.105	0.6305062	0.9847265	0	-0.1741081	0		$|
8675418	3005397	object/tangible/furniture/tatooine/frn_tatt_chair_cantina_seat.iff	1	40.88054	0.104999	1.030189	0.7991	0	-0.6011981	0		$|
8675419	3005397	object/tangible/furniture/tatooine/frn_tatt_chair_cantina_seat.iff	1	38.06637	0.104999	1.191516	0.8364626	0	0.548024	0		$|
8675420	3005397	object/static/item/item_basket_closed.iff	1	42.66918	0.104999	-4.431728	0.9736664	0	-0.2279775	0		$|
8675421	3005397	object/static/item/item_bottle_fat.iff	1	45.23666	0.104999	-4.608685	1	0	0	0		$|
8675422	3005397	object/static/item/item_bottle_pear.iff	1	44.96484	0.104999	-4.518711	1	0	0	0		$|
8675423	3005397	object/static/item/item_bottle_tall.iff	1	44.3938	0.104999	-4.838184	1	0	0	0		$|
8675424	3005397	object/static/item/item_container_energy_liquid.iff	1	43.47459	0.104999	-4.813522	1	0	0	0		$|
8675425	3005397	object/static/item/item_container_energy_liquid.iff	1	43.35258	0.104999	-4.465735	1	0	0	0		$|
3005398	3005396	object/cell/cell.iff	2	0	0	0	1	2.802597E-45	0	0		$|
8205542	3005398	object/soundobject/soundobject_cantina_small.iff	2	32.43493	0.105	0.758095	1	0	0	0		$|
3005399	3005396	object/cell/cell.iff	3	0	0	0	1	4.203895E-45	0	0		$|
3005400	3005396	object/cell/cell.iff	4	0	0	0	1	5.605194E-45	0	0		$|
8205520	3005400	object/soundobject/soundobject_cantina_medium.iff	4	20.84752	-0.894996	-16.98639	1	0	0	0		$|
3005401	3005396	object/cell/cell.iff	5	0	0	0	1	7.006492E-45	0	0		$|
8205523	3005401	object/soundobject/soundobject_cantina_medium.iff	5	17.99205	-0.894992	17.69388	1	0	0	0		$|
3005402	3005396	object/cell/cell.iff	6	0	0	0	1	8.407791E-45	0	0		$|
8205517	3005402	object/soundobject/soundobject_cantina_medium.iff	6	6.974274	-0.894992	-15.74232	1	0	0	0		$|
3005403	3005396	object/cell/cell.iff	7	0	0	0	1	9.809089E-45	0	0		$|
8205525	3005403	object/soundobject/soundobject_cantina_medium.iff	7	5.71975	-0.894992	18.22194	1	0	0	0		$|
3005404	3005396	object/cell/cell.iff	8	0	0	0	1	1.121039E-44	0	0		$|
8205514	3005404	object/soundobject/soundobject_cantina_medium.iff	8	-8.341747	-0.894926	-18.79477	1	0	0	0		$|
3005405	3005396	object/cell/cell.iff	9	0	0	0	1	1.261169E-44	0	0		$|
8205528	3005405	object/soundobject/soundobject_cantina_medium.iff	9	-7.34024	-0.894999	19.86106	1	0	0	0		$|
3005406	3005396	object/cell/cell.iff	10	0	0	0	1	1.401298E-44	0	0		$|
9015790	3005406	object/tangible/furniture/modern/coffee_table_modern_style_01.iff	10	-21.30239	-0.894989	-5.404157	0.707107	0	0.7071065	0		$|
9015791	3005406	object/static/item/item_tool_radio.iff	10	-21.45355	-0.1044197	-6.954189	0.2377026	0	0.971338	0		$|
9015792	3005406	object/static/item/item_shisha.iff	10	-21.06927	-0.1044197	-6.72414	0.2723134	0	0.9622087	0		$|
9015793	3005406	object/static/item/item_music_gong_stick.iff	10	-20.98445	-0.07279699	-5.680303	0.2984928	0	-0.641016	0.2984925		$|
9015795	3005406	object/static/item/item_makeup.iff	10	-21.26239	-0.1044197	-5.185879	0.632056	0	0.7749227	0		$|
9015797	3005406	object/static/item/item_drall_medicine.iff	10	-20.88498	-0.894989	-6.75731	0.707107	0	0.7071065	0		$|
9015800	3005406	object/static/item/item_speaker.iff	10	-21.09	-0.894988	6.525953	0.707107	0	0.7071065	0		$|
9015802	3005406	object/static/item/item_speaker.iff	10	-21.069	-0.894988	7.701771	0.7071072	0	0.7071063	0		$|
9015803	3005406	object/static/item/item_speaker.iff	10	-21.08572	-0.894988	8.735213	0.707107	0	0.7071065	0		$|
3005407	3005396	object/cell/cell.iff	11	0	0	0	1	1.541428E-44	0	0		$|
9015785	3005407	object/static/item/item_music_omni_box.iff	11	-29.29552	-0.894984	1.746376	-7.414812E-08	0	1	0		$|
9015786	3005407	object/static/item/item_music_red_ball_jet_organ.iff	11	-27.9214	-0.894985	2.394979	-3.200127E-08	0	1	0		$|
9015787	3005407	object/static/item/item_music_microphone_s2.iff	11	-29.33161	-0.894984	1.049465	-0.5425424	0	0.8400284	0		$|
9015788	3005407	object/static/item/item_music_microphone_s2.iff	11	-28.8469	-0.894984	1.469298	-0.5239719	0	0.8517355	0		$|
9015798	3005407	object/static/item/item_speaker.iff	0	-24.88503	-0.894984	-2.173506	1	0	0	0		$|
9015799	3005407	object/static/item/item_speaker.iff	0	-23.33769	-0.894991	-2.250524	1	0	0	0		$|
3005408	3005396	object/cell/cell.iff	12	0	0	0	1	1.681558E-44	0	0		$|
3005409	3005396	object/cell/cell.iff	13	0	0	0	1	1.821688E-44	0	0		$|
3005410	3005396	object/cell/cell.iff	14	0	0	0	1	1.961818E-44	0	0		$|
8205513	3005410	object/soundobject/soundobject_city_crowd_small.iff	14	-34.20569	0.10501	-18.18831	1	0	0	0		$|
3005411	3005396	object/cell/cell.iff	15	0	0	0	1	2.101948E-44	0	0		$|
8205511	3005411	object/soundobject/soundobject_city_crowd_small.iff	15	-44.17954	0.103918	-18.45548	1	0	0	0		$|
3005426	0	object/building/corellia/cloning_corellia.iff	0	561.035	69.9799	1153.65	0.970137	0	-0.242556	0		$|
3005427	3005426	object/cell/cell.iff	1	0	0	0	1	1.401298E-45	0	0		$|
3005428	3005426	object/cell/cell.iff	2	0	0	0	1	2.802597E-45	0	0		$|
3005429	3005426	object/cell/cell.iff	3	0	0	0	1	4.203895E-45	0	0		$|
3005430	3005426	object/cell/cell.iff	4	0	0	0	1	5.605194E-45	0	0		$|
3005431	3005426	object/cell/cell.iff	5	0	0	0	1	7.006492E-45	0	0		$|
3005432	3005426	object/cell/cell.iff	6	0	0	0	1	8.407791E-45	0	0		$|
3005434	0	object/static/structure/corellia/corl_stair_large_s01.iff	0	586.24	69.9609	1180.58	0.970137	0	-0.242556	0		$|
3005435	0	object/static/structure/corellia/corl_stair_large_s01.iff	0	524.44	69.9799	1147.73	0.970137	0	-0.242556	0		$|
3005436	0	object/static/structure/corellia/corl_imprv_wall_4x16_s02.iff	0	566.83	83	1133.87	0.96639	0	-0.257081	0		$|
3005440	0	object/static/structure/corellia/corl_imprv_column_s02.iff	0	604.245	84	1141.61	0.867819	0	0.496881	0		$|
3005441	0	object/static/structure/corellia/corl_imprv_wall_4x16_s02.iff	0	618.052	82.915	1148.78	0.974794	0	-0.223106	0		$|
3005444	0	object/static/structure/corellia/corl_imprv_column_s02.iff	0	610.521	84	1145.65	0.994772	0	0.102123	0		$|
3005451	0	object/static/structure/corellia/corl_imprv_wall_4x32_s02.iff	0	569.883	67	1188.72	0.971338	0	-0.237703	0		$|
3005452	0	object/static/structure/corellia/corl_imprv_wall_4x32_s02.iff	0	527.588	67	1166.28	0.970137	0	-0.242556	0		$|
3005454	0	object/static/structure/corellia/corl_imprv_wall_4x16_s02.iff	0	602.875	67	1196.12	-0.501902	0	0.864924	0		$|
3005456	0	object/static/structure/corellia/corl_imprv_wall_4x16_s02.iff	0	591.153	67	1199.76	0.236928	0	0.971527	0		$|
3005457	0	object/static/structure/corellia/corl_imprv_wall_4x16_s02.iff	0	548.67	67	1177.57	0.241783	0	0.97033	0		$|
3005470	0	object/static/structure/corellia/corl_imprv_bridge_insert_s01.iff	0	590.477	85.8084	1172.64	0.970137	0	-0.242556	0		$|
3005471	0	object/static/structure/corellia/corl_imprv_bridge_insert_s01.iff	0	528.675	85.8274	1139.79	0.970137	0	-0.242556	0		$|
3005473	0	object/static/structure/corellia/corl_imprv_wall_4x32_s02.iff	0	595.974	83	1155.99	-0.501902	0	0.864924	0		$|
3005488	0	object/static/structure/corellia/corl_imprv_wall_4x32_s02.iff	0	602.1	83	1159.09	-0.501902	0	0.864924	0		$|
3005489	0	object/static/structure/corellia/corl_imprv_column_s02.iff	0	625.802	84	1152.6	-0.496881	0	0.867819	0		$|
3005490	0	object/static/structure/corellia/corl_imprv_bridge_insert_s01.iff	0	630.734	84.9237	1151.65	0.872745	0	0.488177	0		$|
3005491	0	object/static/structure/corellia/corl_stair_medium_s01.iff	0	635.015	77.088	1154.29	0.872745	0	0.488177	0		$|
3005492	0	object/static/structure/corellia/corl_imprv_column_s02.iff	0	629.34	83.8992	1146.81	-0.492536	0	0.870292	0		$|
3005495	0	object/static/structure/corellia/corl_imprv_wall_4x32_s02.iff	0	540.121	83	1126.2	-0.50622	0	0.862404	0		$|
3005515	0	object/static/structure/corellia/corl_imprv_wall_4x32_s02.iff	0	490.066	83	1181.21	-0.497571	0	0.867423	0		$|
3005518	0	object/static/structure/corellia/corl_imprv_wall_4x32_s02.iff	0	464.396	83	1165.63	-0.488872	0	0.872355	0		$|
3005520	0	object/static/structure/corellia/corl_imprv_wall_4x16_s02.iff	0	473.862	83	1193.69	0.995004	0	-0.0998333	0		$|
3005521	0	object/static/structure/corellia/corl_imprv_wall_4x16_s02.iff	0	460.97	83	1185.77	0.900447	0	-0.434965	0		$|
3005540	0	object/static/structure/corellia/corl_imprv_arch_lg_s01.iff	0	496.061	86	1131.83	0.971338	0	-0.237703	0		$|
3005542	0	object/static/structure/corellia/corl_imprv_wall_4x16_s02.iff	0	480.466	83	1149.77	0.990901	0	0.134591	0		$|
3005543	0	object/static/structure/corellia/corl_imprv_wall_4x16_s02.iff	0	496.749	83	1159.39	0.768054	0	-0.640385	0		$|
3005546	0	object/static/structure/corellia/corl_imprv_wall_4x16_s02.iff	0	374.634	83	1030.22	-0.682222	0	0.731145	0		$|
3005548	0	object/static/structure/corellia/corl_imprv_wall_4x16_s02.iff	0	375.145	83	1047.03	0.748501	0	-0.663134	0		$|
3005549	0	object/static/structure/corellia/corl_imprv_wall_4x16_s02.iff	0	380.677	83	1062.31	0.875177	0	-0.483803	0		$|
3005551	0	object/static/structure/corellia/corl_imprv_wall_4x16_s02.iff	0	391.014	83	1074.58	0.932329	0	-0.361611	0		$|
3005553	0	object/static/structure/corellia/corl_imprv_wall_4x16_s02.iff	0	418.519	83	1091.13	0.984727	0	-0.174104	0		$|
3005554	0	object/static/structure/corellia/corl_imprv_wall_4x16_s02.iff	0	434.284	83	1094.5	0.9992	0	-0.0399846	0		$|
3005558	0	object/static/structure/corellia/corl_imprv_wall_4x16_s02.iff	0	474.673	83	1115.36	0.294755	0	0.955573	0		$|
3005559	0	object/static/structure/corellia/corl_imprv_wall_4x16_s02.iff	0	463.209	83	1103.9	0.46409	0	0.885788	0		$|
3005565	0	object/static/structure/corellia/corl_imprv_wall_4x16_s02.iff	0	462.616	83	1044.32	0.997189	0	-0.0749261	0		$|
3005566	0	object/static/structure/corellia/corl_imprv_wall_4x16_s02.iff	0	448.603	83	1036.77	0.917122	0	-0.398606	0		$|
3005567	0	object/static/structure/corellia/corl_imprv_wall_4x16_s02.iff	0	478.698	83	1046.52	0.998201	0	-0.0599603	0		$|
3005569	0	object/static/structure/corellia/corl_imprv_wall_4x16_s02.iff	0	439.656	83	1022.5	0.568104	0	0.822957	0		$|
3005570	0	object/static/structure/corellia/corl_imprv_wall_4x16_s02.iff	0	494.224	83	1050.98	0.976977	0	-0.213343	0		$|
3005573	0	object/static/structure/corellia/corl_imprv_wall_4x16_s02.iff	0	509.722	83	1072.7	0.862805	0	0.505537	0		$|
3005593	0	object/static/structure/corellia/corl_imprv_wall_4x32_s02.iff	0	706.625	83	1132.76	0.786921	0	-0.617054	0		$|
3005594	0	object/static/structure/corellia/corl_imprv_wall_4x32_s02.iff	0	721.071	83	1179.21	0.738472	0	-0.674284	0		$|
3005595	0	object/static/structure/corellia/corl_imprv_wall_4x16_s02.iff	0	715.08	83	1155.64	0.877585	0	-0.479422	0		$|
3005596	0	object/static/structure/corellia/corl_imprv_wall_4x32_s02.iff	0	716.791	83	1210.47	-0.569421	0	0.822046	0		$|
3005647	0	object/static/structure/corellia/corl_imprv_bridge_lg_s01.iff	0	662.406	78	1224.85	0.99875	0	0.0499792	0		$|
3005648	0	object/static/structure/corellia/corl_imprv_bridge_insert_s01.iff	0	661.009	78	1210.92	0.99875	0	0.0499792	0		$|
3005649	0	object/static/structure/corellia/corl_imprv_bridge_insert_s01.iff	0	658.214	77.9914	1183.06	0.99875	0	0.0499792	0		$|
3005650	0	object/static/structure/corellia/corl_imprv_bridge_lg_s01.iff	0	659.611	77.9938	1196.99	0.99875	0	0.0499792	0		$|
3005651	0	object/static/structure/corellia/corl_imprv_bridge_insert_s01.iff	0	663.805	78	1238.78	0.99875	0	0.0499792	0		$|
3005652	0	object/static/structure/corellia/corl_imprv_bridge_lg_s01.iff	0	665.201	78	1252.71	0.99875	0	0.0499792	0		$|
3005656	0	object/static/structure/corellia/corl_imprv_arch_lg_s02.iff	0	710.67	86	1250.76	0.714143	0	-0.699999	0		$|
3005658	0	object/static/structure/corellia/corl_imprv_wall_4x16_s02.iff	0	712.143	83	1264.02	0.774419	0	-0.632673	0		$|
3005660	0	object/static/structure/corellia/corl_imprv_wall_4x32_s02.iff	0	798.944	83	1255.9	-0.536092	0	0.844159	0		$|
3005661	0	object/static/structure/corellia/corl_imprv_wall_4x16_s02.iff	0	785.234	83	1275.46	-0.305817	0	0.95209	0		$|
3005662	0	object/static/structure/corellia/corl_imprv_wall_4x32_s02.iff	0	805.626	83	1224.71	0.710934	0	-0.703258	0		$|
3005663	0	object/static/structure/corellia/corl_imprv_wall_4x32_s02.iff	0	802.86	83	1192.57	0.761618	0	-0.648026	0		$|
3005664	0	object/static/structure/corellia/corl_imprv_wall_4x16_s02.iff	0	793.864	83	1170.67	0.37018	0	0.92896	0		$|
3005665	0	object/static/structure/corellia/corl_imprv_wall_4x32_s02.iff	0	750.99	83	1157.71	0.0591634	0	0.998248	0		$|
3005666	0	object/building/corellia/hotel_corellia.iff	0	855.139	86	1049.18	0.836026	0	-0.54869	0		$|
3005667	3005666	object/cell/cell.iff	1	0	0	0	1	1.401298E-45	0	0		$|
3005668	3005666	object/cell/cell.iff	2	0	0	0	1	2.802597E-45	0	0		$|
4655370	3005668	object/tangible/terminal/terminal_bank.iff	2	5.326007	0.999959	23.92769	-0.3826834	0	0.9238796	0		$|
4655371	3005668	object/tangible/terminal/terminal_bank.iff	2	-5.302091	0.999959	23.91132	0.3826835	0	0.9238795	0		$|
3005669	3005666	object/cell/cell.iff	3	0	0	0	1	4.203895E-45	0	0		$|
4607384	3005669	object/tangible/collection/rare_melee_xandank_lance.iff	3	-0.07898277	2.015273	17.88626	0.7073907	0	0	0		$|
3005670	3005666	object/cell/cell.iff	4	0	0	0	1	5.605194E-45	0	0		$|
1491047	3005670	object/tangible/space/content_infrastructure/ground_npc_spawner.iff	4	2.3	1.0	3.0	0.9999973	0	-0.002301926	0	space.content_tools.npc_spawner	$|
1491048	3005670	object/tangible/space/content_infrastructure/ground_npc_spawner.iff	4	1.2	1.0	3.0	0.9999973	0	-0.002301926	0	space.content_tools.npc_spawner	$|
1095028	3005670	object/tangible/gambling/slot/standard.iff	4	4.397291	1.312001	-22.09156	0.9999973	0	-0.002301926	0		$|
1095029	3005670	object/tangible/gambling/slot/standard.iff	4	0.3240089	1.311101	-22.049	0.9999973	0	-0.002301926	0		$|
1095030	3005670	object/tangible/gambling/wheel/roulette.iff	4	-1.155838	1.121297	-16.18844	0.9999973	0	-0.002301926	0		$|
1095031	3005670	object/tangible/gambling/wheel/roulette.iff	4	9.488628	1.122258	-16.19894	0.9999973	0	-0.002301926	0		$|
1095032	3005670	object/tangible/gambling/slot/standard.iff	4	8.43901	1.312001	-22.19546	0.9999973	0	-0.002301926	0		$|
8205474	3005670	object/soundobject/soundobject_city_crowd_small.iff	4	0.792716	0.999995	0.080743	1	0	0	0		$|
3005671	3005666	object/cell/cell.iff	5	0	0	0	1	7.006492E-45	0	0		$|
8205482	3005671	object/soundobject/soundobject_cantina_small.iff	5	18.17842	1.283091	-0.791838	1	0	0	0		$|
3005672	3005666	object/cell/cell.iff	6	0	0	0	1	8.407791E-45	0	0		$|
1095022	3005672	object/tangible/gambling/wheel/roulette.iff	6	-15.95807	1.000814	-0.05827949	0.9999243	0	-0.01230162	0		$|
1095023	3005672	object/tangible/gambling/wheel/roulette.iff	6	-16.05179	1.000829	4.310541	0.9999243	0	-0.01230162	0		$|
1095024	3005672	object/tangible/gambling/slot/standard.iff	6	-12.37182	1.000646	0.006196763	-0.6983541	0	0.7157534	0		$|
1095025	3005672	object/tangible/gambling/slot/standard.iff	6	-12.16869	1.000494	-0.009802556	0.7157527	0	0.6983538	0		$|
1095026	3005672	object/tangible/gambling/slot/standard.iff	6	-12.13789	1.000753	4.298326	0.7068264	0	0.7073871	0		$|
1095027	3005672	object/tangible/gambling/slot/standard.iff	6	-12.33998	1.0006	4.319234	0.707382	0	-0.706832	0		$|
8205475	3005672	object/soundobject/soundobject_city_crowd_small.iff	6	-14.63592	1.000635	3.057375	1	0	0	0		$|
3005673	3005666	object/cell/cell.iff	7	0	0	0	1	9.809089E-45	0	0		$|
3005674	3005666	object/cell/cell.iff	8	0	0	0	1	1.121039E-44	0	0		$|
3005675	3005666	object/cell/cell.iff	9	0	0	0	1	1.261169E-44	0	0		$|
3005676	3005666	object/cell/cell.iff	10	0	0	0	1	1.401298E-44	0	0		$|
3055708	0	object/static/structure/corellia/corl_imprv_wall_4x16_s02.iff	0	663.076	83	976.201	0.870293	0	0.492535	0		$|
3055709	0	object/static/structure/corellia/corl_stair_medium_s01.iff	0	650.991	78	989.016	0.780707	0	-0.624897	0		$|
3055710	0	object/static/structure/corellia/corl_imprv_bridge_insert_s01.iff	0	656.358	85.8606	987.813	0.780707	0	-0.624897	0		$|
3055711	0	object/static/structure/corellia/corl_imprv_bridge_insert_s01.iff	0	658.308	85.8606	987.374	0.780707	0	-0.624897	0		$|
3055712	0	object/static/structure/corellia/corl_imprv_column_s02.iff	0	660.051	84	990.57	-0.110175	0	0.993912	0		$|
3055713	0	object/static/structure/corellia/corl_imprv_column_s02.iff	0	658.519	84	983.74	-0.110174	0	0.993912	0		$|
3055716	0	object/static/structure/corellia/corl_imprv_wall_4x16_s02.iff	0	673.054	83	963.559	0.924909	0	0.380189	0		$|
3055717	0	object/static/structure/corellia/corl_imprv_wall_4x16_s02.iff	0	693.427	83	944.721	0.934124	0	0.35695	0		$|
3055718	0	object/static/structure/corellia/corl_imprv_wall_4x16_s02.iff	0	701.897	83	931.64	0.805071	0	0.593178	0		$|
3055719	0	object/static/structure/corellia/corl_imprv_wall_4x16_s02.iff	0	705.387	83	916.05	0.755093	0	0.655618	0		$|
3055720	0	object/static/structure/corellia/corl_imprv_wall_4x16_s02.iff	0	713.4	83	903.65	0.959661	0	0.281158	0		$|
3055721	0	object/static/structure/corellia/corl_imprv_wall_4x16_s02.iff	0	726.713	83	893.86	0.939373	0	0.342898	0		$|
3055722	0	object/static/structure/corellia/corl_imprv_wall_4x16_s02.iff	0	734.183	83	901.954	0.911038	0	0.412321	0		$|
3055723	0	object/static/structure/corellia/corl_imprv_wall_4x16_s02.iff	0	723.068	83	914.127	0.919102	0	0.394019	0		$|
3055724	0	object/static/structure/corellia/corl_imprv_wall_4x16_s02.iff	0	718.609	83	927.963	0.659982	0	0.751281	0		$|
3055725	0	object/static/structure/corellia/corl_imprv_wall_4x16_s02.iff	0	720.682	83	943.849	0.659982	0	0.751281	0		$|
3055726	0	object/static/structure/corellia/corl_imprv_wall_4x16_s02.iff	0	718.721	83	968.328	0.855127	0	0.518418	0		$|
3055727	0	object/static/structure/corellia/corl_imprv_wall_4x16_s02.iff	0	698.762	83	1020.22	0.972515	0	0.232841	0		$|
3055728	0	object/static/structure/corellia/corl_imprv_wall_4x32_s02.iff	0	706.112	83	1000.33	0.707388	0	0.706825	0		$|
3055731	0	object/static/structure/corellia/corl_imprv_wall_4x32_s02.iff	0	734.582	83	1122.46	0.738471	0	0.674285	0		$|
3055733	0	object/static/structure/corellia/corl_imprv_wall_4x16_s02.iff	0	733.916	83	1146.84	0.741831	0	-0.670587	0		$|
3055734	0	object/static/structure/corellia/corl_imprv_arch_lg_s02.iff	0	727.591	85.9986	1159.12	0.975897	0	0.21823	0		$|
3055787	0	object/static/structure/corellia/corl_imprv_wall_4x32_s02.iff	0	656.695	83	1038.6	0.802097	0	0.597193	0		$|
3055788	0	object/static/structure/corellia/corl_imprv_wall_4x16_s02.iff	0	662.047	83	999.207	0.62161	0	0.783327	0		$|
3055789	0	object/static/structure/corellia/corl_imprv_wall_4x16_s02.iff	0	662.583	83	1015.23	0.761611	0	0.648034	0		$|
3055790	0	object/static/structure/corellia/corl_imprv_wall_4x16_s02.iff	0	633.932	83	1089.89	0.917121	0	0.398609	0		$|
3055791	0	object/static/structure/corellia/corl_imprv_wall_4x32_s02.iff	0	645.841	83	1068.98	0.833713	0	0.552198	0		$|
3055792	0	object/static/structure/corellia/corl_imprv_wall_4x16_s02.iff	0	621.12	83	1099.43	0.972514	0	0.232843	0		$|
3055793	0	object/static/structure/corellia/corl_imprv_wall_4x16_s02.iff	0	606.3	83	1105.99	0.983844	0	0.179029	0		$|
3055794	0	object/static/structure/corellia/corl_stair_medium_s01.iff	0	579.918	77.9775	1099.31	0.0749297	0	0.997189	0		$|
3055795	0	object/static/structure/corellia/corl_imprv_bridge_insert_s01.iff	0	579.096	85.7757	1104.75	0.0749297	0	0.997189	0		$|
3055796	0	object/static/structure/corellia/corl_imprv_bridge_insert_s01.iff	0	578.797	85.7757	1106.73	0.0749297	0	0.997189	0		$|
3055797	0	object/static/structure/corellia/corl_imprv_column_s02.iff	0	575.187	83	1107.2	0.758103	0	0.652135	0		$|
3055798	0	object/static/structure/corellia/corl_imprv_column_s02.iff	0	582.108	83	1108.24	0.7581	0	0.652138	0		$|
3055801	0	object/static/structure/corellia/corl_imprv_wall_4x16_s02.iff	0	590.459	83	1108.54	0.9998	0	-0.0199987	0		$|
3055802	0	object/static/structure/corellia/corl_imprv_wall_4x16_s02.iff	0	566.939	83	1104.64	0.987227	0	-0.159318	0		$|
3055804	0	object/static/structure/corellia/corl_imprv_wall_4x32_s02.iff	0	544.955	83	1094.34	0.246632	0	0.969109	0		$|
3055805	0	object/static/structure/corellia/corl_imprv_wall_4x16_s02.iff	0	568.61	75	1092.32	0.219007	0	0.975723	0		$|
3055806	0	object/static/structure/corellia/corl_imprv_wall_4x16_s02.iff	0	609.022	75	994.289	0.839193	0	0.543834	0		$|
3055807	0	object/static/structure/corellia/corl_imprv_wall_4x16_s02.iff	0	631.442	75	972.878	0.992809	0	0.119712	0		$|
3055809	0	object/static/structure/corellia/corl_imprv_wall_4x16_s02.iff	0	617.922	75	980.81	0.915117	0	0.403189	0		$|
3055810	0	object/static/structure/corellia/corl_imprv_column_s01.iff	0	575.546	76	1095.62	0.976976	0	-0.213347	0		$|
3055817	0	object/static/structure/corellia/corl_imprv_bridge_insert_s01.iff	0	666.583	77.9572	1266.58	0.99875	0	0.0499789	0		$|
3055818	0	object/static/structure/corellia/corl_imprv_wall_4x32_s02.iff	0	672.638	75	1173.1	-0.471328	0	0.881957	0		$|
3055821	0	object/static/structure/corellia/corl_imprv_wall_4x16_s02.iff	0	646.16	75	1185.77	0.997189	0	-0.0749289	0		$|
3055823	0	object/static/structure/corellia/corl_imprv_wall_4x16_s02.iff	0	633.982	75	1178.36	0.889293	0	-0.457338	0		$|
3055824	0	object/static/structure/corellia/corl_imprv_wall_4x16_s02.iff	0	630.478	75	1164.34	0.755092	0	0.655619	0		$|
3055825	0	object/static/structure/corellia/corl_imprv_column_s02.iff	0	631.405	76	1157.18	0.95955	0	-0.281538	0		$|
3055826	0	object/static/structure/corellia/corl_imprv_column_s02.iff	0	629.445	76	1172.19	0.95955	0	-0.281538	0		$|
3055827	0	object/static/structure/corellia/corl_imprv_column_s02.iff	0	638.615	76	1184.46	0.95955	0	-0.281538	0		$|
3055828	0	object/static/structure/corellia/corl_imprv_column_s02.iff	0	653.573	76	1186.89	0.997523	0	-0.0703385	0		$|
3055829	0	object/static/structure/corellia/corl_imprv_column_s02.iff	0	663.8	76	1186.35	0.95955	0	-0.281538	0		$|
3055830	0	object/static/structure/corellia/corl_imprv_column_s02.iff	0	681.604	76	1159.7	0.95955	0	-0.281538	0		$|
3055833	0	object/static/structure/corellia/corl_imprv_column_s02.iff	0	606.241	68	1189.17	0.783575	0	-0.621297	0		$|
3055835	0	object/static/structure/corellia/corl_imprv_column_s02.iff	0	598.518	68	1203.09	0.980145	0	0.198281	0		$|
3055836	0	object/static/structure/corellia/corl_imprv_column_s02.iff	0	513.672	68	1158.43	0.764587	0	-0.644521	0		$|
3055837	0	object/static/structure/corellia/corl_imprv_column_s02.iff	0	541.77	68	1173.64	0.967563	0	-0.252629	0		$|
3055838	0	object/static/structure/corellia/corl_imprv_column_s02.iff	0	555.738	68	1181.24	0.972422	0	-0.233229	0		$|
3055839	0	object/static/structure/corellia/corl_imprv_column_s02.iff	0	584.068	68	1196	0.971244	0	-0.238088	0		$|
3075399	0	object/static/structure/corellia/corl_imprv_column_s02.iff	0	588.428	84	1169.56	0.862806	0	0.505534	0		$|
3075400	0	object/static/structure/corellia/corl_imprv_column_s02.iff	0	594.378	84	1172.64	0.860268	0	0.509842	0		$|
3075401	0	object/static/structure/corellia/corl_imprv_column_s02.iff	0	526.475	84	1136.66	0.857709	0	0.514136	0		$|
3075402	0	object/static/structure/corellia/corl_imprv_column_s02.iff	0	532.549	84	1139.84	0.860268	0	0.509842	0		$|
3075404	0	object/static/structure/corellia/corl_imprv_column_s02.iff	0	548.313	84	1111.67	0.860268	0	0.509842	0		$|
3075638	0	object/static/structure/corellia/corl_imprv_column_s02.iff	0	670.126	76	1268.01	0.744909	0	-0.667166	0		$|
3075639	0	object/static/structure/corellia/corl_imprv_column_s02.iff	0	663.514	76	1268.66	0.744911	0	-0.667163	0		$|
3075640	0	object/static/structure/corellia/corl_imprv_column_s02.iff	0	714.144	84	1271.81	0.928519	0	-0.371285	0		$|
3075641	0	object/static/structure/corellia/corl_imprv_column_s02.iff	0	778.295	84	1280.1	0.994534	0	0.104417	0		$|
3075643	0	object/static/structure/corellia/corl_imprv_column_s02.iff	0	791.925	84	1270.48	-0.366648	0	0.93036	0		$|
3075644	0	object/static/structure/corellia/corl_imprv_column_s02.iff	0	805.545	84	1240.93	-0.65214	0	0.758099	0		$|
3075645	0	object/static/structure/corellia/corl_imprv_column_s02.iff	0	805.204	84	1208.51	0.728002	0	-0.685575	0		$|
3075646	0	object/static/structure/corellia/corl_imprv_column_s02.iff	0	799.855	84	1176.79	0.862609	0	-0.505872	0		$|
3075647	0	object/static/structure/corellia/corl_imprv_column_s02.iff	0	788.176	84	1165.5	1	0	-0.000392651	0		$|
3075648	0	object/static/structure/corellia/corl_imprv_column_s02.iff	0	735.091	84	1155.29	0.89139	0	-0.453236	0		$|
3075649	0	object/static/structure/corellia/corl_imprv_column_s02.iff	0	719.446	84	1162.84	0.816547	0	-0.57728	0		$|
3075650	0	object/static/structure/corellia/corl_imprv_column_s02.iff	0	722.371	84	1195.27	-0.659688	0	0.751539	0		$|
3075651	0	object/static/structure/corellia/corl_imprv_column_s02.iff	0	733.239	84	1138.69	-0.696425	0	0.717629	0		$|
3075652	0	object/static/structure/corellia/corl_imprv_column_s02.iff	0	736.022	84	1106.71	0.836248	0	-0.548352	0		$|
3075653	0	object/static/structure/corellia/corl_imprv_column_s02.iff	0	694.563	84	1042.43	0.872553	0	-0.48852	0		$|
3075654	0	object/static/structure/corellia/corl_imprv_column_s02.iff	0	704.242	84	1055.95	0.893646	0	-0.448773	0		$|
3075658	0	object/static/structure/corellia/corl_imprv_column_s02.iff	0	705.735	84	1016.28	-0.466565	0	0.884487	0		$|
3075659	0	object/static/structure/corellia/corl_imprv_column_s02.iff	0	710.85	84	1148.8	0.841689	0	-0.539962	0		$|
3075660	0	object/static/structure/corellia/corl_imprv_column_s02.iff	0	702.637	84.0001	1117.01	0.862608	0	-0.505872	0		$|
3075663	0	object/static/structure/corellia/corl_imprv_column_s02.iff	0	628.334	84	1095.73	0.953965	0	0.299919	0		$|
3075664	0	object/static/structure/corellia/corl_imprv_column_s02.iff	0	639.408	84	1083.79	-0.47943	0	0.87758	0		$|
3075666	0	object/static/structure/corellia/corl_imprv_column_s02.iff	0	652.105	84	1054.07	-0.581364	0	0.813644	0		$|
3075667	0	object/static/structure/corellia/corl_imprv_column_s02.iff	0	661.308	84	1023.18	-0.621302	0	0.783571	0		$|
3075668	0	object/static/structure/corellia/corl_imprv_gate_sm_s01.iff	0	736.794	85.806	891.813	0.393286	0	0.919416	0		$|
3075669	0	object/static/structure/corellia/corl_imprv_column_s02.iff	0	740.009	84	895.53	0.915114	0	0.403195	0		$|
3075670	0	object/static/structure/corellia/corl_imprv_column_s02.iff	0	733.411	84	888.237	0.935895	0	0.352279	0		$|
3075678	0	object/static/structure/corellia/corl_imprv_column_s02.iff	0	720.381	84	899.153	-0.291126	0	0.956685	0		$|
3075679	0	object/static/structure/corellia/corl_imprv_column_s02.iff	0	728.627	84	908.14	-0.434971	0	0.900445	0		$|
3075680	0	object/static/structure/corellia/corl_imprv_column_s02.iff	0	706.826	84	908.241	-0.461784	0	0.886992	0		$|
3075681	0	object/static/structure/corellia/corl_imprv_column_s02.iff	0	717.936	84	920.052	-0.597519	0	0.801855	0		$|
3075682	0	object/static/structure/corellia/corl_imprv_column_s02.iff	0	704.167	84	924.087	-0.621302	0	0.783571	0		$|
3075683	0	object/static/structure/corellia/corl_imprv_column_s02.iff	0	699.307	84	939.281	-0.497231	0	0.867618	0		$|
3075684	0	object/static/structure/corellia/corl_imprv_column_s02.iff	0	667.358	84	969.367	-0.430463	0	0.902608	0		$|
3075685	0	object/static/structure/corellia/corl_imprv_column_s02.iff	0	663.796	84	1007.15	-0.703566	0	0.710629	0		$|
3075686	0	object/static/structure/corellia/corl_imprv_column_s02.iff	0	613.878	84	1103.08	0.979141	0	0.203183	0		$|
3075687	0	object/static/structure/corellia/corl_imprv_column_s02.iff	0	598.578	84	1108.76	0.997578	0	0.0695512	0		$|
3075688	0	object/static/structure/corellia/corl_imprv_column_s02.iff	0	559.162	84	1101.99	0.98193	0	-0.189244	0		$|
3075689	0	object/static/structure/corellia/corl_imprv_arch_sm_s01.iff	0	523.391	86	1118.32	0.857709	0	0.514136	0		$|
3075690	0	object/static/structure/corellia/corl_imprv_arch_sm_s01.iff	0	493.712	86	1102.54	0.857709	0	0.514136	0		$|
3075691	0	object/static/structure/corellia/corl_imprv_column_s02.iff	0	472.84	84	1152.13	-0.3102	0	0.950671	0		$|
3075692	0	object/static/structure/corellia/corl_imprv_column_s02.iff	0	488.875	86	1147.47	-0.13499	0	0.990847	0		$|
3075693	0	object/static/structure/corellia/corl_imprv_column_s02.iff	0	495.103	86	1150.79	0.764589	0	-0.644518	0		$|
3075694	0	object/static/structure/corellia/corl_imprv_column_s02.iff	0	497.877	84	1167.36	-0.640695	0	0.767795	0		$|
3075695	0	object/static/structure/corellia/corl_imprv_column_s02.iff	0	481.917	84	1194.91	0.963876	0	0.266353	0		$|
3075696	0	object/static/structure/corellia/corl_imprv_column_s02.iff	0	466.1	84	1191.92	0.953729	0	-0.300668	0		$|
3075697	0	object/static/structure/corellia/corl_imprv_column_s02.iff	0	456.404	84	1179.4	-0.700005	0	0.714138	0		$|
3075698	0	object/static/structure/corellia/corl_imprv_column_s02.iff	0	513.263	84	1065.47	0.758106	0	-0.652131	0		$|
3075699	0	object/static/structure/corellia/corl_imprv_column_s02.iff	0	501.528	84	1054.47	0.958132	0	-0.286328	0		$|
3075700	0	object/static/structure/corellia/corl_imprv_column_s02.iff	0	486.828	84	1047.66	0.988712	0	-0.149826	0		$|
3075701	0	object/static/structure/corellia/corl_imprv_column_s02.iff	0	470.647	84	1045.56	0.997863	0	-0.0653461	0		$|
3075702	0	object/static/structure/corellia/corl_imprv_column_s02.iff	0	454.662	84	1042.9	0.976893	0	-0.213731	0		$|
3075703	0	object/static/structure/corellia/corl_imprv_column_s02.iff	0	442.862	83.8419	1030.56	0.882148	0	-0.470972	0		$|
3075705	0	object/static/structure/corellia/corl_imprv_column_s02.iff	0	375.62	84	1022.29	-0.475387	0	0.879777	0		$|
3075706	0	object/static/structure/corellia/corl_imprv_column_s02.iff	0	374.077	84	1038.65	0.710637	0	-0.703559	0		$|
3075707	0	object/static/structure/corellia/corl_imprv_column_s02.iff	0	376.377	84	1055.21	0.836247	0	-0.548352	0		$|
3075708	0	object/static/structure/corellia/corl_imprv_column_s02.iff	0	385.184	84	1069.23	0.912929	0	-0.408119	0		$|
3075709	0	object/static/structure/corellia/corl_imprv_column_s02.iff	0	396.795	86	1080	0.933984	0	-0.357316	0		$|
3075710	0	object/static/structure/corellia/corl_imprv_column_s02.iff	0	411.101	86	1088.35	0.983773	0	-0.179416	0		$|
3075711	0	object/static/structure/corellia/corl_imprv_column_s02.iff	0	426.197	84	1093.77	0.996356	0	-0.0852888	0		$|
3075712	0	object/static/structure/corellia/corl_imprv_column_s02.iff	0	442.418	84	1095.28	0.999184	0	-0.0403816	0		$|
3075713	0	object/static/structure/corellia/corl_imprv_column_s02.iff	0	458.34	84	1097.45	0.970042	0	-0.242937	0		$|
3075714	0	object/static/structure/corellia/corl_imprv_column_s02.iff	0	467.98	84	1110.65	0.914958	0	-0.403549	0		$|
3075715	0	object/static/structure/corellia/corl_imprv_column_s02.iff	0	436.607	84	1014.67	0.865127	0	-0.501553	0		$|
3075716	0	object/static/structure/corellia/corl_imprv_column_s02.iff	0	612.464	76	986.886	-0.462137	0	0.886808	0		$|
3075717	0	object/static/structure/corellia/corl_imprv_column_s02.iff	0	623.502	76	974.997	-0.172937	0	0.984933	0		$|
3075718	0	object/static/structure/corellia/corl_imprv_column_s02.iff	0	639.387	76	971.246	0.18355	0	0.98301	0		$|
3075722	0	object/static/structure/corellia/corl_stair_small_s01.iff	0	675.452	74	1289.74	0.959662	0	0.281157	0		$|
3075723	0	object/static/structure/corellia/corl_imprv_bridge_insert_s01.iff	0	673.833	77.8154	1287.21	0.959662	0	0.281157	0		$|
3075724	0	object/static/structure/corellia/corl_imprv_bridge_insert_s01.iff	0	672.753	77.8154	1285.53	0.959662	0	0.281157	0		$|
3075725	0	object/static/structure/corellia/corl_imprv_column_s02.iff	0	675.161	75.5347	1282.8	0.479776	0	0.877391	0		$|
3075726	0	object/static/structure/corellia/corl_imprv_column_s02.iff	0	669.268	75.5347	1286.57	0.479776	0	0.877391	0		$|
3075727	0	object/static/structure/corellia/corl_imprv_column_s02.iff	0	654.729	76	1181.62	0.744913	0	-0.667161	0		$|
3075728	0	object/static/structure/corellia/corl_imprv_column_s02.iff	0	661.342	76	1180.97	0.744912	0	-0.667163	0		$|
3075729	0	object/static/structure/corellia/corl_imprv_bridge_insert_s01.iff	0	761.468	85.9485	1090.14	0.54869	0	0.836026	0		$|
3075730	0	object/static/structure/corellia/corl_imprv_bridge_lg_s01.iff	0	774.313	85.9485	1084.57	0.54869	0	0.836026	0		$|
3075731	0	object/static/structure/corellia/corl_imprv_bridge_insert_s01.iff	0	787.157	85.9485	1079	0.54869	0	0.836026	0		$|
3075732	0	object/static/structure/corellia/corl_imprv_bridge_lg_s01.iff	0	800.001	85.9485	1073.43	0.54869	0	0.836026	0		$|
3075733	0	object/static/structure/corellia/corl_imprv_bridge_insert_s01.iff	0	812.792	85.9485	1067.9	0.54869	0	0.836026	0		$|
3075736	0	object/static/structure/corellia/corl_imprv_bridge_lg_s01.iff	0	748.624	85.9485	1095.71	0.54869	0	0.836026	0		$|
3075737	0	object/static/structure/corellia/corl_imprv_bridge_insert_s01.iff	0	735.78	85.9485	1101.28	0.54869	0	0.836026	0		$|
3075771	0	object/static/structure/corellia/corl_imprv_column_s02.iff	0	732.033	84	1097.46	0.836247	0	-0.548352	0		$|
3075773	0	object/static/structure/corellia/corl_imprv_arch_sm_s01.iff	0	814.234	86	1067.26	0.836463	0	-0.548024	0		$|
3075774	0	object/static/structure/corellia/corl_imprv_arch_sm_s01.iff	0	734.345	86	1101.93	0.836462	0	-0.548024	0		$|
3075775	0	object/static/structure/corellia/corl_imprv_column_s02.iff	0	806.01	84	1065.97	0.548352	0	0.836247	0		$|
3075776	0	object/static/structure/corellia/corl_imprv_wall_4x32_s02.iff	0	807.45	83	1050.22	-0.674284	0	0.738472	0		$|
3075778	0	object/static/structure/corellia/corl_imprv_column_s02.iff	0	809.024	84	1033.7	0.78667	0	0.617374	0		$|
3075781	0	object/static/structure/corellia/corl_imprv_wall_4x32_s02.iff	0	822.608	83	1084.17	0.31751	0	0.948255	0		$|
3075782	0	object/static/structure/corellia/corl_imprv_column_s02.iff	0	809.689	84	1074.08	0.837724	0	-0.546093	0		$|
3075788	0	object/static/structure/corellia/corl_imprv_column_s02.iff	0	836.001	84	1093.99	0.184338	0	0.982863	0		$|
3075792	0	object/static/structure/corellia/corl_stair_large_s01.iff	0	886.319	84.9605	1081.71	-0.557023	0	0.830497	0		$|
3075793	0	object/static/structure/corellia/corl_imprv_bridge_insert_s01.iff	0	896.495	100.787	1085.88	-0.557023	0	0.830497	0		$|
3075794	0	object/static/structure/corellia/corl_imprv_bridge_insert_s01.iff	0	894.644	100.787	1085.13	-0.557023	0	0.830497	0		$|
3075795	0	object/static/structure/corellia/corl_imprv_column_s02.iff	0	898.749	99	1083.02	0.193375	0	0.981125	0		$|
3075796	0	object/static/structure/corellia/corl_imprv_column_s02.iff	0	896.094	99	1089.5	0.193366	0	0.981126	0		$|
3075800	0	object/static/structure/corellia/corl_imprv_wall_4x16_s02.iff	0	939.067	98	1112.48	0.999888	0	-0.0149995	0		$|
3075801	0	object/static/structure/corellia/corl_imprv_wall_4x16_s02.iff	0	959.658	98	1093.09	-0.696421	0	0.717633	0		$|
3075802	0	object/static/structure/corellia/corl_imprv_wall_4x16_s02.iff	0	925.253	98	1106.06	0.918036	0	-0.396498	0		$|
3075803	0	object/static/structure/corellia/corl_imprv_wall_4x16_s02.iff	0	953.241	98	1106.9	0.929516	0	0.368783	0		$|
3075804	0	object/static/structure/corellia/corl_imprv_wall_4x16_s02.iff	0	940.267	98	1072.49	0.999888	0	-0.0149995	0		$|
3075805	0	object/static/structure/corellia/corl_imprv_wall_4x16_s02.iff	0	954.081	98	1078.91	0.918036	0	-0.396498	0		$|
3075806	0	object/static/structure/corellia/corl_imprv_wall_4x16_s02.iff	0	926.093	98	1078.07	0.929516	0	0.368783	0		$|
3075807	0	object/static/structure/corellia/corl_imprv_column_s01.iff	0	931.071	100.654	1112.24	0.999888	0	-0.0149995	0		$|
3075808	0	object/static/structure/corellia/corl_imprv_column_s01.iff	0	947.063	100.654	1112.72	0.999888	0	-0.0149995	0		$|
3075809	0	object/static/structure/corellia/corl_imprv_column_s01.iff	0	948.263	100.654	1072.73	0.999888	0	-0.0149995	0		$|
3075810	0	object/static/structure/corellia/corl_imprv_column_s01.iff	0	932.27	100.654	1072.25	0.999888	0	-0.0149995	0		$|
3075811	0	object/static/structure/corellia/corl_imprv_column_s01.iff	0	959.418	100.654	1101.08	0.929516	0	0.368783	0		$|
3075812	0	object/static/structure/corellia/corl_imprv_column_s01.iff	0	959.898	100.654	1085.09	0.396498	0	0.918036	0		$|
3075813	0	object/static/structure/corellia/corl_imprv_column_s01.iff	0	919.436	100.654	1099.88	0.918036	0	-0.396498	0		$|
3075814	0	object/static/structure/corellia/corl_imprv_column_s01.iff	0	919.916	100.654	1083.89	0.929515	0	0.368784	0		$|
3075853	0	object/static/structure/corellia/corl_banner_govt_angled_s01.iff	0	435.132	90.5	1037.34	0.974794	0	0.223106	0		$|
3075854	0	object/static/structure/corellia/corl_banner_govt_angled_s01.iff	0	409.799	90.5	1051.43	0.974794	0	0.223106	0		$|
3075855	0	object/static/structure/general/bench_generic_style_1.iff	0	425.174	88.5239	1027.87	0.968912	0	0.247404	0		$|
3075856	0	object/static/structure/general/bench_generic_style_1.iff	0	407.356	88.5036	1037.84	0.970137	0	0.242556	0		$|
3075857	0	object/tangible/terminal/terminal_mission.iff	0	411.701	88.5313	1037.07	0.968912	0	0.247404	0		$|
3075858	0	object/tangible/terminal/terminal_mission.iff	0	422.319	88.5313	1031.11	0.968912	0	0.247404	0		$|
3075860	0	object/static/structure/corellia/corl_imprv_gate_sm_s01.iff	0	432.219	86	1015.37	0.959662	0	0.281157	0		$|
3075862	0	object/static/structure/corellia/corl_power_bubble_node.iff	0	422.527	86	1003.92	0.968912	0	0.247404	0		$|
3075864	0	object/static/structure/corellia/corl_power_bubble_node.iff	0	426.527	86	1010.92	0.968912	0	0.247404	0		$|
3075866	0	object/static/structure/corellia/corl_power_arial_prime.iff	0	423.683	88.7196	1007.84	0.488872	0	0.872356	0		$|
3075868	0	object/static/structure/corellia/corl_power_transformer_s02.iff	0	423.849	86	1007.75	0.860269	0	-0.509841	0		$|
3075872	0	object/static/structure/general/bench_generic_style_1.iff	0	390.99	86	1025.61	0.867819	0	-0.49688	0		$|
3075873	0	object/static/structure/general/bench_generic_style_1.iff	0	391.286	86	1030.04	-0.611613	0	0.791157	0		$|
3075874	0	object/static/structure/general/bench_generic_style_1.iff	0	387.264	86	1023.19	0.991908	0	-0.126958	0		$|
3075895	0	object/static/structure/general/streetlamp_large_style_02.iff	0	473.414	86	1152.96	-0.301052	0	0.953608	0		$|
3075896	0	object/static/structure/general/streetlamp_large_style_02.iff	0	496.925	86	1167.17	-0.644826	0	0.764329	0		$|
3075898	0	object/static/structure/general/streetlamp_large_style_02.iff	0	590.309	86	1134.79	0.970137	0	-0.242557	0		$|
3075899	0	object/static/structure/general/streetlamp_large_style_02.iff	0	556.5	86	1121.75	0.982936	0	-0.183947	0		$|
3075901	0	object/static/structure/general/streetlamp_large_style_02.iff	0	674.51	86	1099.26	0.986418	0	0.164252	0		$|
3075909	0	object/static/structure/general/tankfarm_s01.iff	0	589.592	70	1186.21	0.862807	0	0.505533	0		$|
3075910	0	object/static/installation/mockup_mining_gas_harvester_style_1.iff	0	592.907	70	1189.2	0.967663	0	-0.252245	0		$|
3075911	0	object/static/installation/mockup_power_generator_wind_style_1.iff	0	602.766	70	1191.12	0.865324	0	0.501213	0		$|
3075913	0	object/static/structure/corellia/corl_power_bubble_node.iff	0	541.464	77.4	1158.9	0.857709	0	0.514136	0		$|
3075916	0	object/static/structure/corellia/corl_power_transformer_s01.iff	0	544.993	77.4	1160.78	0.857709	0	0.514136	0		$|
3075917	0	object/static/structure/corellia/corl_power_bubble_node.iff	0	543.447	77.4	1155.22	0.857709	0	0.514136	0		$|
3075918	0	object/static/structure/corellia/corl_power_transformer_s01.iff	0	546.975	77.4	1157.11	0.857709	0	0.514136	0		$|
3075919	0	object/static/structure/corellia/corl_power_bubble_node.iff	0	567.533	77.4	1172.71	-0.514136	0	0.857708	0		$|
3075920	0	object/static/structure/corellia/corl_power_transformer_s01.iff	0	564.004	77.4	1170.83	-0.514136	0	0.857708	0		$|
3075921	0	object/static/structure/corellia/corl_power_bubble_node.iff	0	569.515	77.4	1169.04	-0.514136	0	0.857708	0		$|
3075922	0	object/static/structure/corellia/corl_power_transformer_s01.iff	0	565.987	77.4	1167.15	-0.514136	0	0.857708	0		$|
3075923	0	object/static/installation/mockup_power_generator_wind_style_1.iff	0	459.377	86	1186.66	0.900447	0	-0.434966	0		$|
3075924	0	object/static/installation/mockup_power_generator_wind_style_1.iff	0	503.618	86	1069.96	-0.471328	0	0.881958	0		$|
3075925	0	object/static/installation/mockup_mining_gas_harvester_style_1.iff	0	541.298	86	1136.84	0.968912	0	-0.247404	0		$|
3075926	0	object/static/installation/mockup_mining_gas_harvester_style_1.iff	0	551.429	86	1142.52	0.968912	0	-0.247404	0		$|
3075927	0	object/static/structure/general/tankfarm_s01.iff	0	555.147	86	1145.24	-0.501902	0	0.864924	0		$|
3075928	0	object/static/structure/general/tankfarm_s01.iff	0	558.606	86	1146.3	0.864925	0	0.501902	0		$|
3075929	0	object/static/structure/general/streetlamp_large_style_02.iff	0	577.26	76.7178	1076.13	0.220475	0	0.975393	0		$|
3075930	0	object/static/installation/mockup_power_generator_wind_style_1.iff	0	601.707	91.7	1070.5	0.978031	0	-0.20846	0		$|
3075931	0	object/static/installation/mockup_power_generator_wind_style_1.iff	0	629.352	91.7	1009.85	0.847255	0	0.531186	0		$|
3075932	0	object/static/installation/mockup_power_generator_wind_style_1.iff	0	614.951	91.7	1040.9	0.976976	0	-0.213347	0		$|
3075933	0	object/static/structure/general/streetlamp_large_style_02.iff	0	635.714	85.6933	1118.06	0.956686	0	-0.291121	0		$|
3075940	0	object/static/structure/general/streetlamp_large_style_02.iff	0	683.541	86	1033.95	0.462133	0	0.886811	0		$|
3075942	0	object/static/installation/mockup_power_generator_wind_style_1.iff	0	697.76	86	1015.52	0.506221	0	0.862404	0		$|
3075946	0	object/static/structure/general/streetlamp_large_style_02.iff	0	710.291	86	943.943	0.72138	0	-0.69254	0		$|
3075948	0	object/static/structure/general/streetlamp_large_style_02.iff	0	707.958	86	908.89	-0.462485	0	0.886627	0		$|
3075950	0	object/static/installation/mockup_power_generator_wind_style_1.iff	0	701.629	86	1000.76	0.0207954	0	0.999784	0		$|
3075951	0	object/static/structure/general/streetlamp_large_style_02.iff	0	661.102	86	990.355	0.78382	0	-0.620988	0		$|
3075953	0	object/static/structure/general/streetlamp_large_style_02.iff	0	634.791	78	991.717	0.976976	0	-0.213348	0		$|
3075960	0	object/static/structure/general/streetlamp_large_style_02.iff	0	659.692	78	1374.28	-0.000367193	0	1	0		$|
3075961	0	object/static/structure/general/streetlamp_large_style_02.iff	0	662.191	77.1195	1442.36	0.896052	0	-0.443949	0		$|
3075964	0	object/static/structure/general/streetlamp_large_style_02.iff	0	777.019	86	1263.07	-0.561168	0	0.827702	0		$|
3075965	0	object/static/structure/general/streetlamp_large_style_02.iff	0	749.387	86	1228.61	-0.000389594	0	1	0		$|
3075966	0	object/static/structure/general/streetlamp_large_style_02.iff	0	722.197	86	1224.3	0.714418	0	-0.69972	0		$|
3075973	0	object/static/structure/general/streetlamp_large_style_02.iff	0	836.332	86	1093.08	0.976976	0	-0.213348	0		$|
3075974	0	object/static/structure/general/streetlamp_large_style_02.iff	0	809.943	86	1033.94	-0.62161	0	0.783327	0		$|
3075977	0	object/static/structure/general/streetlamp_large_style_02.iff	0	877.338	86	1081.71	-0.5653	0	0.824886	0		$|
3075978	0	object/static/structure/general/streetlamp_large_style_02.iff	0	918.656	101	1099.08	-0.348337	0	0.93737	0		$|
3075979	0	object/static/installation/mockup_power_generator_wind_style_1.iff	0	877.763	99.6	1056.43	0.978031	0	0.20846	0		$|
3075980	0	object/static/installation/mockup_power_generator_wind_style_1.iff	0	865.505	99.6	1027.2	0.975897	0	0.21823	0		$|
3075981	0	object/static/installation/mockup_power_generator_wind_style_1.iff	0	833.59	99.6	1041.14	0.979061	0	0.203567	0		$|
3075982	0	object/tangible/terminal/terminal_mission.iff	0	696.154	74	1302.42	-0.0207949	0	0.999784	0		$|
3075983	0	object/tangible/terminal/terminal_mission.iff	0	670.909	74	1303.2	-0.0207949	0	0.999784	0		$|
3075984	0	object/static/structure/general/bench_generic_style_1.iff	0	673.932	76.4983	1317.48	0.356205	0	0.934408	0		$|
3075985	0	object/static/structure/general/bench_generic_style_1.iff	0	693.997	76.4983	1316.59	-0.413046	0	0.91071	0		$|
3075986	0	object/static/structure/corellia/corl_banner_govt_angled_s01.iff	0	684.072	82.75	1316.78	-0.0257935	0	0.999667	0		$|
3075987	0	object/tangible/terminal/terminal_mission.iff	0	654.307	80.5401	1147.81	0.997189	0	0.0749297	0		$|
3075988	0	object/tangible/terminal/terminal_mission.iff	0	665.281	80.4784	1154.59	0.783822	0	-0.620986	0		$|
3075990	0	object/tangible/terminal/terminal_mission.iff	0	832.265	87.012	1065.73	0.963771	0	-0.266731	0		$|
3075991	0	object/tangible/terminal/terminal_mission.iff	0	827.412	87.012	1054.5	-0.63329	0	0.773915	0		$|
3095391	0	object/static/structure/corellia/corl_imprv_gate_sm_s01.iff	0	507.625	86	1060.02	0.934124	0	-0.35695	0		$|
3095392	0	object/static/structure/corellia/corl_imprv_column_s02.iff	0	511.761	85.1614	1063.76	0.928519	0	-0.371284	0		$|
3095393	0	object/static/structure/corellia/corl_imprv_column_s02.iff	0	503.515	85.3079	1056.16	0.92476	0	-0.38055	0		$|
3095394	0	object/static/structure/corellia/corl_imprv_column_s02.iff	0	571.663	78	1075.36	-0.527288	0	0.849687	0		$|
3095395	0	object/static/structure/corellia/corl_imprv_gate_sm_s01.iff	0	569.531	77.9897	1080.1	-0.540302	0	0.841472	0		$|
3095396	0	object/static/structure/corellia/corl_imprv_column_s02.iff	0	561.726	76.2582	1089.03	-0.518764	0	0.854917	0		$|
3095397	0	object/static/structure/corellia/corl_imprv_column_s02.iff	0	567.472	77.7549	1084.72	-0.53153	0	0.84704	0		$|
3375390	0	object/building/corellia/hospital_corellia_s02.iff	0	297.814	86	1087.95	-0.0807085	0	0.996738	0		$|
3375391	3375390	object/cell/cell.iff	1	0	0	0	1	1.401298E-45	0	0		$|
3375392	3375390	object/cell/cell.iff	2	0	0	0	1	2.802597E-45	0	0		$|
8205547	3375392	object/soundobject/soundobject_city_crowd_medium.iff	2	-0.696284	0.184067	-0.191367	1	0	0	0		$|
3375393	3375390	object/cell/cell.iff	3	0	0	0	1	4.203895E-45	0	0		$|
3375398	0	object/static/structure/corellia/corl_imprv_bridge_insert_s01.iff	0	386.458	85.7955	1111.61	0.959662	0	-0.281158	0		$|
3375399	0	object/static/structure/corellia/corl_imprv_bridge_lg_s01.iff	0	378.798	85.8049	1123.57	0.959662	0	-0.281158	0		$|
3375400	0	object/static/structure/corellia/corl_imprv_bridge_insert_s01.iff	0	371.243	85.8049	1135.35	0.959662	0	-0.281158	0		$|
3375406	0	object/building/corellia/shuttleport_corellia.iff	0	320.729	86	1206.22	-0.706825	0	0.707389	0	structure.municipal.starport:planet_map.map_loc	travel.cost|0|200|travel.ground_time|0|300|travel.is_shuttleport|0|1|travel.point_name|4|Kor Vella Shuttleport A|travel.shuttle_available|0|1|travel.version|0|3|$|
3375407	0	object/building/corellia/filler_historic_32x16_s01.iff	0	585.331	86	1141.71	-0.497571	0	0.867423	0		$|
3375412	0	object/static/structure/general/tankfarm_s01.iff	0	571.673	86	1145.3	0.966493	0	-0.256695	0		$|
3375421	0	object/static/structure/corellia/corl_imprv_wall_4x32_s02.iff	0	272.459	83	1135.52	0.855127	0	-0.518418	0		$|
3375422	0	object/static/structure/corellia/corl_imprv_column_s01.iff	0	280.035	84	1149.98	0.8499	0	-0.526943	0		$|
3375423	0	object/static/structure/corellia/corl_imprv_column_s01.iff	0	264.949	84	1121.13	0.8499	0	-0.526943	0		$|
3375424	0	object/static/structure/corellia/corl_imprv_wall_4x32_s02.iff	0	292.201	83	1207	0.761612	0	-0.648033	0		$|
3375425	0	object/static/structure/corellia/corl_imprv_column_s01.iff	0	294.843	84	1223.11	0.755094	0	-0.655617	0		$|
3375426	0	object/static/structure/corellia/corl_imprv_column_s01.iff	0	289.6	84	1190.97	0.755094	0	-0.655617	0		$|
3375427	0	object/static/structure/corellia/corl_imprv_wall_4x16_s02.iff	0	374.576	83	1146.27	-0.656219	0	0.754571	0		$|
3375428	0	object/static/structure/corellia/corl_imprv_wall_4x16_s02.iff	0	369.207	83	1161.91	-0.493228	0	0.8699	0		$|
3375429	0	object/static/structure/corellia/corl_imprv_wall_4x16_s02.iff	0	358.603	83	1133.64	-0.0557673	0	0.998444	0		$|
3375430	0	object/static/structure/corellia/corl_imprv_wall_4x16_s02.iff	0	346.884	83	1127.16	0.530511	0	0.847678	0		$|
3375431	0	object/static/structure/corellia/corl_imprv_column_s01.iff	0	375.445	84	1137.79	0.961055	0	-0.276356	0		$|
3375432	0	object/static/structure/corellia/corl_imprv_column_s01.iff	0	367.308	84	1132.56	0.961055	0	-0.276356	0		$|
3375433	0	object/static/structure/corellia/corl_imprv_wall_4x32_s02.iff	0	338.569	83	1104.22	0.805072	0	-0.593178	0		$|
3375434	0	object/static/structure/corellia/corl_imprv_wall_4x32_s02.iff	0	326.329	83	1074.58	0.855127	0	-0.518419	0		$|
3375435	0	object/static/structure/corellia/corl_imprv_wall_4x16_s02.iff	0	313.427	83	1054.26	0.913737	0	-0.406305	0		$|
3375436	0	object/static/structure/corellia/corl_imprv_wall_4x16_s02.iff	0	300.02	83	1046.73	0.995162	0	-0.0982487	0		$|
3375437	0	object/static/structure/corellia/corl_imprv_wall_4x16_s02.iff	0	275.003	83	1060.79	0.832832	0	0.553526	0		$|
3375438	0	object/static/structure/corellia/corl_imprv_wall_4x16_s02.iff	0	285.092	83	1049.24	0.964674	0	0.263447	0		$|
3375439	0	object/static/structure/corellia/corl_imprv_column_s01.iff	0	350.309	84	1134.69	0.961055	0	-0.276356	0		$|
3375440	0	object/static/structure/corellia/corl_imprv_column_s01.iff	0	343.319	84	1119.59	0.825336	0	-0.564643	0		$|
3375441	0	object/static/structure/corellia/corl_imprv_column_s01.iff	0	333.719	84	1088.88	0.844589	0	-0.535416	0		$|
3375442	0	object/static/structure/corellia/corl_imprv_column_s01.iff	0	318.776	84	1060.35	0.889293	0	-0.457339	0		$|
3375443	0	object/static/structure/corellia/corl_imprv_column_s01.iff	0	364.766	84	1169.28	0.872745	0	0.488177	0		$|
3375444	0	object/static/structure/corellia/corl_imprv_column_s01.iff	0	373.348	84	1154.55	-0.593818	0	0.804599	0		$|
3375445	0	object/static/structure/corellia/corl_imprv_column_s01.iff	0	307.876	84	1048.42	0.228753	0	0.973484	0		$|
3375446	0	object/static/structure/corellia/corl_imprv_column_s01.iff	0	292.099	84	1045.37	0.995953	0	0.0898781	0		$|
3375447	0	object/static/structure/corellia/corl_imprv_column_s01.iff	0	278.201	84	1053.39	0.915116	0	0.403189	0		$|
3375448	0	object/static/structure/corellia/corl_imprv_column_s01.iff	0	271.806	84	1068.32	0.857709	0	0.514136	0		$|
3375456	0	object/static/structure/general/streetlamp_large_style_02.iff	0	318.552	86	1154.65	0.783823	0	-0.620984	0		$|
3375457	0	object/static/structure/general/streetlamp_large_style_02.iff	0	290.26	86	1107.43	-0.0807079	0	0.996738	0		$|
3375458	0	object/static/structure/general/streetlamp_large_style_02.iff	0	286.968	86	1128.89	0.114352	0	0.99344	0		$|
3375461	0	object/static/structure/general/streetlamp_large_style_02.iff	0	310.969	86	1103.81	-0.080708	0	0.996738	0		$|
3375462	0	object/static/structure/general/streetlamp_large_style_02.iff	0	284.597	86	1072.1	-0.0856907	0	0.996322	0		$|
3375463	0	object/static/structure/general/streetlamp_large_style_02.iff	0	305.531	86	1068.76	-0.080708	0	0.996738	0		$|
3375464	0	object/static/structure/general/bench_generic_style_1.iff	0	280.812	86	1072.34	-0.0879829	0	0.996121	0		$|
3375465	0	object/static/structure/general/bench_generic_style_1.iff	0	288.789	86	1052.88	-0.253016	0	0.967462	0		$|
3375466	0	object/static/structure/general/bench_generic_style_1.iff	0	295.842	86	1050.64	0.0169017	0	0.999857	0		$|
3375467	0	object/static/structure/general/bench_generic_style_1.iff	0	283.439	86	1056.93	-0.437394	0	0.89927	0		$|
3375468	0	object/static/structure/general/bench_generic_style_1.iff	0	309.086	86	1067.89	-0.0757249	0	0.997128	0		$|
3375469	0	object/static/structure/general/bench_generic_style_1.iff	0	303.774	86	1052.11	0.170665	0	0.985329	0		$|
3375470	0	object/static/structure/general/bench_generic_style_1.iff	0	355.418	86	1187.96	0.756605	0	-0.653872	0		$|
3375471	0	object/static/structure/general/bench_generic_style_1.iff	0	314.656	86	1103.42	0.99639	0	0.0848973	0		$|
3375472	0	object/static/structure/general/bench_generic_style_1.iff	0	274.333	86	1125.86	0.863968	0	-0.503546	0		$|
3375473	0	object/static/structure/general/bench_generic_style_1.iff	0	286.216	86	1107.98	0.994731	0	0.102518	0		$|
3375474	0	object/static/structure/general/bench_generic_style_1.iff	0	356.019	86	1183.86	-0.601835	0	0.79862	0		$|
3375475	0	object/static/structure/general/bench_generic_style_1.iff	0	357.58	86	1180.02	-0.456	0	0.88998	0		$|
3375476	0	object/static/structure/corellia/corl_imprv_bridge_insert_s01.iff	0	401.736	85.8456	1087.75	0.959661	0	-0.281158	0		$|
3375477	0	object/static/structure/corellia/corl_imprv_bridge_lg_s01.iff	0	394.058	85.8049	1099.74	0.959661	0	-0.281158	0		$|
3375479	0	object/static/structure/corellia/corl_imprv_bridge_insert_s01.iff	0	402.813	85.8456	1086.08	0.959662	0	-0.281158	0		$|
3375480	0	object/static/structure/corellia/corl_imprv_column_s02.iff	0	407.029	84	1088.66	0.959551	0	-0.281535	0		$|
3375481	0	object/static/structure/corellia/corl_imprv_column_s02.iff	0	398.72	84	1083.31	0.958131	0	-0.286329	0		$|
3375482	0	object/static/structure/corellia/corl_imprv_column_s02.iff	0	409.025	85	1088.97	0.999946	0	-0.0103932	0		$|
3375483	0	object/static/structure/corellia/corl_imprv_column_s02.iff	0	397.294	85	1081.89	0.849693	0	-0.527278	0		$|
3695359	0	object/static/item/item_wood_staff.iff	0	686.418	87.012	1037.76	0.975844	-0.0158901	-0.0145865	-0.217401		$|
3695360	0	object/static/item/item_vibrolance.iff	0	684.676	86.9496	1034.48	0.0345235	0.959433	-0.135205	-0.244983		$|
3695361	0	object/static/item/item_vibroaxe.iff	0	684.85	86.9544	1034.83	0.0345235	0.959433	-0.135205	-0.244983		$|
3695362	0	object/tangible/furniture/elegant/coffee_table_s01.iff	0	776.226	86	1170.97	1	0	-0.000398537	0		$|
3695363	0	object/tangible/furniture/elegant/end_table_s01.iff	0	774.766	86	1171.35	0.707388	0	0.706825	0		$|
3695364	0	object/tangible/furniture/elegant/end_table_s01.iff	0	777.698	86	1171.32	0.707388	0	0.706825	0		$|
3695365	0	object/static/item/item_katana.iff	0	775.595	86.4111	1171.05	-0.687606	-0.164919	0.164919	0.687606		$|
3695366	0	object/static/item/item_tank_bubble.iff	0	776.115	86.4111	1170.86	0.979061	0	0.203567	0		$|
3695367	0	object/static/item/item_bottle_fat.iff	0	777.707	86.3795	1171.27	0.707388	0	0.706825	0		$|
3695368	0	object/static/item/item_bottle_tall.iff	0	774.726	86.3795	1171.29	0.707388	0	0.706825	0		$|
3695369	0	object/static/item/item_katana.iff	0	776.711	86.4111	1171.06	0.689346	0.157485	0.157485	0.689346		$|
3695370	0	object/static/item/item_fruit_melon.iff	0	774.733	87.2649	1171.29	0.707388	0	0.706825	0		$|
3695371	0	object/static/item/item_slave_brazier.iff	0	776.107	87.9135	1170.09	0.46365	0.476407	0.542644	0.513421		$|
3695372	0	object/static/item/item_katana.iff	0	776.118	88.1412	1170.66	0	0.707388	0	0.706825		$|
3695374	0	object/static/item/item_ryyk_blade.iff	0	719.262	87.8839	1233.4	0.382679	0.92387	0.00176106	-0.00425149		$|
3695375	0	object/static/item/item_ryyk_blade.iff	0	719.259	87.888	1233.96	0.00176105	0.00425144	-0.382679	0.92387		$|
3695376	0	object/tangible/furniture/elegant/coffee_table_s01.iff	0	719.828	85.98	1233.55	0.706544	0	0.707669	0		$|
3695377	0	object/tangible/furniture/elegant/end_table_s01.iff	0	720.207	85.98	1235.01	-0.000799831	0	0.999999	0		$|
3695378	0	object/tangible/furniture/elegant/end_table_s01.iff	0	720.173	85.98	1232.08	-0.000799831	0	0.999999	0		$|
3695379	0	object/static/item/item_fruit_melon.iff	0	720.144	87.2449	1235.04	-0.000799831	0	0.999999	0		$|
3695380	0	object/static/item/item_bottle_tall.iff	0	720.15	86.3594	1235.05	-0.000799831	0	0.999999	0		$|
3695382	0	object/static/item/item_bottle_fat.iff	0	720.131	86.3594	1232.07	-0.000799831	0	0.999999	0		$|
3695383	0	object/static/item/item_ryyk_blade.iff	0	719.81	86.4181	1232.91	0.328394	0.644503	0.626684	0.289897		$|
3695384	0	object/static/item/item_ryyk_blade.iff	0	719.676	86.4223	1234.26	-0.68216	0.232753	-0.203235	0.662706		$|
3695387	0	object/static/item/item_con_bowl_full.iff	0	719.713	86.3479	1233.36	0.993956	0	0.109778	0		$|
3695391	0	object/static/item/item_jar_berries.iff	0	719.695	86.3479	1233.74	1	0	0	0		$|
3695394	0	object/tangible/furniture/tatooine/frn_tato_chair_cafe_style_01.iff	0	751.887	86	1243.12	0.996802	0	0.0799157	0		$|
3695395	0	object/tangible/furniture/tatooine/frn_tato_tbl_cafe_table_style_01.iff	0	750.45	86	1243.68	0.935897	0	-0.352274	0		$|
3695396	0	object/static/item/item_con_ration_kit_m.iff	0	752.238	87.4632	1241.32	0.973666	0	-0.227978	0		$|
3695397	0	object/static/item/item_con_ration_kit_lg.iff	0	751.967	87.4632	1241.47	-0.689498	0	0.724287	0		$|
3695398	0	object/static/structure/tatooine/debris_tatt_crate_1.iff	0	751.966	86.7632	1241.44	0.768054	0	-0.640385	0		$|
3695399	0	object/static/item/item_ammo_rocket.iff	0	750.681	86.7589	1244.07	0.935897	0	-0.352274	0		$|
3695400	0	object/static/item/item_ammo_rocket.iff	0	750.633	86.7589	1244.24	0.771246	0	-0.636537	0		$|
3695401	0	object/static/item/item_rocket_launcher.iff	0	750.621	86.77	1243.63	0.603112	0.359546	0.362223	0.613006		$|
3695402	0	object/static/item/item_decryptor_imperial.iff	0	750.023	86.7589	1243.93	0.860269	0	0.509841	0		$|
3695403	0	object/static/item/item_tool_radio.iff	0	750.256	86.7273	1243.33	0.949235	0	0.314567	0		$|
3695404	0	object/static/item/item_con_ration_kit_lg.iff	0	751.315	86.7906	1241.45	0.870293	0	-0.492534	0		$|
3695405	0	object/static/item/item_con_ration_kit_lg.iff	0	750.966	86.7906	1241.22	0.983844	0	-0.179029	0		$|
3695408	0	object/static/item/item_tool_sensor_beacon.iff	0	752.385	86	1242.41	0.99995	0	-0.00999984	0		$|
3695409	0	object/static/item/item_rifle.iff	0	752.776	86.1188	1243.11	-1.94927e-008	3.16582e-008	0.807558	0.589788		$|
4255419	0	object/building/corellia/starport_corellia.iff	0	960.296	31	846.22	-0.0157951	0	0.999875	0	structure.municipal.starport	travel.air_time|0|60|travel.cost|0|150|travel.ground_time|0|300|travel.point_name|4|Kor Vella Starport|travel.shuttle_available|0|1|travel.version|0|3|$|
4255420	4255419	object/cell/cell.iff	1	0	0	0	1	1.401298E-45	0	0		$|
4255421	4255419	object/cell/cell.iff	2	0	0	0	1	2.802597E-45	0	0		$|
4255422	4255419	object/cell/cell.iff	3	0	0	0	1	4.203895E-45	0	0		$|
4255423	4255419	object/cell/cell.iff	4	0	0	0	1	5.605194E-45	0	0		$|
1033595	4255423	object/tangible/terminal/terminal_space.iff	4	-10.3602	0.6394227	57.49629	1	0	0	0		$|
1033596	4255423	object/tangible/terminal/terminal_space.iff	4	-10.5132	0.639424	62.21506	1	0	0	0		$|
1033597	4255423	object/tangible/terminal/terminal_space.iff	4	-0.2761839	0.639421	57.40623	1	0	0	0		$|
1033598	4255423	object/tangible/terminal/terminal_space.iff	4	-0.4186705	0.6394213	62.56898	1	0	0	0		$|
1033599	4255423	object/tangible/terminal/terminal_space.iff	4	9.967822	0.6394216	57.04913	1	0	0	0		$|
1033600	4255423	object/tangible/terminal/terminal_space.iff	4	9.885125	0.6394219	62.08115	1	0	0	0		$|
2655355	4255423	object/soundobject/soundobject_starport_announcer.iff	4	0.076816	0.639421	59.58862	1	0	0	0		$|
4855814	4255423	object/tangible/terminal/terminal_newsnet.iff	4	6.769586	0.639421	49.50354	1	0	0	0		$|
4855815	4255423	object/tangible/terminal/terminal_newsnet.iff	4	-8.681261	0.6394206	49.89916	1	0	0	0		$|
4255424	4255419	object/cell/cell.iff	5	0	0	0	1	7.006492E-45	0	0		$|
4255425	4255419	object/cell/cell.iff	6	0	0	0	1	8.407791E-45	0	0		$|
4255426	4255419	object/cell/cell.iff	7	0	0	0	1	9.809089E-45	0	0		$|
4255427	4255419	object/cell/cell.iff	8	0	0	0	1	1.121039E-44	0	0		$|
4255428	4255419	object/cell/cell.iff	9	0	0	0	1	1.261169E-44	0	0		$|
4255429	4255419	object/cell/cell.iff	10	0	0	0	1	1.401298E-44	0	0		$|
1509594	4255429	object/tangible/terminal/terminal_space.iff	10	-40.52453	1.639424	46.41731	0.9987348	0	-0.05028823	0		$|
1509595	4255429	object/tangible/terminal/terminal_space.iff	10	-37.92631	1.639422	49.13272	0.7665786	0	-0.6421505	0		$|
1509596	4255429	object/tangible/terminal/terminal_space.iff	10	-44.10611	1.639422	50.25364	0.6326728	0	0.774419	0		$|
1509597	4255429	object/tangible/terminal/terminal_space.iff	10	-41.44213	1.639424	52.90418	0.03799934	0	0.9992778	0		$|
4255430	4255419	object/cell/cell.iff	11	0	0	0	1	1.541428E-44	0	0		$|
4255431	4255419	object/cell/cell.iff	12	0	0	0	1	1.681558E-44	0	0		$|
3375639	4255431	object/tangible/space/content_infrastructure/ground_npc_spawner.iff	12	-61.4	2.6	41.4	0.4134089	0	0.9105451	0	space.content_tools.npc_spawner	$|
4255432	4255419	object/cell/cell.iff	13	0	0	0	1	1.821688E-44	0	0		$|
4255433	4255419	object/cell/cell.iff	14	0	0	0	1	1.961818E-44	0	0		$|
1509598	4255433	object/tangible/space/content_infrastructure/ground_npc_spawner.iff	14	-57.2	1.0	8.4	0.11057	0	0.993868	0	space.content_tools.npc_spawner	$|
4255434	4255419	object/cell/cell.iff	15	0	0	0	1	2.101948E-44	0	0		$|
6035913	4255419	object/cell/cell.iff	16	0	0	0	1	2.242078E-44	0	0		$|
4255445	0	object/building/corellia/filler_block_corellia_32x16_s01.iff	0	961.263	31.4223	734.784	1	0	0	0		$|
4255448	0	object/building/corellia/filler_block_corellia_64x32_s01.iff	0	1024.75	30.9953	750.965	0.963771	0	-0.266731	0		$|
4255455	0	object/building/corellia/filler_block_corellia_64x32_s02.iff	0	986.216	31	968.846	0.984727	0	0.174108	0		$|
4255477	0	object/static/structure/corellia/corl_imprv_column_s01.iff	0	861.418	29.8122	755.393	-0.356878	0.0186812	0.933937	-0.00713851		$|
4255478	0	object/static/structure/corellia/corl_imprv_wall_4x16_s02.iff	0	867.374	29.0033	750.063	-0.356878	0.0186812	0.933937	-0.00713851		$|
4255479	0	object/static/structure/corellia/corl_imprv_column_s01.iff	0	873.271	29.1075	744.784	-0.35696	0.00734464	0.934089	-0.00207088		$|
4255480	0	object/static/structure/corellia/corl_imprv_wall_4x16_s02.iff	0	879.234	28.7009	739.449	-0.356974	-0.00303356	0.934108	0.00186996		$|
4255481	0	object/static/structure/corellia/corl_imprv_column_s01.iff	0	849.507	31.3961	766.052	-0.356878	0.0186812	0.933937	-0.00713851		$|
4255484	0	object/static/structure/corellia/corl_imprv_wall_4x16_s02.iff	0	855.431	29.9351	760.751	-0.356731	0.0326877	0.933552	-0.0124907		$|
4255493	0	object/static/structure/corellia/corl_imprv_column_s01.iff	0	885.163	29.0664	734.061	-0.35696	0.00427913	0.934109	-0.00116187		$|
4255494	0	object/static/structure/corellia/corl_imprv_column_s01.iff	0	812.373	53.6187	803.55	-0.356379	0.118328	0.924997	-0.0580844		$|
4255495	0	object/static/structure/corellia/corl_imprv_wall_4x16_s02.iff	0	818.22	51.1299	798.318	-0.355406	0.106683	0.92728	-0.0495627		$|
4255496	0	object/static/structure/corellia/corl_imprv_column_s01.iff	0	824.136	49.6338	792.942	-0.355168	0.11043	0.926858	-0.0509513		$|
4255497	0	object/static/structure/corellia/corl_imprv_wall_4x16_s02.iff	0	828.134	50.7831	808.406	-0.355406	0.106683	0.92728	-0.049563		$|
4255498	0	object/static/structure/corellia/corl_imprv_column_s01.iff	0	834.049	49.3369	803.029	-0.355168	0.11043	0.926858	-0.050951		$|
4255499	0	object/static/structure/corellia/corl_imprv_column_s01.iff	0	822.286	53.4458	813.637	-0.356379	0.118328	0.924997	-0.058084		$|
4255500	0	object/static/structure/corellia/corl_imprv_wall_4x16_s02.iff	0	783.216	66.491	835.358	-0.386139	0.0462075	0.921071	-0.0197378		$|
4255501	0	object/static/structure/corellia/corl_imprv_column_s01.iff	0	788.798	66.2744	829.292	-0.389085	0.0451946	0.919893	-0.0191551		$|
4255502	0	object/static/structure/corellia/corl_imprv_column_s01.iff	0	777.531	67.3273	841.101	-0.389238	0.0476931	0.91968	-0.0202002		$|
4255503	0	object/static/structure/corellia/corl_imprv_wall_4x16_s02.iff	0	791.734	66.4522	843.068	-0.377201	0.0449444	0.92483	-0.0197417		$|
4255504	0	object/static/structure/corellia/corl_imprv_column_s01.iff	0	797.08	66.2641	837.173	-0.370033	0.04479	0.927721	-0.0200829		$|
4255505	0	object/static/structure/corellia/corl_imprv_column_s01.iff	0	785.963	67.2763	848.587	-0.380237	0.0476135	0.923429	-0.0207687		$|
4655376	0	object/static/structure/corellia/corl_imprv_column_s02.iff	0	638.722	75.7793	1335.72	0.685579	0	0.727998	0		$|
4655377	0	object/static/structure/corellia/corl_imprv_column_s02.iff	0	654.386	75.7793	1334.82	0.685579	0	0.727998	0		$|
4655378	0	object/static/structure/corellia/corl_imprv_column_s02.iff	0	659.843	75.4765	1375.5	0.685579	0	0.727998	0		$|
4655379	0	object/static/structure/corellia/corl_imprv_column_s02.iff	0	644.179	75.5087	1376.4	0.685579	0	0.727998	0		$|
5075527	0	object/static/structure/corellia/corl_imprv_wall_4x16_s02.iff	0	727.8	83	1090.21	0.49323	0	0.869899	0		$|
5075528	0	object/static/structure/corellia/corl_imprv_wall_4x16_s02.iff	0	699.427	83	1049.18	0.453598	0	0.891206	0		$|
5075529	0	object/static/structure/corellia/corl_imprv_column_s02.iff	0	723.704	84	1083.07	0.865127	0	-0.501553	0		$|
5075559	0	object/static/structure/general/streetlamp_large_style_02.iff	0	314.488	86.0531	1167.69	0.996833	0	0.0795177	0		$|
5075560	0	object/static/structure/general/bench_generic_style_1.iff	0	314.914	86	1169.33	0.994492	0	0.104808	0		$|
5075561	0	object/static/structure/general/bench_generic_style_1.iff	0	318.815	86	1167.93	0.950078	0	0.312011	0		$|
5075562	0	object/static/structure/general/bench_generic_style_1.iff	0	310.789	86	1169.76	0.997736	0	-0.0672503	0		$|
5406001	0	object/static/structure/general/streetlamp_large_style_02.iff	0	783.38	69.4348	835.613	-0.357403	0.0455735	0.932598	-0.0211607		$|
5406005	0	object/static/structure/general/streetlamp_large_style_02.iff	0	819.405	52.3428	798.895	-0.354902	0.116426	0.926554	-0.0445953		$|
5406006	0	object/static/structure/general/streetlamp_large_style_02.iff	0	868.277	30.2297	750.723	-0.357693	0	0.93384	0		$|
5406022	0	object/static/structure/general/streetlamp_small_blue_style_01.iff	0	961.196	35.5537	741.315	-0.00920345	0	0	0.999958		$|
5406042	0	object/static/structure/general/streetlamp_small_blue_style_01.iff	0	1036.2	35.6169	773.317	-0.00797417	0.4992	0.00459433	0.866439		$|
5406079	0	object/static/structure/general/streetlamp_small_green_style_01.iff	0	737.126	90.1492	891.499	-0.650268	0.656281	0.26935	0.27184		$|
5406111	0	object/static/structure/general/streetlamp_small_green_style_01.iff	0	734.335	91.9554	1101.92	-0.0416005	0.844794	0.0262381	0.532826		$|
5406131	0	object/static/structure/general/streetlamp_small_green_style_01.iff	0	814.237	91.9452	1067.28	0.0049031	0.845803	-0.00309233	0.533463		$|
5406143	0	object/static/structure/general/streetlamp_large_style_02.iff	0	919.003	101	1084.68	0.41651	0	0.909132	0		$|
5406155	0	object/static/structure/general/streetlamp_large_green_style_02.iff	0	735.13	88.7647	1155.32	0.950796	0	0.309816	0		$|
5406161	0	object/static/structure/general/streetlamp_large_green_style_02.iff	0	719.432	88.7833	1162.85	0.983844	0	0.179029	0		$|
5406173	0	object/static/structure/general/streetlamp_small_green_style_01.iff	0	710.67	91.9452	1250.83	-0.000796364	0.00999984	7.9639e-006	0.99995		$|
5406212	0	object/static/structure/general/streetlamp_small_blue_style_01.iff	0	669.057	76.3718	1305.22	0.9998	0	0.0199987	0		$|
5406224	0	object/static/structure/general/streetlamp_small_blue_style_01.iff	0	697.974	76.3777	1303.95	1	0	0	0		$|
5406257	0	object/static/structure/general/streetlamp_large_style_02.iff	0	644.018	78	1375.15	-0.000365086	0	1	0		$|
5406284	0	object/static/structure/general/streetlamp_large_red_style_01.iff	0	597.941	70	1201.74	-0.213347	0	0.976976	0		$|
5406289	0	object/static/structure/general/streetlamp_large_red_style_01.iff	0	557.565	70	1174.72	0.968241	0	-0.250018	0		$|
5406290	0	object/static/structure/general/streetlamp_large_red_style_01.iff	0	545.589	70	1168.26	0.963047	0	-0.269332	0		$|
5406312	0	object/static/structure/general/streetlamp_large_red_style_01.iff	0	514.671	70	1158.26	0.636843	0	0.770992	0		$|
5406366	0	object/static/structure/general/streetlamp_small_green_style_01.iff	0	496.096	91.9452	1131.81	-0.00488469	-0.230934	0.00483446	0.972945		$|
5406402	0	object/static/structure/general/streetlamp_small_green_style_01.iff	0	493.721	91.9768	1102.53	-0.000770119	-0.254856	0.000202949	0.966979		$|
5406457	0	object/static/structure/general/streetlamp_small_green_style_01.iff	0	523.405	91.9452	1118.33	0.00360546	0.514131	0.00216122	0.857701		$|
5406589	0	object/static/structure/general/streetlamp_small_green_style_01.iff	0	432.481	90.3008	1015.76	-0.624916	-0.331215	0.331478	0.624419		$|
5406655	0	object/static/structure/general/streetlamp_small_red_style_01.iff	0	901.063	35.5853	761.597	0.0134248	-0.326562	-0.00463902	0.945069		$|
5406689	0	object/static/structure/general/streetlamp_small_style_01.iff	0	665.949	80.3401	1168.44	0.958899	0	-0.283747	0		$|
5406702	0	object/static/structure/general/streetlamp_small_style_01.iff	0	641.722	80.3718	1153.04	0.958899	0	-0.283747	0		$|
5406733	0	object/static/structure/general/streetlamp_medium_style_02.iff	0	411.841	86	1052.26	0.968912	0	0.247404	0		$|
5406738	0	object/static/structure/general/streetlamp_medium_style_02.iff	0	435.021	86	1039.51	0.968912	0	0.247404	0		$|
5406789	0	object/static/structure/general/streetlamp_large_style_02.iff	0	685.327	86	963.622	-0.336402	0	0.941719	0		$|
5406815	0	object/static/structure/general/streetlamp_small_red_style_01.iff	0	1002.56	36.4707	920.081	-0.000796431	0	0	1		$|
5406822	0	object/static/structure/general/streetlamp_small_red_style_01.iff	0	920.868	36.4391	922.706	-0.000796	0	0	1		$|
5406827	0	object/static/structure/general/streetlamp_small_blue_style_01.iff	0	977.025	34.7631	958.196	-0.693095	0.699504	-0.122545	-0.123678		$|
5406829	0	object/static/structure/general/streetlamp_small_blue_style_01.iff	0	1006.78	34.7631	948.723	-0.693287	0.692737	-0.140537	-0.140425		$|
5406850	0	object/static/structure/general/streetlamp_large_style_02.iff	0	397.159	86	1038.95	0.877584	0	-0.479423	0		$|
5406851	0	object/static/structure/general/streetlamp_large_style_02.iff	0	389.554	86	1023.01	0.875176	0	-0.483805	0		$|
5406935	0	object/static/structure/general/streetlamp_large_style_02.iff	0	659.747	78.1177	1225.22	0.741564	0	-0.670882	0		$|
5406953	0	object/static/structure/general/streetlamp_large_style_02.iff	0	384.324	86	1110.23	-0.468594	0	0.883413	0		$|
5406962	0	object/static/structure/general/streetlamp_large_style_02.iff	0	357.669	86.0531	1184.26	-0.581359	0	0.813647	0		$|
5535520	0	object/static/structure/corellia/corl_tent_large.iff	0	964.058	31	925.542	0.999388	0	0.0349929	0		$|
5535522	0	object/static/structure/general/prp_junk_s8.iff	0	969.086	31.3608	926.722	0.810497	0.173346	0.295855	-0.474884		$|
5535523	0	object/static/structure/general/prp_junk_s7.iff	0	969.288	34.6532	924.13	-0.524365	0.524365	0.474385	0.474385		$|
5535524	0	object/static/structure/general/prp_junk_s7.iff	0	958.344	34.8467	924.409	0.482197	-0.482197	0.51719	0.517191		$|
5535525	0	object/static/structure/general/prp_junk_s8.iff	0	968.538	31.3162	921.27	0.195785	0.526057	0.813692	-0.151118		$|
5535526	0	object/static/structure/general/prp_junk_s8.iff	0	958.914	31.2364	927.613	0.703844	-0.295357	0.476376	0.436388		$|
5535527	0	object/static/structure/general/prp_junk_s8.iff	0	958.478	31.1918	922.002	0.874483	0.0267628	0.0175527	0.483998		$|
5535528	0	object/static/structure/general/prp_engine_component.iff	0	965.596	31.3538	921.919	-0.295438	0.461891	0.447345	0.70658		$|
5535529	0	object/static/structure/general/prp_engine.iff	0	965.876	31	922.272	0.961055	0	-0.276356	0		$|
5535530	0	object/static/structure/general/prp_engine.iff	0	964.639	31	921.546	0.902611	0	0.430458	0		$|
5535531	0	object/static/structure/general/trash_pile_s01.iff	0	963.994	31	922.948	-0.577609	0	0.816314	0		$|
5535532	0	object/static/structure/general/trash_pile_s01.iff	0	961.946	31	923.445	0.860269	0	0.509841	0		$|
5535534	0	object/static/structure/tatooine/debris_tatt_drum_dented_1.iff	0	962.442	31	921.901	0.94441	0	0.328769	0		$|
5535535	0	object/static/structure/tatooine/debris_tatt_drum_dented_1.iff	0	960.912	31	922.573	0.243329	0	0.969944	0		$|
6025416	0	object/static/structure/general/streetlamp_small_red_style_01.iff	0	501.75	85.8735	1068.58	0.956802	0	-0.29074	0		$|
6035506	0	object/tangible/terminal/terminal_bank.iff	0	830.101	86	1041.47	0.833712	0	-0.552199	0		$|
6035507	0	object/tangible/terminal/terminal_bank.iff	0	843.679	86	1072.66	0.833713	0	-0.552198	0		$|
6035508	0	object/tangible/terminal/terminal_bank.iff	0	665.496	78	1169.14	0.961055	0	-0.276356	0		$|
6035509	0	object/tangible/terminal/terminal_bazaar.iff	0	979.428	31	920.409	0.99955	0	0.0299955	0		$|
6035510	0	object/tangible/terminal/terminal_bazaar.iff	0	975.751	31	920.441	0.9998	0	-0.0199987	0		$|
6035511	0	object/tangible/terminal/terminal_bazaar.iff	0	949.478	31	921.503	0.99955	0	0.029995	0		$|
6035512	0	object/tangible/terminal/terminal_bazaar.iff	0	945.801	31	921.535	0.9998	0	-0.019999	0		$|
6035513	0	object/tangible/terminal/terminal_bazaar.iff	0	945.303	31.0127	736.515	0.735087	0	-0.677972	0		$|
6035514	0	object/tangible/terminal/terminal_bazaar.iff	0	945.194	31.009	732.84	-0.700285	0	0.713864	0		$|
6035515	0	object/tangible/terminal/terminal_bazaar.iff	0	305.599	86	1130.91	0.115538	0	0.993303	0		$|
6035516	0	object/tangible/terminal/terminal_bazaar.iff	0	319.364	86	1144.88	0.617686	0	0.786425	0		$|
6035517	0	object/tangible/terminal/terminal_bank.iff	0	287.447	86	1127.1	0.108987	0	0.994043	0		$|
6035518	0	object/tangible/terminal/terminal_bank.iff	0	323.118	86	1162.95	0.62161	0	0.783327	0		$|
6035519	0	object/tangible/terminal/terminal_bank.iff	0	969.447	31	741.243	1	0	0	0		$|
6035520	0	object/tangible/terminal/terminal_bank.iff	0	625.076	78	998.444	0.22233	0	0.974971	0		$|
6035521	0	object/tangible/terminal/terminal_bank.iff	0	594.766	78	1079.87	0.978031	0	-0.20846	0		$|
6035619	0	object/building/general/corellia_afarathu_cave.iff	0	1572.61	28.3908	879.162	0.5653	0	0.824886	0		$|
6035620	6035619	object/cell/cell.iff	1	0	0	0	1	1.401298E-45	0	0		$|
6035621	6035619	object/cell/cell.iff	2	0	0	0	1	2.802597E-45	0	0		$|
6035622	6035619	object/cell/cell.iff	3	0	0	0	1	4.203895E-45	0	0		$|
8075612	6035622	object/tangible/container/loot/placable_loot_crate.iff	3	8.758899	-40.67611	-57.97881	-0.05470095	0	0.9975768	0.03357967		$|
6035623	6035619	object/cell/cell.iff	4	0	0	0	1	5.605194E-45	0	0		$|
6035624	6035619	object/cell/cell.iff	5	0	0	0	1	7.006492E-45	0	0		$|
8075613	6035624	object/tangible/container/loot/placable_loot_crate.iff	5	-4.211177	-46.39348	-152.3618	0.992357	0	0.005937986	0.08468977		$|
6035625	6035619	object/cell/cell.iff	6	0	0	0	1	8.407791E-45	0	0		$|
6035626	6035619	object/cell/cell.iff	7	0	0	0	1	9.809089E-45	0	0		$|
4607461	6035626	object/tangible/collection/rare_rifle_fallann_hyper_rifle.iff	7	5.468354	-62.52239	-231.3239	-0.6731262	0	-0.2165663	0.7065765		$|
8075614	6035626	object/tangible/container/loot/placable_loot_crate.iff	7	-18.95936	-62.23055	-263.2796	0.9984879	0	0.05497213	0		$|
6035627	6035619	object/cell/cell.iff	8	0	0	0	1	1.121039E-44	0	0		$|
6035628	6035619	object/cell/cell.iff	9	0	0	0	1	1.261169E-44	0	0		$|
8075615	6035628	object/tangible/container/loot/placable_loot_crate.iff	9	-9.051013	-69.16073	-91.85801	-0.2915016	0	0.9565703	0		$|
6035629	6035619	object/cell/cell.iff	10	0	0	0	1	1.401298E-44	0	0		$|
4305488	6035629	object/tangible/dungeon/corellian_corvette/corvette_search_imperial_destroy_02.iff	10	-21.68234	-80.4725	-154.5072	0.9979514	0	0	0.04997916		$|
6035630	6035619	object/cell/cell.iff	11	0	0	0	1	1.541428E-44	0	0		$|
8075616	6035630	object/tangible/container/loot/placable_loot_crate.iff	11	-90.83533	-101.0066	-101.4583	1	0	0	0		$|
6476217	0	object/tangible/terminal/terminal_mission_scout.iff	0	827.92	86.9383	1053.14	-0.561168	0	0.827702	0		$|
6476219	0	object/tangible/terminal/terminal_mission_entertainer.iff	0	829.322	86.9527	1050.52	-0.362358	0	0.932039	0		$|
6476221	0	object/tangible/terminal/terminal_mission_artisan.iff	0	828.689	86.9427	1051.74	-0.480124	0	0.8772	0		$|
6476223	0	object/tangible/terminal/terminal_mission_scout.iff	0	833.722	86.9837	1066.37	0.979061	0	-0.203567	0		$|
6476225	0	object/tangible/terminal/terminal_mission_entertainer.iff	0	836.683	86.9546	1067.05	1	0	0	0		$|
6476227	0	object/tangible/terminal/terminal_mission_artisan.iff	0	835.108	86.8743	1066.67	0.997551	0	-0.0699428	0		$|
6476229	0	object/tangible/terminal/terminal_mission_artisan.iff	0	664.994	80.4709	1152.49	0.798861	0	-0.601516	0		$|
6476231	0	object/tangible/terminal/terminal_mission_artisan.iff	0	656.087	80.4982	1147.27	0.996802	0	0.0799147	0		$|
6476233	0	object/tangible/terminal/terminal_mission_scout.iff	0	668.064	74	1303.47	-3.20013e-008	0	1	0		$|
6476235	0	object/tangible/terminal/terminal_mission_scout.iff	0	699.542	74	1302.12	-0.0149995	0	0.999888	0		$|
6476237	0	object/tangible/terminal/terminal_mission_scout.iff	0	436.052	86	1038.75	0.968912	0	0.247404	0		$|
6476239	0	object/tangible/terminal/terminal_mission_scout.iff	0	410.541	86	1052.95	0.965693	0	0.259688	0		$|
6476241	0	object/tangible/terminal/terminal_mission_artisan.iff	0	437.662	86	1037.67	0.968912	0	0.247404	0		$|
6476243	0	object/tangible/terminal/terminal_mission_artisan.iff	0	408.699	86	1053.72	0.965693	0	0.259688	0		$|
6476247	0	object/tangible/terminal/terminal_mission_entertainer.iff	0	410.251	88.4701	1044.44	0.518759	0	0.854921	0		$|
6476249	0	object/tangible/terminal/terminal_mission_entertainer.iff	0	429.883	88.4986	1033.67	0.85492	0	-0.518759	0		$|
6575444	0	object/static/structure/dantooine/dant_boundary_post.iff	0	1592.9	20.9367	864.368	0.50622	0	0.862404	0		$|
6575943	0	object/static/structure/dantooine/dant_boundary_post.iff	0	1600.14	18.1353	875.875	0.519099	0	0.854714	0		$|
7125353	0	object/tangible/crafting/station/public_weapon_station.iff	0	702.966	74	1323.35	0.688632	0	0.725111	0		$|
7125356	0	object/tangible/crafting/station/public_structure_station.iff	0	665.031	74	1306.43	0.707668	0	-0.706545	0		$|
7125357	0	object/tangible/crafting/station/public_structure_station.iff	0	701.758	74	1303.91	0.692824	0	0.721107	0		$|
7125359	0	object/tangible/crafting/station/public_weapon_station.iff	0	665.676	74	1322.52	0.722974	0	-0.690875	0		$|
7125360	0	object/tangible/crafting/station/public_weapon_station.iff	0	692.476	74	1281.46	0.988012	0	0.15438	0		$|
7125365	0	object/tangible/crafting/station/public_clothing_station.iff	0	632.128	78	1164.61	0.0799147	0	0.996802	0		$|
7125366	0	object/tangible/crafting/station/public_food_station.iff	0	646.154	78	1184.32	0.0676473	0	0.997709	0		$|
8305404	0	object/tangible/sign/all_sign_city_s01.iff	0	926.039	30.99	716.912	1	0	0	0		$|
8305410	0	object/tangible/sign/all_sign_city_s01.iff	0	1071.74	28.6257	723.797	1	0	0	0		$|
8305411	0	object/tangible/sign/all_sign_city_s01.iff	0	1068.97	31	948.178	1	0	0	0		$|
8305412	0	object/tangible/sign/all_sign_city_s01.iff	0	796.01	22.0337	1571.57	1	0	0	0		$|
8675401	0	object/static/item/item_rifle.iff	0	680.174	74.2214	1289.78	0.73711	-0.467281	-0.412309	-0.261378		$|
8675402	0	object/static/item/item_food_fruit_s01.iff	0	680.184	74	1289.92	1	0	0	0		$|
8675403	0	object/static/item/item_con_drink_flask.iff	0	679.901	75.4863	1289.93	1	0	0	0		$|
8675426	0	object/static/item/item_con_drink_flask.iff	0	760.72	72.1128	876.904	1	0	0	0		$|
8675427	0	object/static/item/item_con_ration_kit_m.iff	0	760.751	72.0649	876.729	1	0	0	0		$|
8675428	0	object/static/item/item_food_fruit_s01.iff	0	760.54	72.1066	876.818	1	0	0	0		$|
8675429	0	object/static/item/item_vibroaxe.iff	0	761.104	72.9455	876.83	1	0	0	0		$|
8675430	0	object/static/item/item_rifle.iff	0	761.158	72.1082	877.285	0.740709	-0.0368637	0.0407801	0.669573		$|
8675775	0	object/static/structure/corellia/corl_imprv_bannerpole_s01.iff	0	951.357	31	761.534	1	0	0	0		$|
8675776	0	object/static/structure/corellia/corl_imprv_bannerpole_s01.iff	0	964.4	31	761.32	1	0	0	0		$|
8675777	0	object/static/structure/corellia/corl_imprv_flagpole_s01.iff	0	814.205	93.3502	1067.3	1	0	0	0		$|
8675778	0	object/static/structure/corellia/corl_imprv_flagpole_s01.iff	0	336.226	95.3327	1195.52	1	0	0	0		$|
9555416	0	object/static/structure/dantooine/dant_rack_spears.iff	0	974.734	31	743.208	0.712033	0	-0.702146	0		$|
9555417	0	object/static/structure/dantooine/dant_rack_spears.iff	0	974.622	31	744.633	-0.62161	0	0.783327	0		$|
9555420	0	object/tangible/crafting/station/public_food_station.iff	0	954.35	31	741.692	0.999987	0	0.00499949	0		$|
9555421	0	object/static/structure/general/droid_21bmedical_powerdown.iff	0	950.175	31	742.833	0.900447	0	0.434966	0		$|
9555426	0	object/static/structure/tatooine/skeleton_greater_krayt_head.iff	0	931.878	31	756.585	0.789741	-0.211749	0.468338	-0.33486		$|
9555427	0	object/static/structure/general/all_banner_generic_s02.iff	0	929.719	31.0199	755.303	0.847255	0	-0.531187	0		$|
9555430	0	object/tangible/crafting/station/public_food_station.iff	0	932.044	31	747.284	0.999899	0	-0.0142043	0		$|
9555431	0	object/tangible/crafting/station/public_weapon_station.iff	0	932.406	31	740.173	0.00420365	0	0.999991	0		$|
9555432	0	object/tangible/crafting/station/public_clothing_station.iff	0	927.288	31	744.092	0.999845	0	-0.0176101	0		$|
9555440	0	object/static/structure/general/streetlamp_medium_style_01.iff	0	932.347	31	749.974	1	0	0	0		$|
9825462	0	object/static/structure/general/prp_junk_s1.iff	0	579.169	28.1109	518.652	1	0	0	0		$|
9825463	0	object/static/structure/general/prp_junk_s4.iff	0	575.828	28.1517	516.974	0.906839	0.0929608	-0.280518	0.300517		$|
9825465	0	object/static/structure/general/prp_junk_s5.iff	0	575.129	28.2166	521.107	0.932327	0	0	-0.361615		$|
9825466	0	object/static/structure/general/prp_junk_s8.iff	0	580.333	27.9056	515.016	0.528306	-0.417736	-0.334913	0.658956		$|
9825471	0	object/static/structure/general/poi_protocolarm.iff	0	579.324	28.0126	516.397	1	0	0	0		$|
9825485	0	object/static/structure/general/escape_pod_door.iff	0	581.794	28.052	517.829	0.707107	0.707106	-7.72715e-009	7.72715e-009		$|
2955360	0	object/building/corellia/filler_slum_24x16_s01.iff	0	787.72	86	1257.63	0.980067	0	-0.198669	0		$|
2955362	0	object/building/corellia/filler_slum_24x16_s02.iff	0	714.405	85.9958	1233.47	3.20013e-008	0	1	0		$|
2955375	0	object/building/corellia/filler_slum_24x16_s02.iff	0	776.515	86	1165.62	0.707108	0	0.707106	0		$|
2955378	0	object/building/corellia/filler_slum_24x16_s02.iff	0	681.427	86	958.916	0.412321	0	0.911039	0		$|
2955386	0	object/building/corellia/filler_slum_24x16_s02.iff	0	707.374	86	979.438	0.946042	0	-0.324043	0		$|
2955389	0	object/building/corellia/filler_slum_24x16_s01.iff	0	718.136	86	953.166	1	0	0	0		$|
2955403	0	object/building/corellia/filler_slum_24x16_s02.iff	0	497.49	86	1087.2	0.24779	0	0.968814	0		$|
2955433	0	object/building/corellia/filler_slum_24x16_s02.iff	0	794.256	86	1231.07	1	0	0	0		$|
3005354	0	object/building/corellia/filler_slum_24x16_s02.iff	0	553.852	86	1126.52	-0.506221	0	0.862404	0		$|
3005357	0	object/building/corellia/filler_slum_24x16_s02.iff	0	530.323	86	1104.9	0.970138	0	-0.242555	0		$|
3005384	0	object/building/corellia/filler_slum_24x16_s01.iff	0	474.146	85.9443	1178.59	-0.493228	0	0.8699	0		$|
3005391	0	object/building/corellia/filler_slum_24x16_s01.iff	0	521.329	86	1082.04	0.857298	0	0.51482	0		$|
3005531	0	object/building/corellia/filler_slum_24x16_s02.iff	0	513.708	86	1130.43	0.970138	0	-0.242555	0		$|
3005534	0	object/building/corellia/filler_slum_24x16_s02.iff	0	487.308	86	1116.28	0.242555	0	0.970138	0		$|
3005642	0	object/building/corellia/filler_slum_24x16_s01.iff	0	761.724	86	1272.25	0.710914	0	-0.703279	0		$|
3005644	0	object/building/corellia/filler_slum_24x16_s02.iff	0	733.705	86	1264.99	-0.475732	0	0.87959	0		$|
3055814	0	object/building/corellia/filler_slum_24x16_s02.iff	0	688.666	86	1031.3	0.963558	0	0.267499	0		$|
3375416	0	object/building/corellia/filler_slum_24x16_s02.iff	0	313.138	86	1155.73	-0.114748	0	0.993395	0		$|
3375419	0	object/building/corellia/filler_slum_24x16_s01.iff	0	294.669	86	1137.15	-0.62161	0	0.783327	0		$|
3695385	0	object/static/item/item_armor_chitin_chestplate.iff	0	719.316	86.253	1233.67	0.707107	0	0.707107	0		$|
9825475	0	object/static/structure/general/droid_r5_torso.iff	0	578.856	27.9098	515.827	1	0	0	0		$|
9825479	0	object/static/structure/general/droid_r3_head.iff	0	578.467	27.1407	515.337	1	0	0	0		$|
9825481	0	object/static/structure/general/droid_r2_leg.iff	0	579.821	27.9685	515.81	1	0	0	0		$|
