objid	container	server_template_crc	cell_index	px	py	pz	qw	qx	qy	qz	scripts	objvars
i	i	h	i	f	f	f	f	f	f	f	s	p
683342	0	object/static/structure/corellia/corl_imprv_flagpole_s01.iff	0	795.083	356.637	556.075	1	0	0	0		$|
1177353	0	object/static/structure/general/tankfarm_s01.iff	0	737.514	315	396.091	-0.707104	0	0.707109	0		$|
2365722	0	object/building/corellia/filler_historic_32x16_s02.iff	0	620.148	315	347.611	0.707107	0	-0.707106	0		$|
2365727	0	object/building/corellia/filler_historic_32x16_s02.iff	0	691.397	315.025	457.5	0.707107	0	0.707107	0		$|
2365746	0	object/building/corellia/filler_historic_32x16_s01.iff	0	691.57	315	432.465	0.707108	0	0.707105	0		$|
2365754	0	object/building/corellia/filler_block_corellia_64x32_s01.iff	0	635.325	315	387.55	1	0	0	0		$|
2365761	0	object/building/corellia/guild_combat_corellia_style_01.iff	0	727.663	315	360.325	-0.707107	0	0.707107	0		$|
2365762	2365761	object/cell/cell.iff	1	0	0	0	1	1.401298E-45	0	0		$|
4607006	2365762	object/tangible/collection/rare_melee_tulrus_sword.iff	0	0.303237	5.969707	10.03612	-0.5026473	0	0.5001973	-0.4972649		$|
2365763	2365761	object/cell/cell.iff	2	0	0	0	1	2.802597E-45	0	0		$|
2365764	2365761	object/cell/cell.iff	3	0	0	0	1	4.203895E-45	0	0		$|
2365765	2365761	object/cell/cell.iff	4	0	0	0	1	5.605194E-45	0	0		$|
1112730	2365765	object/tangible/collection/plant_06.iff	0	6.801495	1.133057	0.02276124	1	0	0	0		$|
2365766	2365761	object/cell/cell.iff	5	0	0	0	1	7.006492E-45	0	0		$|
2365767	2365761	object/cell/cell.iff	6	0	0	0	1	8.407791E-45	0	0		$|
2365768	2365761	object/cell/cell.iff	7	0	0	0	1	9.809089E-45	0	0		$|
2365769	2365761	object/cell/cell.iff	8	0	0	0	1	1.121039E-44	0	0		$|
2365770	2365761	object/cell/cell.iff	9	0	0	0	1	1.261169E-44	0	0		$|
2365787	0	object/building/corellia/filler_historic_24x16_s02.iff	0	717.8145	315	329.9087	1	0	0	0		$|
2365790	0	object/building/corellia/filler_block_corellia_32x16_s01.iff	0	655.474	315	348.462	9.52215e-008	0	1	0		$|
2365793	0	object/building/corellia/guild_university_corellia_style_01.iff	0	714.251	330	717.679	-0.140331	0	0.990104	0		$|
2365794	2365793	object/cell/cell.iff	1	0	0	0	1	1.401298E-45	0	0		$|
2365795	2365793	object/cell/cell.iff	2	0	0	0	1	2.802597E-45	0	0		$|
2365796	2365793	object/cell/cell.iff	3	0	0	0	1	4.203895E-45	0	0		$|
2365797	2365793	object/cell/cell.iff	4	0	0	0	1	5.605194E-45	0	0		$|
2365798	2365793	object/cell/cell.iff	5	0	0	0	1	7.006492E-45	0	0		$|
2365799	2365793	object/cell/cell.iff	6	0	0	0	1	8.407791E-45	0	0		$|
2365800	2365793	object/cell/cell.iff	7	0	0	0	1	9.809089E-45	0	0		$|
2365801	2365793	object/cell/cell.iff	8	0	0	0	1	1.121039E-44	0	0		$|
2365802	2365793	object/cell/cell.iff	9	0	0	0	1	1.261169E-44	0	0		$|
2365803	0	object/building/corellia/hotel_corellia.iff	0	794.443	330	556.301	0.774419	0	-0.632673	0		$|
2365804	2365803	object/cell/cell.iff	1	0	0	0	1	1.401298E-45	0	0		$|
2365805	2365803	object/cell/cell.iff	2	0	0	0	1	2.802597E-45	0	0		$|
2365806	2365803	object/cell/cell.iff	3	0	0	0	1	4.203895E-45	0	0		$|
2365807	2365803	object/cell/cell.iff	4	0	0	0	1	5.605194E-45	0	0		$|
1095006	2365807	object/tangible/gambling/slot/standard.iff	0	4.410891	1.276682	-22.0438	0.9999973	0	-0.002301926	0		$|
1095007	2365807	object/tangible/gambling/slot/standard.iff	0	0.3378506	1.275782	-22.00167	0.9999973	0	-0.002301926	0		$|
1095008	2365807	object/tangible/gambling/wheel/roulette.iff	0	-1.14261	1.085977	-16.14094	0.9999973	0	-0.002301926	0		$|
1095009	2365807	object/tangible/gambling/wheel/roulette.iff	0	9.50218	1.086939	-16.15126	0.9999973	0	-0.002301926	0		$|
1095010	2365807	object/tangible/gambling/slot/standard.iff	0	8.45293	1.276682	-22.14753	0.9999973	0	-0.002301926	0		$|
8105455	2365807	object/soundobject/soundobject_city_crowd_small.iff	0	-0.085714	0.999993	0.178281	1	0	0	0		$|
2365808	2365803	object/cell/cell.iff	5	0	0	0	1	7.006492E-45	0	0		$|
8105462	2365808	object/soundobject/soundobject_cantina_small.iff	5	19.49201	1.283091	-2.41068	1	0	0	0		$|
2365809	2365803	object/cell/cell.iff	6	0	0	0	1	8.407791E-45	0	0		$|
1095000	2365809	object/tangible/gambling/wheel/roulette.iff	6	-15.91992	1.000861	-0.1241322	0.9999964	0	0.002698067	0		$|
1095001	2365809	object/tangible/gambling/wheel/roulette.iff	6	-15.88282	1.000877	4.245212	0.9999964	0	0.002698067	0		$|
1095002	2365809	object/tangible/gambling/slot/standard.iff	6	-12.33354	1.000694	-0.1672761	0.7090043	0	-0.705205	0		$|
1095003	2365809	object/tangible/gambling/slot/standard.iff	6	-12.13112	1.000541	-0.1892359	0.7051967	0	0.7090116	0		$|
1095004	2365809	object/tangible/gambling/slot/standard.iff	6	-11.97108	1.0008	4.115673	0.6961365	0	0.7179096	0		$|
1095005	2365809	object/tangible/gambling/slot/standard.iff	6	-12.1723	1.000648	4.142407	0.717904	0	-0.6961425	0		$|
2365810	2365803	object/cell/cell.iff	7	0	0	0	1	9.809089E-45	0	0		$|
2365811	2365803	object/cell/cell.iff	8	0	0	0	1	1.121039E-44	0	0		$|
2365812	2365803	object/cell/cell.iff	9	0	0	0	1	1.261169E-44	0	0		$|
2365813	2365803	object/cell/cell.iff	10	0	0	0	1	1.401298E-44	0	0		$|
2365824	0	object/building/corellia/shuttleport_corellia.iff	0	480.307	330	222.708	-0.0307917	0	0.999526	0	structure.municipal.starport:planet_map.map_loc	travel.cost|0|200|travel.ground_time|0|300|travel.is_shuttleport|0|1|travel.point_name|4|Bela Vista Shuttleport A|travel.shuttle_available|0|1|travel.version|0|3|$|
2365825	0	object/building/corellia/filler_building_corellia_style_03.iff	0	529.108	330	261.333	0.707107	0	-0.707106	0		$|
2365842	0	object/building/corellia/shuttleport_corellia.iff	0	806.402	330	605.118	0.994964	0	0.10023	0	structure.municipal.starport:planet_map.map_loc	travel.cost|0|200|travel.ground_time|0|300|travel.is_shuttleport|0|1|travel.point_name|4|Bela Vista Shuttleport B|travel.shuttle_available|0|1|travel.version|0|3|$|
2365897	0	object/building/corellia/skyscraper_corellia_style_05.iff	0	604.019	314.999	645.688	0.293321	0	0.956014	0		$|
2365901	0	object/building/corellia/cloning_corellia.iff	0	739.647	315	423.985	0.707108	0	-0.707105	0		$|
2365902	2365901	object/cell/cell.iff	1	0	0	0	1	1.401298E-45	0	0		$|
2365903	2365901	object/cell/cell.iff	2	0	0	0	1	2.802597E-45	0	0		$|
2365904	2365901	object/cell/cell.iff	3	0	0	0	1	4.203895E-45	0	0		$|
2365905	2365901	object/cell/cell.iff	4	0	0	0	1	5.605194E-45	0	0		$|
2365906	2365901	object/cell/cell.iff	5	0	0	0	1	7.006492E-45	0	0		$|
2365907	2365901	object/cell/cell.iff	6	0	0	0	1	8.407791E-45	0	0		$|
2365910	0	object/building/corellia/filler_historic_32x16_s01.iff	0	638.534	315	451.12	3.46697e-006	0	1	0		$|
2365915	0	object/building/corellia/filler_block_corellia_64x32_s02.iff	0	640.769	315	310.725	1	0	0	0		$|
2365921	0	object/building/corellia/association_hall_civilian_corellia.iff	0	563.188	314.724	524.64	1	0	0	0		$|
2365922	2365921	object/cell/cell.iff	1	0	0	0	1	1.401298E-45	0	0		$|
2365923	2365921	object/cell/cell.iff	2	0	0	0	1	2.802597E-45	0	0		$|
2365924	2365921	object/cell/cell.iff	3	0	0	0	1	4.203895E-45	0	0		$|
2365925	2365921	object/cell/cell.iff	4	0	0	0	1	5.605194E-45	0	0		$|
2365926	2365921	object/cell/cell.iff	5	0	0	0	1	7.006492E-45	0	0		$|
2365927	2365921	object/cell/cell.iff	6	0	0	0	1	8.407791E-45	0	0		$|
2365928	2365921	object/cell/cell.iff	7	0	0	0	1	9.809089E-45	0	0		$|
2365929	2365921	object/cell/cell.iff	8	0	0	0	1	1.121039E-44	0	0		$|
8675501	2365929	object/tangible/furniture/modern/coffee_table_modern_style_01.iff	8	-20.73661	2.25	11.59628	0.707107	0	-0.7071065	0		$|
8675502	2365929	object/static/item/item_chair_metal_wheeled_01.iff	8	-21.62213	2.25	11.5409	0.7071066	0	0.7071068	0		$|
8675503	2365929	object/static/item/item_data_disk.iff	8	-20.42654	3.040572	10.19299	0.9895059	0	0.1444924	0		$|
8675504	2365929	object/static/item/item_data_disk.iff	8	-20.34889	3.040572	10.29796	0.9895059	0	0.1444924	0		$|
8675505	2365929	object/static/item/item_document.iff	8	-20.39468	3.008949	12.90119	0.9460424	0	-0.324043	0		$|
8675506	2365929	object/static/item/item_con_drink_flask.iff	8	-20.47204	3.008949	10.46759	1	0	0	0		$|
8675507	2365929	object/static/item/item_con_glass_beaker.iff	8	-20.49272	3.008949	10.62718	1	0	0	0		$|
8675508	2365929	object/static/item/item_con_glass_full_s2.iff	8	-20.34484	3.008949	10.56908	1	0	0	0		$|
8675509	2365929	object/static/item/item_con_plate_s1_full.iff	8	-20.93942	3.040572	12.80605	1	0	0	0		$|
8675510	2365929	object/static/item/item_painting_corellia_style_02.iff	8	-22.60761	2.787589	11.6104	3.200127E-08	0	1	0		$|
8675511	2365929	object/tangible/furniture/all/frn_all_potted_plants_sml_s05.iff	8	-17.98662	2.25	10.0814	1	0	0	0		$|
2365930	2365921	object/cell/cell.iff	9	0	0	0	1	1.261169E-44	0	0		$|
2365931	2365921	object/cell/cell.iff	10	0	0	0	1	1.401298E-44	0	0		$|
8105443	2365931	object/soundobject/soundobject_city_crowd_medium.iff	10	-0.356106	1.154404	-7.031007	1	0	0	0		$|
2365932	2365921	object/cell/cell.iff	11	0	0	0	1	1.541428E-44	0	0		$|
2365933	2365921	object/cell/cell.iff	12	0	0	0	1	1.681558E-44	0	0		$|
2365934	2365921	object/cell/cell.iff	13	0	0	0	1	1.821688E-44	0	0		$|
2365935	2365921	object/cell/cell.iff	14	0	0	0	1	1.961818E-44	0	0		$|
2365936	2365921	object/cell/cell.iff	15	0	0	0	1	2.101948E-44	0	0		$|
2365937	2365921	object/cell/cell.iff	16	0	0	0	1	2.242078E-44	0	0		$|
2365938	2365921	object/cell/cell.iff	17	0	0	0	1	2.382207E-44	0	0		$|
2365939	0	object/building/corellia/guild_commerce_corellia_style_01.iff	0	563.188	314.822	619.64	4.95617e-007	0	1	0		$|
2365940	2365939	object/cell/cell.iff	1	0	0	0	1	1.401298E-45	0	0		$|
2365941	2365939	object/cell/cell.iff	2	0	0	0	1	2.802597E-45	0	0		$|
2365942	2365939	object/cell/cell.iff	3	0	0	0	1	4.203895E-45	0	0		$|
2365943	2365939	object/cell/cell.iff	4	0	0	0	1	5.605194E-45	0	0		$|
2365944	2365939	object/cell/cell.iff	5	0	0	0	1	7.006492E-45	0	0		$|
2365945	2365939	object/cell/cell.iff	6	0	0	0	1	8.407791E-45	0	0		$|
2365946	2365939	object/cell/cell.iff	7	0	0	0	1	9.809089E-45	0	0		$|
2365947	2365939	object/cell/cell.iff	8	0	0	0	1	1.121039E-44	0	0		$|
2365948	2365939	object/cell/cell.iff	9	0	0	0	1	1.261169E-44	0	0		$|
2395352	0	object/static/structure/corellia/corl_imprv_wall_4x16_s02.iff	0	511	327.374	233	1	0	0	0		$|
2395355	0	object/static/structure/corellia/corl_imprv_wall_4x16_s02.iff	0	535	327.374	233	1	0	0	0		$|
2395356	0	object/static/structure/corellia/corl_imprv_wall_4x16_s02.iff	0	549	327.374	155	0.92388	0	0.382683	0		$|
2395357	0	object/static/structure/corellia/corl_imprv_wall_4x16_s02.iff	0	543	327.374	209	0.707107	0	0.707107	0		$|
2395358	0	object/static/structure/corellia/corl_imprv_wall_4x16_s02.iff	0	543	327.374	225	0.707107	0	0.707107	0		$|
2395359	0	object/static/structure/corellia/corl_imprv_gate_sm_s01.iff	0	543	330	197	0.707108	0	-0.707106	0		$|
2395360	0	object/static/structure/corellia/corl_imprv_wall_4x16_s02.iff	0	543	327.374	169	0.707108	0	-0.707105	0		$|
2395361	0	object/static/structure/corellia/corl_imprv_wall_4x16_s02.iff	0	543	327.374	185	0.707107	0	0.707107	0		$|
2395362	0	object/static/structure/corellia/corl_imprv_gate_sm_s01.iff	0	523	330	233	1	0	0	0		$|
2395363	0	object/static/structure/corellia/corl_imprv_column_s01.iff	0	503	327.374	201	0.707108	0	-0.707106	0		$|
2395364	0	object/static/structure/corellia/corl_imprv_column_s01.iff	0	503	327.374	233	-0.382683	0	0.92388	0		$|
2395365	0	object/static/structure/corellia/corl_imprv_column_s01.iff	0	543	327.374	233	0.92388	0	-0.382683	0		$|
2395366	0	object/static/structure/corellia/corl_imprv_column_s01.iff	0	543	327.374	161	0.707108	0	-0.707106	0		$|
2395367	0	object/static/structure/corellia/corl_imprv_arch_lg_s01.iff	0	570.16	327.933	277.931	1	0	0	0		$|
2395375	0	object/static/structure/corellia/corl_imprv_wall_4x16_s02.iff	0	561.53	312.129	341.882	0.707109	0	-0.707105	0		$|
2395376	0	object/static/structure/corellia/corl_imprv_wall_4x16_s02.iff	0	561.53	312.129	325.882	-0.707107	0	0.707107	0		$|
2395380	0	object/static/structure/corellia/corl_imprv_wall_4x16_s02.iff	0	585.085	312.321	308.182	-0.707107	0	0.707107	0		$|
2395381	0	object/static/structure/corellia/corl_imprv_column_s01.iff	0	585.12	312.321	299.881	-0.707107	0	0.707107	0		$|
2395383	0	object/static/structure/corellia/corl_imprv_wall_4x16_s02.iff	0	593.353	312.321	316.735	1	0	0	0		$|
2395384	0	object/static/structure/corellia/corl_imprv_arch_sm_s01.iff	0	605.217	315	316.867	-3.48103e-007	0	1	0		$|
2395385	0	object/static/structure/corellia/corl_imprv_column_s01.iff	0	585.076	312.776	316.769	0.923879	0	-0.382684	0		$|
2395386	0	object/static/structure/corellia/corl_imprv_wall_4x16_s01.iff	0	610.012	315	345.082	1	0	0	0		$|
2395387	0	object/static/structure/corellia/corl_imprv_wall_4x16_s01.iff	0	598.732	315	400.171	1	0	0	0		$|
2395388	0	object/static/structure/corellia/corl_imprv_wall_4x32_s01.iff	0	604.803	315	368.047	0.707107	0	-0.707106	0		$|
2395389	0	object/static/structure/corellia/corl_imprv_column_s01.iff	0	604.788	315	351.569	0.707107	0	-0.707106	0		$|
2395390	0	object/static/structure/corellia/corl_imprv_column_s01.iff	0	675.394	315	306.688	1	0	0	0		$|
2395391	0	object/static/structure/corellia/corl_imprv_column_s01.iff	0	710.437	312.268	318.479	1	0	0	0		$|
2395392	0	object/static/structure/corellia/corl_imprv_wall_4x32_s02.iff	0	723.618	315	464.029	1	0	0	0		$|
2395394	0	object/static/structure/corellia/corl_imprv_wall_4x16_s02.iff	0	739.957	315	455.823	0.707108	0	-0.707105	0		$|
2395395	0	object/static/structure/corellia/corl_imprv_column_s01.iff	0	739.625	315	463.68	-0.382684	0	0.923879	0		$|
2395396	0	object/static/structure/corellia/corl_imprv_gate_sm_s02.iff	0	707.941	315	443.849	0.707108	0	-0.707105	0		$|
2395397	0	object/static/structure/corellia/corl_imprv_wall_4x16_s02.iff	0	707.93	315	455.818	0.707108	0	-0.707106	0		$|
2395399	0	object/static/structure/corellia/corl_imprv_wall_4x16_s02.iff	0	739.798	315	392.398	0.707115	0	-0.707098	0		$|
2395400	0	object/static/structure/corellia/corl_imprv_column_s01.iff	0	707.939	315	464.133	1	0	0	0		$|
2395401	0	object/static/structure/corellia/corl_imprv_column_s01.iff	0	739.956	315	447.458	0.707107	0	-0.707106	0		$|
2395403	0	object/static/structure/corellia/corl_imprv_wall_4x16_s02.iff	0	675.906	315	460.875	1	0	0	0		$|
2395404	0	object/static/structure/corellia/corl_imprv_wall_4x16_s02.iff	0	650.349	315	459.559	1	0	0	0		$|
2395407	0	object/static/structure/corellia/corl_imprv_arch_sm_s02.iff	0	673.53	315	427.417	1	0	0	0		$|
2395408	0	object/static/structure/corellia/corl_imprv_wall_4x16_s02.iff	0	615.821	312.508	476.767	1	0	0	0		$|
2395409	0	object/static/structure/corellia/corl_imprv_wall_4x16_s02.iff	0	607.861	312.267	468.806	0.707109	0	-0.707105	0		$|
2395410	0	object/static/structure/corellia/corl_imprv_wall_4x32_s02.iff	0	623.787	312.204	460.804	1	0	0	0		$|
2395411	0	object/static/structure/corellia/corl_imprv_column_s02.iff	0	607.883	312.268	460.793	-0.382683	0	0.92388	0		$|
2395412	0	object/static/structure/corellia/corl_imprv_column_s02.iff	0	607.777	312.881	476.772	0.382683	0	0.92388	0		$|
2395413	0	object/static/structure/corellia/corl_imprv_column_s02.iff	0	623.983	314.446	476.75	1	0	0	0		$|
2395417	0	object/static/structure/corellia/corl_imprv_wall_4x16_s02.iff	0	637.629	312.268	426.083	-3.27653e-006	0	1	0		$|
2395418	0	object/static/structure/corellia/corl_imprv_wall_4x16_s02.iff	0	629.629	312.268	434.083	0.707111	0	-0.707102	0		$|
2395422	0	object/static/structure/corellia/corl_imprv_column_s02.iff	0	645.563	312.268	426.084	1	0	0	0		$|
2395423	0	object/static/structure/corellia/corl_imprv_column_s02.iff	0	629.63	312.268	426.08	-0.382683	0	0.92388	0		$|
2395424	0	object/static/structure/corellia/corl_imprv_column_s02.iff	0	629.63	312.268	442.08	0.707107	0	0.707106	0		$|
2395426	0	object/static/structure/corellia/corl_imprv_wall_4x16_s02.iff	0	621.27	312.268	507.589	0.707109	0	0.707105	0		$|
2395429	0	object/static/structure/corellia/corl_imprv_wall_4x32_s02.iff	0	684.104	312.757	510.921	1	0	0	0		$|
2395430	0	object/static/structure/corellia/corl_imprv_column_s02.iff	0	700.174	312.757	510.893	1	0	0	0		$|
2395432	0	object/static/structure/corellia/corl_stair_large_s01.iff	0	718.813	314.164	543.042	-0.501559	0	0.865124	0		$|
2395433	0	object/static/structure/corellia/corl_imprv_bridge_sm_s01.iff	0	734.03	329.828	551.768	-0.501558	0	0.865124	0		$|
2395434	0	object/static/structure/corellia/corl_imprv_bridge_insert_s01.iff	0	727.089	329.902	547.791	0.865125	0	0.501557	0		$|
2395436	0	object/static/structure/corellia/corl_imprv_column_s02.iff	0	824.116	330.011	605.927	-0.510184	0	0.860065	0		$|
2395437	0	object/static/structure/corellia/corl_imprv_wall_4x16_s02.iff	0	828.346	329.969	598.339	-0.510185	0	0.860065	0		$|
2395439	0	object/static/structure/corellia/corl_imprv_column_s02.iff	0	832.219	330	590.805	-0.564971	0	0.82511	0		$|
2395440	0	object/static/structure/corellia/corl_imprv_wall_4x16_s02.iff	0	833.931	330	582.288	-0.636846	0	0.770992	0		$|
2395441	0	object/static/structure/corellia/corl_imprv_wall_4x16_s02.iff	0	835.448	330	565.134	0.717625	0	-0.69643	0		$|
2395442	0	object/static/structure/corellia/corl_imprv_column_s02.iff	0	835.614	330	573.777	-0.68921	0	0.724561	0		$|
2395443	0	object/static/structure/corellia/corl_imprv_wall_4x16_s02.iff	0	831.059	330	548.66	0.857503	0	-0.514479	0		$|
2395444	0	object/static/structure/corellia/corl_imprv_column_s02.iff	0	834.998	329.998	556.489	0.783575	0	-0.621297	0		$|
2395445	0	object/static/structure/corellia/corl_imprv_wall_4x16_s02.iff	0	819.9	330	536.222	0.952212	0	-0.305438	0		$|
2395446	0	object/static/structure/corellia/corl_imprv_column_s02.iff	0	826.927	330	541.335	0.952213	0	-0.305436	0		$|
2395447	0	object/static/structure/corellia/corl_imprv_column_s02.iff	0	813.043	330	531.148	0.952213	0	-0.305436	0		$|
2395448	0	object/static/structure/corellia/corl_power_box_node.iff	0	821.687	330	562.912	0.995491	0	0.0948572	0		$|
2395449	0	object/static/structure/corellia/corl_power_bubble_node.iff	0	820.743	330	558.002	0.995491	0	0.0948572	0		$|
2395450	0	object/static/structure/corellia/corl_power_bubble_node.iff	0	819.798	330	553.092	0.995491	0	0.0948572	0		$|
2395451	0	object/static/structure/corellia/corl_power_box_node.iff	0	818.854	330	548.181	0.995491	0	0.0948572	0		$|
2395452	0	object/static/structure/corellia/corl_power_transformer_s01.iff	0	822.63	330	567.821	0.995491	0	0.0948572	0		$|
2395453	0	object/static/structure/corellia/corl_power_transformer_s02.iff	0	823.443	330	550.037	0.995491	0	0.0948572	0		$|
2395454	0	object/static/structure/corellia/corl_power_transformer_s01.iff	0	817.909	330	543.272	-0.0948572	0	0.995491	0		$|
2395455	0	object/static/structure/corellia/corl_power_transformer_s02.iff	0	825.331	330	559.856	0.995491	0	0.0948572	0		$|
2395456	0	object/static/structure/corellia/corl_power_connector.iff	0	821.402	333.444	560.613	0.995491	0	0.0948572	0		$|
2395457	0	object/static/structure/corellia/corl_power_connector.iff	0	818.514	333.444	567.596	0.995491	0	0.0948572	0		$|
2395458	0	object/static/structure/corellia/corl_power_connector.iff	0	814.17	333.444	545.009	0.995491	0	0.0948572	0		$|
2395459	0	object/static/structure/corellia/corl_power_connector.iff	0	819.515	333.444	550.792	0.995491	0	0.0948572	0		$|
2395460	0	object/static/structure/corellia/corl_power_bubble_node.iff	0	821.652	330	593.425	0.995004	0	0.0998331	0		$|
2395461	0	object/static/structure/corellia/corl_power_transformer_s01.iff	0	820.83	330	589.262	-0.094857	0	0.995491	0		$|
2395462	0	object/static/structure/corellia/corl_power_arial_prime.iff	0	822.854	330	596.106	1	0	0	0		$|
2395472	0	object/static/structure/corellia/corl_imprv_bridge_sm_s01.iff	0	672.434	329.86	670.776	-0.470977	0	0.882146	0		$|
2395473	0	object/static/structure/corellia/corl_imprv_bridge_insert_s01.iff	0	665.787	329.871	666.323	0.882152	0	0.470965	0		$|
2395474	0	object/static/structure/corellia/corl_stair_large_s01.iff	0	658.308	314.079	661.316	-0.470983	0	0.882142	0		$|
2395475	0	object/static/structure/corellia/corl_imprv_bridge_insert_s01.iff	0	679.081	329.859	675.227	0.882151	0	0.470966	0		$|
2395476	0	object/static/structure/corellia/corl_imprv_wall_4x16_s02.iff	0	747.939	327.296	544.998	0.908966	0	0.416871	0		$|
2395477	0	object/static/structure/corellia/corl_imprv_column_s02.iff	0	742.833	327.296	550.79	0.908966	0	0.416871	0		$|
2395478	0	object/static/structure/corellia/corl_imprv_wall_4x16_s02.iff	0	760.693	327.296	534.33	0.961055	0	0.276356	0		$|
2395479	0	object/static/structure/corellia/corl_imprv_column_s02.iff	0	753.713	327.296	538.685	0.961055	0	0.276356	0		$|
2395480	0	object/static/structure/corellia/corl_imprv_column_s02.iff	0	767.836	327.296	530.164	0.995953	0	0.0898786	0		$|
2395481	0	object/static/structure/corellia/corl_imprv_bridge_insert_s01.iff	0	741.333	329.8	555.933	0.865125	0	0.501556	0		$|
2395482	0	object/static/structure/corellia/corl_imprv_column_s02.iff	0	737.717	327.29	559.551	0.798861	0	0.601516	0		$|
2395483	0	object/static/structure/corellia/corl_imprv_wall_4x16_s02.iff	0	734.671	327.296	581.652	0.667167	0	0.744908	0		$|
2395484	0	object/static/structure/corellia/corl_imprv_column_s02.iff	0	733.942	327.296	574.049	0.748237	0	0.663431	0		$|
2395485	0	object/static/structure/corellia/corl_imprv_wall_4x16_s02.iff	0	739.859	327.296	595.431	0.462133	0	0.886811	0		$|
2395487	0	object/static/structure/corellia/corl_imprv_wall_4x16_s02.iff	0	735.832	327.296	566.62	0.792807	0	0.609472	0		$|
2395488	0	object/static/structure/corellia/corl_imprv_column_s02.iff	0	744.038	327.296	601.397	0.462133	0	0.88681	0		$|
2395489	0	object/static/structure/corellia/corl_imprv_column_s02.iff	0	735.697	327.294	589.112	0.56909	0	0.822275	0		$|
2395508	0	object/static/structure/corellia/corl_imprv_bridge_sm_s01.iff	0	719.547	329.885	652.224	0.963771	0	-0.266731	0		$|
2395509	0	object/static/structure/corellia/corl_imprv_bridge_sm_s01.iff	0	727.772	329.885	638.5	0.963771	0	-0.266731	0		$|
2395510	0	object/static/structure/corellia/corl_imprv_bridge_sm_s01.iff	0	735.997	329.885	624.776	0.963771	0	-0.266731	0		$|
2395511	0	object/static/structure/corellia/corl_imprv_bridge_sm_s01.iff	0	744.224	329.885	611.052	0.963771	0	-0.266731	0		$|
2395513	0	object/static/structure/corellia/corl_imprv_bridge_insert_s01.iff	0	715.433	329.885	659.084	0.963771	0	-0.266731	0		$|
2395514	0	object/static/structure/corellia/corl_imprv_bridge_insert_s01.iff	0	723.66	329.885	645.362	0.963771	0	-0.266731	0		$|
2395515	0	object/static/structure/corellia/corl_imprv_bridge_insert_s01.iff	0	731.887	329.885	631.641	0.963771	0	-0.266731	0		$|
2395516	0	object/static/structure/corellia/corl_imprv_bridge_insert_s01.iff	0	740.11	329.885	617.915	0.963771	0	-0.266731	0		$|
2395517	0	object/static/structure/corellia/corl_imprv_bridge_insert_s01.iff	0	748.337	329.885	604.192	0.963771	0	-0.266731	0		$|
2395518	0	object/static/structure/corellia/corl_imprv_column_s02.iff	0	767.146	327.296	616.53	0.134986	0	0.990847	0		$|
2395519	0	object/static/structure/corellia/corl_imprv_column_s02.iff	0	752.4	327.296	608.062	0.271934	0	0.962316	0		$|
2395520	0	object/static/structure/corellia/corl_imprv_wall_4x16_s02.iff	0	759.825	327.296	612.456	0.257467	0	0.966287	0		$|
2395524	0	object/static/structure/corellia/corl_imprv_wall_4x16_s02.iff	0	726.52	327.296	666.852	0.319686	0	0.947522	0		$|
2395525	0	object/static/structure/corellia/corl_imprv_wall_4x16_s02.iff	0	737.671	327.296	678.585	0.46656	0	0.884488	0		$|
2395526	0	object/static/structure/corellia/corl_imprv_wall_4x16_s02.iff	0	741.965	327.524	693.651	0.714167	0	0.699973	0		$|
2395527	0	object/static/structure/corellia/corl_imprv_wall_4x16_s02.iff	0	741.799	327.688	710.18	0.707137	0	0.707074	0		$|
2395528	0	object/static/structure/corellia/corl_imprv_wall_4x16_s02.iff	0	735.077	327.764	722.912	-0.290357	0	0.956917	0		$|
2395529	0	object/static/structure/corellia/corl_imprv_wall_4x16_s02.iff	0	702.34	327.296	658.064	-0.0795165	0	0.996833	0		$|
2395530	0	object/static/structure/corellia/corl_imprv_wall_4x16_s02.iff	0	688.008	327.296	665.445	-0.379818	0	0.92506	0		$|
2395534	0	object/static/structure/corellia/corl_imprv_wall_4x16_s02.iff	0	671.092	327.296	702.738	0.625207	0	0.780457	0		$|
2395535	0	object/static/structure/corellia/corl_imprv_wall_4x16_s02.iff	0	689.9	327.296	722.484	-0.144097	0	0.989563	0		$|
2395536	0	object/static/structure/corellia/corl_imprv_wall_4x16_s02.iff	0	672.964	327.296	686.558	0.841689	0	0.539962	0		$|
2395537	0	object/static/structure/corellia/corl_imprv_wall_4x16_s02.iff	0	677.177	327.296	717.727	0.492881	0	0.870095	0		$|
2395538	0	object/static/structure/corellia/corl_imprv_column_s02.iff	0	741.453	327.865	718.27	0.879969	0	0.475032	0		$|
2395539	0	object/static/structure/corellia/corl_imprv_column_s02.iff	0	741.755	327.765	701.833	-0.693111	0	0.720831	0		$|
2395540	0	object/static/structure/corellia/corl_imprv_column_s02.iff	0	742.081	327.404	685.48	0.780707	0	-0.624897	0		$|
2395541	0	object/static/structure/corellia/corl_imprv_column_s02.iff	0	733.112	327.296	672.065	0.919102	0	-0.394019	0		$|
2395542	0	object/static/structure/corellia/corl_imprv_column_s02.iff	0	719.748	327.296	661.778	0.952334	0	-0.305059	0		$|
2395543	0	object/static/structure/corellia/corl_imprv_column_s02.iff	0	710.708	327.296	656.886	0.995004	0	-0.0998334	0		$|
2395544	0	object/static/structure/corellia/corl_imprv_column_s02.iff	0	694.101	327.296	659.312	0.968912	0	0.247404	0		$|
2395545	0	object/static/structure/corellia/corl_imprv_column_s02.iff	0	682.048	327.296	671.206	0.913089	0	0.40776	0		$|
2395546	0	object/static/structure/corellia/corl_imprv_column_s02.iff	0	676.259	327.296	679.496	-0.527282	0	0.84969	0		$|
2395547	0	object/static/structure/corellia/corl_imprv_column_s02.iff	0	669.636	327.296	694.375	0.744909	0	0.667166	0		$|
2395548	0	object/static/structure/corellia/corl_imprv_column_s02.iff	0	673.055	327.296	710.601	0.531524	0	0.847044	0		$|
2395549	0	object/static/structure/corellia/corl_imprv_column_s02.iff	0	681.597	327.296	724.921	0.090275	0	0.995917	0		$|
2395560	0	object/tangible/terminal/terminal_mission.iff	0	568.786	317.358	599.609	-0.382683	0	0.92388	0		$|
2395561	0	object/tangible/terminal/terminal_mission.iff	0	557.633	317.373	599.632	0.382683	0	0.92388	0		$|
2395562	0	object/tangible/terminal/terminal_mission.iff	0	572.148	314.569	543.947	1	0	0	0		$|
2395563	0	object/tangible/terminal/terminal_mission.iff	0	553.625	314.977	543.685	1	0	0	0		$|
2395564	0	object/static/structure/corellia/corl_fountain_statue_contemplate_s01.iff	0	563.087	314.863	568.078	1	0	0	0		$|
2395578	0	object/tangible/terminal/terminal_mission.iff	0	692.712	315	361.677	1	0	0	0		$|
2395580	0	object/tangible/terminal/terminal_mission.iff	0	692.663	315	359.07	3.20013e-008	0	1	0		$|
2395581	0	object/static/structure/corellia/corl_fountain_circle_s01.iff	0	747.535	330	580.793	1	0	0	0		$|
2735353	0	object/static/structure/corellia/corl_imprv_column_s01.iff	0	555	327.632	149	-0.382683	0	0.92388	0		$|
2735361	0	object/static/structure/general/streetlamp_large_style_02.iff	0	543.012	330	233	0.92388	0	0.382683	0		$|
2735362	0	object/static/structure/general/streetlamp_large_style_02.iff	0	503.005	330	233	0.923879	0	-0.382684	0		$|
2735363	0	object/static/structure/general/streetlamp_large_style_02.iff	0	502.986	330	200.994	0.707108	0	0.707106	0		$|
2735366	0	object/static/structure/corellia/corl_imprv_wall_4x16_s02.iff	0	488	327.374	197	-3.48103e-007	0	1	0		$|
2735367	0	object/static/structure/corellia/corl_imprv_column_s01.iff	0	480	327.374	197	1	0	0	0		$|
2735368	0	object/static/structure/corellia/corl_imprv_wall_4x16_s02.iff	0	474	327.374	203	0.92388	0	0.382683	0		$|
2735369	0	object/static/structure/corellia/corl_imprv_column_s01.iff	0	496	327.374	197	-1.84353e-006	0	1	0		$|
2735375	0	object/static/structure/general/streetlamp_large_style_02.iff	0	710.427	315	318.48	0.92388	0	-0.382683	0		$|
2735380	0	object/static/structure/general/streetlamp_large_style_02.iff	0	596.982	315	408.673	0.914667	0	0.404208	0		$|
2735381	0	object/static/structure/general/streetlamp_large_style_02.iff	0	629.629	315	426.077	-0.382683	0	0.92388	0		$|
2735382	0	object/static/structure/corellia/corl_imprv_column_s02.iff	0	596.992	312.268	408.704	0.345433	0	0.938444	0		$|
2735383	0	object/static/structure/general/streetlamp_large_style_02.iff	0	669.026	315	403.054	0.00230162	0	0.999998	0		$|
2735384	0	object/static/structure/corellia/corl_imprv_column_s02.iff	0	669.027	312.268	403.057	0.00230162	0	0.999998	0		$|
2735385	0	object/static/structure/corellia/corl_imprv_column_s02.iff	0	670.059	312.268	425.065	0.002302	0	0.999998	0		$|
2735386	0	object/static/structure/general/streetlamp_large_style_02.iff	0	670.058	315	425.062	0.002302	0	0.999998	0		$|
2735387	0	object/static/structure/corellia/corl_imprv_column_s02.iff	0	673.021	312.268	338.992	0.002302	0	0.999998	0		$|
2735388	0	object/static/structure/general/streetlamp_large_style_02.iff	0	673.02	315	338.989	0.002302	0	0.999998	0		$|
2735389	0	object/static/structure/corellia/corl_imprv_column_s02.iff	0	640.896	312.268	327.241	0.002302	0	0.999998	0		$|
2735390	0	object/static/structure/general/streetlamp_large_style_02.iff	0	640.895	315	327.238	0.002302	0	0.999998	0		$|
2735393	0	object/static/structure/corellia/corl_imprv_column_s02.iff	0	577.065	320.627	291.11	-0.705479	0	0.708733	0		$|
2735394	0	object/static/structure/general/streetlamp_large_style_02.iff	0	577.064	323.359	291.107	0.002302	0	0.999998	0		$|
2735395	0	object/static/structure/corellia/corl_imprv_column_s02.iff	0	575.039	326.791	261.011	0.002302	0	0.999998	0		$|
2735396	0	object/static/structure/general/streetlamp_large_style_02.iff	0	575.038	329.523	261.008	0.002302	0	0.999998	0		$|
2735397	0	object/static/structure/corellia/corl_imprv_column_s02.iff	0	549.489	327.278	201.858	0.708717	0	0.705494	0		$|
2735398	0	object/static/structure/general/streetlamp_large_style_02.iff	0	549.492	330.01	201.857	0.708717	0	0.705494	0		$|
2735400	0	object/static/structure/corellia/corl_imprv_column_s02.iff	0	547.702	327.268	174.793	-0.00269687	0	0.999996	0		$|
2735401	0	object/static/structure/general/streetlamp_large_style_02.iff	0	547.701	330	174.791	-0.00269687	0	0.999996	0		$|
2735402	0	object/static/structure/corellia/corl_imprv_column_s02.iff	0	611.051	312.268	357.014	0.002302	0	0.999998	0		$|
2735403	0	object/static/structure/general/streetlamp_large_style_02.iff	0	611.05	315	357.011	0.002302	0	0.999998	0		$|
2735404	0	object/static/structure/corellia/corl_imprv_column_s02.iff	0	645.019	312.268	373.049	0.002302	0	0.999998	0		$|
2735405	0	object/static/structure/general/streetlamp_large_style_02.iff	0	645.018	315	373.046	0.002302	0	0.999998	0		$|
2735406	0	object/static/structure/corellia/corl_imprv_column_s02.iff	0	702.088	315	378.837	0.707107	0	-0.707106	0		$|
2735407	0	object/static/structure/corellia/corl_imprv_column_s02.iff	0	697.039	312.268	401.02	0.002302	0	0.999998	0		$|
2735408	0	object/static/structure/general/streetlamp_large_style_02.iff	0	697.038	315	401.017	0.708722	0	0.705489	0		$|
2735409	0	object/static/structure/corellia/corl_imprv_column_s02.iff	0	658.006	312.268	438.077	0.002302	0	0.999998	0		$|
2735410	0	object/static/structure/general/streetlamp_large_style_02.iff	0	658.005	315	438.074	0.002302	0	0.999998	0		$|
2735411	0	object/static/structure/corellia/corl_imprv_column_s02.iff	0	705.025	312.268	449.008	0.002302	0	0.999998	0		$|
2735412	0	object/static/structure/general/streetlamp_large_style_02.iff	0	705.024	315	449.005	0.002302	0	0.999998	0		$|
2735413	0	object/static/structure/corellia/corl_imprv_column_s02.iff	0	717.984	312.268	417.022	0.002302	0	0.999998	0		$|
2735414	0	object/static/structure/general/streetlamp_large_style_02.iff	0	717.983	315	417.02	-0.705479	0	0.708733	0		$|
2735415	0	object/static/structure/corellia/corl_imprv_column_s01.iff	0	739.771	315	400.989	0.707111	0	-0.707102	0		$|
2735416	0	object/static/structure/corellia/corl_imprv_wall_4x16_s02.iff	0	739.819	315	375.262	0.707117	0	-0.707096	0		$|
2735417	0	object/static/structure/corellia/corl_imprv_column_s01.iff	0	739.792	315	383.853	0.707113	0	-0.7071	0		$|
2735418	0	object/static/installation/mockup_power_generator_photo_bio_style_1.iff	0	731.811	315	385.117	0.707108	0	-0.707106	0		$|
2735419	0	object/static/structure/general/tankfarm_s01.iff	0	736.91	315	385.647	0.707107	0	0.707106	0		$|
2735420	0	object/static/structure/general/tankfarm_s01.iff	0	735.651	315	395.864	0.707107	0	0.707107	0		$|
2735422	0	object/static/structure/general/streetlamp_large_style_02.iff	0	607.875	315	460.803	-0.382683	0	0.92388	0		$|
2735423	0	object/static/structure/general/streetlamp_large_style_02.iff	0	563.193	315.257	435.46	1	0	0	0		$|
2735424	0	object/static/structure/corellia/corl_imprv_column_s02.iff	0	563.202	312.268	435.45	1	0	0	0		$|
2735425	0	object/static/structure/general/streetlamp_large_style_02.iff	0	595.432	315	487.261	0.707107	0	0.707107	0		$|
2735426	0	object/static/structure/corellia/corl_imprv_column_s02.iff	0	595.44	312.268	487.251	1	0	0	0		$|
2735427	0	object/static/structure/general/streetlamp_large_style_02.iff	0	621.279	314.797	516.171	-0.707107	0	0.707107	0		$|
2735428	0	object/static/structure/corellia/corl_imprv_column_s02.iff	0	621.269	312.268	516.163	0.707108	0	0.707106	0		$|
2735429	0	object/static/structure/general/streetlamp_large_style_02.iff	0	596.07	314.977	549.863	0.707107	0	0.707107	0		$|
2735430	0	object/static/structure/corellia/corl_imprv_column_s02.iff	0	596.079	312.268	549.853	1	0	0	0		$|
2735431	0	object/static/structure/general/streetlamp_large_style_02.iff	0	595.207	315	598.898	0.707107	0	0.707107	0		$|
2735432	0	object/static/structure/corellia/corl_imprv_column_s02.iff	0	595.215	312.268	598.888	1	0	0	0		$|
2735433	0	object/static/structure/general/streetlamp_large_style_02.iff	0	547.022	315	557.019	0.707107	0	0.707107	0		$|
2735434	0	object/static/structure/corellia/corl_imprv_column_s02.iff	0	547.031	312.268	557.008	1	0	0	0		$|
2735435	0	object/static/structure/general/streetlamp_large_style_02.iff	0	547.007	315	581.016	0.707107	0	0.707107	0		$|
2735436	0	object/static/structure/corellia/corl_imprv_column_s02.iff	0	547.015	312.268	581.006	1	0	0	0		$|
2735437	0	object/static/structure/general/streetlamp_large_style_02.iff	0	626.104	315	626.114	0.707107	0	0.707107	0		$|
2735438	0	object/static/structure/corellia/corl_imprv_column_s02.iff	0	626.112	312.268	626.104	1	0	0	0		$|
2735439	0	object/static/structure/general/streetlamp_large_style_02.iff	0	653.92	314.998	652.007	-0.481793	0	0.876285	0		$|
2735440	0	object/static/structure/corellia/corl_imprv_column_s02.iff	0	653.928	312.268	651.997	0.876285	0	0.481793	0		$|
2735441	0	object/static/structure/general/streetlamp_large_style_02.iff	0	682.046	330	671.211	0.922843	0	0.385176	0		$|
2735443	0	object/static/structure/general/streetlamp_large_style_02.iff	0	719.739	330	661.766	0.329145	0	0.944279	0		$|
2735445	0	object/static/structure/general/streetlamp_large_style_02.iff	0	744.042	330	601.391	0.444305	0	0.895876	0		$|
2735447	0	object/static/structure/general/streetlamp_large_style_02.iff	0	737.723	330	559.56	0.770991	0	0.636846	0		$|
2735449	0	object/static/structure/general/streetlamp_large_style_02.iff	0	814.599	330	581.82	0.636844	0	0.770993	0		$|
2735450	0	object/static/structure/corellia/corl_imprv_column_s02.iff	0	814.609	326.837	581.828	0.770993	0	-0.636844	0		$|
2735451	0	object/static/structure/general/streetlamp_large_style_02.iff	0	712.587	314.368	533.054	0.999985	0	0.00539845	0		$|
2735452	0	object/static/structure/corellia/corl_imprv_column_s02.iff	0	712.598	311.72	533.05	0.710914	0	-0.703279	0		$|
2735453	0	object/static/structure/general/streetlamp_large_style_02.iff	0	643.049	314.994	527.025	1	0	0	0		$|
2735454	0	object/static/structure/corellia/corl_imprv_column_s02.iff	0	643.057	312.268	527.015	1	0	0	0		$|
2735455	0	object/tangible/furniture/elegant/end_table_s01.iff	0	701.281	330	670.193	0.552863	0	0.833272	0		$|
2735456	0	object/tangible/furniture/elegant/chair_s01.iff	0	703.498	330	670.691	0.777573	0	-0.628793	0		$|
2735457	0	object/static/structure/corellia/corl_fountain_brazier_round_s01.iff	0	690.387	330	686.449	0.990216	0	0.139543	0		$|
2735458	0	object/static/structure/corellia/corl_fountain_brazier_round_s01.iff	0	717.974	330	678.469	0.990216	0	0.139543	0		$|
2735459	0	object/tangible/furniture/elegant/chair_s01.iff	0	700.649	330	667.896	0.99875	0	-0.0499788	0		$|
2735460	0	object/tangible/furniture/elegant/chair_s01.iff	0	699.056	330	670.743	0.452176	0	0.891929	0		$|
2735461	0	object/tangible/furniture/elegant/chair_s01.iff	0	706.895	329.999	659.962	0.996524	0	-0.0833103	0		$|
2735462	0	object/tangible/furniture/elegant/end_table_s01.iff	0	705.702	330	662.305	-0.693111	0	0.720831	0		$|
2735463	0	object/tangible/furniture/elegant/chair_s01.iff	0	703.669	330	661.296	0.782832	0	0.622233	0		$|
2735464	0	object/tangible/furniture/elegant/chair_s01.iff	0	708.684	329.931	662.166	0.772259	0	-0.635308	0		$|
2735465	0	object/tangible/furniture/elegant/chair_s01.iff	0	704.915	330	664.58	0.265963	0	0.963983	0		$|
2735466	0	object/tangible/furniture/elegant/chair_s01.iff	0	722.52	330	666.641	0.996524	0	-0.08331	0		$|
2735467	0	object/tangible/furniture/elegant/end_table_s01.iff	0	721.327	330	668.984	-0.693111	0	0.720831	0		$|
2735468	0	object/tangible/furniture/elegant/chair_s01.iff	0	719.294	330	667.975	0.782832	0	0.622233	0		$|
2735469	0	object/tangible/furniture/elegant/chair_s01.iff	0	724.309	330	668.844	0.772259	0	-0.635308	0		$|
2735470	0	object/tangible/furniture/elegant/chair_s01.iff	0	720.54	330	671.259	0.265963	0	0.963983	0		$|
2735471	0	object/tangible/furniture/elegant/chair_s01.iff	0	688.947	330	668.909	0.992617	0	0.121294	0		$|
2735472	0	object/tangible/furniture/elegant/end_table_s01.iff	0	688.785	330	671.534	0.825335	0	-0.564643	0		$|
2735473	0	object/tangible/furniture/elegant/chair_s01.iff	0	686.519	330	671.419	0.639774	0	0.768563	0		$|
2735474	0	object/tangible/furniture/elegant/chair_s01.iff	0	691.465	330	670.216	0.885416	0	-0.464799	0		$|
2735475	0	object/tangible/furniture/elegant/chair_s01.iff	0	688.97	330	673.934	0.0641588	0	0.997939	0		$|
2735476	0	object/tangible/furniture/elegant/end_table_s01.iff	0	695.91	330	664.25	0.385543	0	0.92269	0		$|
2735477	0	object/tangible/furniture/elegant/chair_s01.iff	0	698.153	330	663.89	0.882333	0	-0.470626	0		$|
2735478	0	object/tangible/furniture/elegant/chair_s01.iff	0	694.471	329.973	662.35	0.990216	0	0.139543	0		$|
2735479	0	object/tangible/furniture/elegant/chair_s01.iff	0	694.046	330	665.586	0.27559	0	0.961276	0		$|
2735481	0	object/static/structure/corellia/corl_power_bubble_node.iff	0	731.862	330	708.21	0.989506	0	0.144492	0		$|
2735482	0	object/static/structure/corellia/corl_power_bubble_node.iff	0	734.199	330	716.286	0.989506	0	0.144492	0		$|
2735484	0	object/static/structure/corellia/corl_power_transformer_s02.iff	0	733.02	330	712.23	0.989506	0	0.144492	0		$|
2735485	0	object/static/structure/corellia/corl_power_connector.iff	0	729.186	333.716	713.361	0.989506	0	0.144492	0		$|
2735486	0	object/static/structure/corellia/corl_imprv_gate_sm_s01.iff	0	737.484	330	696.877	-0.137264	0	0.990534	0		$|
2735487	0	object/static/structure/corellia/corl_imprv_wall_4x16_s02.iff	0	726.547	327.524	700.126	0.989455	0	0.144839	0		$|
2735488	0	object/tangible/furniture/elegant/chair_s01.iff	0	731.769	330	684.209	0.265963	0	0.963983	0		$|
2735489	0	object/tangible/furniture/elegant/chair_s01.iff	0	730.523	330	680.925	0.782832	0	0.622233	0		$|
2735490	0	object/tangible/furniture/elegant/end_table_s01.iff	0	732.557	330	681.934	-0.693111	0	0.720831	0		$|
2735491	0	object/tangible/furniture/elegant/chair_s01.iff	0	735.539	330	681.794	0.772259	0	-0.635308	0		$|
2735492	0	object/tangible/furniture/elegant/chair_s01.iff	0	733.749	330	679.591	0.996524	0	-0.08331	0		$|
2735493	0	object/tangible/furniture/elegant/chair_s01.iff	0	677.784	330	709.611	0.96726	0	0.253786	0		$|
2735494	0	object/tangible/furniture/elegant/end_table_s01.iff	0	677.021	330	711.012	-0.343645	0	0.939099	0		$|
2735495	0	object/tangible/furniture/elegant/chair_s01.iff	0	675.429	330	711.652	0.879212	0	0.476431	0		$|
2735496	0	object/tangible/furniture/elegant/chair_s01.iff	0	683.929	330	707.34	0.998669	0	0.0515694	0		$|
2735497	0	object/tangible/furniture/elegant/end_table_s01.iff	0	682.672	330	708.321	-0.14528	0	0.98939	0		$|
2735498	0	object/tangible/furniture/elegant/chair_s01.iff	0	680.955	330	708.274	0.957788	0	0.287476	0		$|
2735499	0	object/tangible/furniture/elegant/chair_s01.iff	0	690.186	330	706.371	0.99413	0	-0.108196	0		$|
2735500	0	object/tangible/furniture/elegant/end_table_s01.iff	0	688.682	330	706.904	0.0142033	0	0.999899	0		$|
2735501	0	object/tangible/furniture/elegant/chair_s01.iff	0	687.068	330	706.321	0.991354	0	0.131211	0		$|
2735502	0	object/tangible/furniture/elegant/chair_s01.iff	0	686.268	330	703.336	0.999994	0	-0.00340814	0		$|
2735503	0	object/tangible/furniture/elegant/end_table_s01.iff	0	684.909	330	704.173	-0.0906714	0	0.99588	0		$|
2735504	0	object/tangible/furniture/elegant/chair_s01.iff	0	683.208	330	703.938	0.972143	0	0.23439	0		$|
2735505	0	object/tangible/furniture/elegant/chair_s01.iff	0	679.191	330	705.678	0.988532	0	0.151012	0		$|
2735506	0	object/tangible/furniture/elegant/end_table_s01.iff	0	678.153	330	706.887	-0.243328	0	0.969943	0		$|
2735507	0	object/tangible/furniture/elegant/chair_s01.iff	0	676.462	330	707.184	0.924303	0	0.381659	0		$|
2735524	0	object/tangible/terminal/terminal_mission.iff	0	778.434	330	576.846	0.774419	0	-0.632673	0		$|
2735525	0	object/tangible/terminal/terminal_bank.iff	0	778.066	330	575.185	0.771246	0	-0.636537	0		$|
2735526	0	object/tangible/terminal/terminal_mission.iff	0	771.658	330	542.563	0.774419	0	-0.632673	0		$|
2735527	0	object/tangible/terminal/terminal_bank.iff	0	771.898	330	544.98	0.771246	0	-0.636537	0		$|
2735528	0	object/static/flora/potted_plant_flowers_orange.iff	0	765.844	330.974	573.261	1	0	0	0		$|
2735529	0	object/static/flora/potted_plant_flowers_purple.iff	0	764.052	330	576.146	0.911039	0	-0.412321	0		$|
2735530	0	object/static/flora/potted_plant_flowers_orange.iff	0	762.992	330	572.86	1	0	0	0		$|
2735531	0	object/static/flora/potted_plant_flowers_orange.iff	0	767.107	330	576.064	1	0	0	0		$|
2735532	0	object/static/flora/potted_plant_flowers_orange.iff	0	761.619	331.005	551.698	0.707108	0	-0.707106	0		$|
2735533	0	object/static/flora/potted_plant_flowers_purple.iff	0	758.734	330	549.907	-0.352646	0	0.935757	0		$|
2735534	0	object/static/flora/potted_plant_flowers_orange.iff	0	762.02	330	548.846	0.707108	0	-0.707106	0		$|
2735535	0	object/static/flora/potted_plant_flowers_orange.iff	0	758.815	330	552.961	0.707108	0	-0.707106	0		$|
2735536	0	object/static/flora/potted_plant_flowers_orange.iff	0	744.372	330	553.868	1	0	0	0		$|
2735537	0	object/static/flora/potted_plant_flowers_orange.iff	0	740.978	330	559.777	1	0	0	0		$|
2735538	0	object/static/flora/potted_plant_flowers_purple.iff	0	768.377	330	537.491	1	0	0	0		$|
2735539	0	object/static/flora/potted_plant_flowers_purple.iff	0	767.669	330	534.792	1	0	0	0		$|
2735540	0	object/static/flora/potted_plant_flowers_purple.iff	0	767.128	330	532.219	1	0	0	0		$|
2735541	0	object/static/flora/potted_plant_flowers_purple.iff	0	766.661	330	534.777	1	0	0	0		$|
2735542	0	object/static/flora/potted_plant_flowers_purple.iff	0	778.151	330	586.053	1	0	0	0		$|
2735543	0	object/static/flora/potted_plant_flowers_purple.iff	0	777.61	330	583.48	1	0	0	0		$|
2735544	0	object/static/flora/potted_plant_flowers_purple.iff	0	778.859	330	588.752	1	0	0	0		$|
2735545	0	object/static/flora/potted_plant_flowers_orange.iff	0	746.33	330	600.917	1	0	0	0		$|
2735546	0	object/static/flora/potted_plant_flowers_orange.iff	0	752.088	330	604.442	1	0	0	0		$|
2735548	0	object/static/flora/potted_plant_flowers_purple.iff	0	788.288	330	602.474	1	0	0	0		$|
2735549	0	object/static/flora/potted_plant_flowers_purple.iff	0	789.832	330	609.212	1	0	0	0		$|
2735553	0	object/static/flora/potted_plant_flowers_purple.iff	0	702.609	315	576.363	0.707107	0	-0.707106	0		$|
2735554	0	object/static/flora/potted_plant_flowers_purple.iff	0	702.609	315	584.363	0.707107	0	-0.707106	0		$|
2735559	0	object/static/flora/potted_plant_flowers_purple.iff	0	669.603	315	391.878	0.707107	0	0.707107	0		$|
2735560	0	object/static/flora/potted_plant_flowers_purple.iff	0	669.603	315	383.878	0.707107	0	0.707107	0		$|
2735561	0	object/static/flora/potted_plant_flowers_purple.iff	0	671.625	315	344.447	0.707107	0	0.707107	0		$|
2735562	0	object/static/flora/potted_plant_flowers_purple.iff	0	671.625	315	352.446	0.707107	0	0.707107	0		$|
2735581	0	object/static/flora/potted_plant_flowers_purple.iff	0	660.029	315	341.532	-2.63027e-007	0	1	0		$|
2735582	0	object/static/flora/potted_plant_flowers_purple.iff	0	668.028	315	341.533	-2.63027e-007	0	1	0		$|
2735584	0	object/static/flora/potted_plant_flowers_purple.iff	0	643.007	315	341.594	0	0	1	0		$|
2735585	0	object/static/flora/potted_plant_flowers_purple.iff	0	651.006	315	341.595	0	0	1	0		$|
2735587	0	object/static/flora/potted_plant_flowers_purple.iff	0	617.887	315	324.932	1	0	0	0		$|
2735588	0	object/static/flora/potted_plant_flowers_purple.iff	0	611.974	315	325.02	1	0	0	0		$|
2735589	0	object/static/flora/potted_plant_flowers_orange.iff	0	609.731	315	323.183	0.965092	0	-0.261909	0		$|
2735592	0	object/static/structure/corellia/corl_imprv_wall_4x16_s01.iff	0	557.985	327.944	277.913	1	0	0	0		$|
2735594	0	object/static/structure/corellia/corl_imprv_column_s02.iff	0	550.565	330.118	277.928	1	0	0	0		$|
2735595	0	object/static/structure/corellia/corl_imprv_wall_4x16_s01.iff	0	583.577	328.216	277.891	1	0	0	0		$|
2735596	0	object/static/structure/corellia/corl_imprv_wall_4x16_s01.iff	0	583.625	323.312	278.234	1	0	0	0		$|
2735597	0	object/static/structure/corellia/corl_imprv_wall_4x16_s01.iff	0	583.59	323.634	277.588	1	0	0	0		$|
2735598	0	object/static/structure/corellia/corl_imprv_column_s02.iff	0	591.569	328.387	277.891	1	0	0	0		$|
2735599	0	object/static/structure/general/streetlamp_large_style_02.iff	0	561.404	315	317.258	0.999997	0	-0.00230197	0		$|
2735600	0	object/static/structure/corellia/corl_imprv_column_s02.iff	0	561.407	312.268	317.257	-0.705479	0	0.708733	0		$|
2775404	0	object/static/flora/potted_plant_flowers_purple.iff	0	532.398	330	239.79	3.20013e-008	0	1	0		$|
2775405	0	object/static/flora/potted_plant_flowers_purple.iff	0	526.484	330	239.877	3.20013e-008	0	1	0		$|
2775407	0	object/static/flora/potted_plant_flowers_purple.iff	0	490.864	330	197.922	1	0	0	0		$|
2775408	0	object/static/flora/potted_plant_flowers_purple.iff	0	484.951	330	198.01	1	0	0	0		$|
2775422	0	object/static/flora/potted_plant_flowers_purple.iff	0	489.746	330	205.716	-0.0299955	0	0.99955	0		$|
2775423	0	object/static/flora/potted_plant_flowers_purple.iff	0	478.452	330	206.467	-0.029996	0	0.99955	0		$|
2775425	0	object/static/flora/potted_plant_flowers_orange.iff	0	483.96	330	206.079	1	0	0	0		$|
2775479	0	object/static/flora/potted_plant_flowers_purple.iff	0	498.482	330	258.81	0.707108	0	0.707106	0		$|
2775480	0	object/static/flora/potted_plant_flowers_purple.iff	0	498.512	329.965	263.945	0.706966	-0.0141412	0.706964	-0.0141412		$|
2775482	0	object/tangible/furniture/elegant/end_table_s01.iff	0	572.867	330	170.992	0.924909	0	0.380188	0		$|
2775483	0	object/tangible/furniture/elegant/chair_s01.iff	0	571.833	330	173.594	0.228753	0	0.973485	0		$|
2775484	0	object/tangible/furniture/elegant/chair_s01.iff	0	570.006	330	169.403	0.875174	0	0.483808	0		$|
2775485	0	object/tangible/furniture/elegant/chair_s01.iff	0	575.062	330.053	170.853	0.786917	0	-0.617059	0		$|
2775486	0	object/tangible/furniture/elegant/chair_s01.iff	0	572.958	330.072	168.137	0.996802	0	-0.0799146	0		$|
2775487	0	object/tangible/furniture/elegant/chair_s01.iff	0	554.895	330	174.063	0.808026	0	0.589146	0		$|
2775488	0	object/tangible/furniture/elegant/end_table_s01.iff	0	557.552	330	174.316	0.998988	0	0.0449848	0		$|
2775489	0	object/tangible/furniture/elegant/chair_s01.iff	0	557.188	330	171.835	0.998488	0	0.0549733	0		$|
2775490	0	object/tangible/furniture/elegant/chair_s01.iff	0	558.089	330	176.819	-0.0157963	0	0.999875	0		$|
2775491	0	object/tangible/furniture/elegant/chair_s01.iff	0	560.607	330	174.154	-0.703846	0	0.710353	0		$|
2775497	0	object/tangible/furniture/elegant/chair_s01.iff	0	582.344	330	178.544	0.816775	0	-0.576957	0		$|
2775498	0	object/tangible/furniture/elegant/end_table_s01.iff	0	580.182	330	180.255	-0.362358	0	0.932039	0		$|
2775499	0	object/tangible/furniture/elegant/chair_s01.iff	0	581.979	330	182.008	-0.37166	0	0.928369	0		$|
2775500	0	object/tangible/furniture/elegant/chair_s01.iff	0	578.069	330	178.417	0.904072	0	0.42738	0		$|
2775501	0	object/tangible/furniture/elegant/chair_s01.iff	0	577.849	330	182.234	0.447711	0	0.894179	0		$|
2775502	0	object/static/structure/corellia/corl_fountain_statue_heroic_s01.iff	0	587.218	330	242.108	-9.17085e-007	0	1	0		$|
3375352	0	object/building/corellia/cantina_corellia.iff	0	574.947	315	386.505	0.707109	0	-0.707105	0		$|
3375353	3375352	object/cell/cell.iff	1	0	0	0	1	1.401298E-45	0	0		$|
4545900	3375353	object/tangible/furniture/tatooine/frn_tatt_chair_cantina_seat_2.iff	1	43.4291	0.104999	3.580446	3.200127E-08	0	1	0		$|
4545901	3375353	object/tangible/furniture/tatooine/frn_tatt_chair_cantina_seat_2.iff	1	39.64612	0.104999	3.716401	3.200127E-08	0	1	0		$|
4545902	3375353	object/tangible/furniture/tatooine/frn_tatt_chair_cantina_seat_2.iff	1	47.08579	0.104999	3.611757	3.200127E-08	0	1	0		$|
4545904	3375353	object/tangible/furniture/all/frn_all_potted_plants_sml_s05.iff	1	48.39413	0.101853	-1.747523	1	0	0	0		$|
4545905	3375353	object/tangible/furniture/tatooine/frn_tatt_chair_cantina_seat.iff	1	37.57731	0.104999	-1.814583	0.9971888	0	0.07492964	0		$|
4545906	3375353	object/tangible/furniture/tatooine/frn_tatt_chair_cantina_seat.iff	1	37.94137	0.104999	0.4724117	-0.0499791	0	0.9987503	0		$|
4545910	3375353	object/tangible/furniture/tatooine/frn_tatt_table_cantina_table_3.iff	1	37.96989	0.104999	-0.625822	1	0	0	0		$|
3375354	3375352	object/cell/cell.iff	2	0	0	0	1	2.802597E-45	0	0		$|
4545897	3375354	object/tangible/furniture/tatooine/frn_tatt_chair_cantina_seat_2.iff	2	36.1505	0.105	1.75013	0.707107	0	-0.7071065	0		$|
4545898	3375354	object/tangible/furniture/tatooine/frn_tatt_chair_cantina_seat_2.iff	2	34.92729	0.105	3.406567	-0.1790295	0	0.9838437	0		$|
4545899	3375354	object/tangible/furniture/tatooine/frn_tatt_chair_cantina_seat_2.iff	2	35.12223	0.105	-0.0212243	0.9725148	0	-0.232841	0		$|
3375355	3375352	object/cell/cell.iff	3	0	0	0	1	4.203895E-45	0	0		$|
8105412	3375355	object/soundobject/soundobject_cantina_medium.iff	3	24.9301	-0.894995	1.966449	1	0	0	0		$|
8105415	3375355	object/soundobject/soundobject_cantina_medium.iff	3	-0.309104	-0.894992	2.930744	1	0	0	0		$|
3375356	3375352	object/cell/cell.iff	4	0	0	0	1	5.605194E-45	0	0		$|
8105417	3375356	object/soundobject/soundobject_cantina_small.iff	4	21.09398	-0.894996	-17.66164	1	0	0	0		$|
3375357	3375352	object/cell/cell.iff	5	0	0	0	1	7.006492E-45	0	0		$|
8105419	3375357	object/soundobject/soundobject_cantina_small.iff	5	17.87824	-0.894992	19.70422	1	0	0	0		$|
3375358	3375352	object/cell/cell.iff	6	0	0	0	1	8.407791E-45	0	0		$|
8105414	3375358	object/soundobject/soundobject_cantina_small.iff	6	7.208721	-0.894992	-17.2274	1	0	0	0		$|
3375359	3375352	object/cell/cell.iff	7	0	0	0	1	9.809089E-45	0	0		$|
8105413	3375359	object/soundobject/soundobject_cantina_medium.iff	7	5.596884	-0.894992	17.86116	1	0	0	0		$|
3375360	3375352	object/cell/cell.iff	8	0	0	0	1	1.121039E-44	0	0		$|
8105418	3375360	object/soundobject/soundobject_cantina_small.iff	8	-9.024961	-0.89494	-19.0979	1	0	0	0		$|
3375361	3375352	object/cell/cell.iff	9	0	0	0	1	1.261169E-44	0	0		$|
3375362	3375352	object/cell/cell.iff	10	0	0	0	1	1.401298E-44	0	0		$|
4545885	3375362	object/static/item/item_container_energy_liquid.iff	10	-21.0348	-0.894988	-9.207481	1	0	0	0		$|
4545886	3375362	object/static/item/item_container_energy_liquid.iff	10	-21.33029	-0.894988	-8.950153	1	0	0	0		$|
4545887	3375362	object/static/item/item_container_energy_liquid.iff	10	-20.97032	-0.894988	-9.538957	1	0	0	0		$|
4545889	3375362	object/static/item/item_container_organic_food.iff	10	-20.16158	-0.894989	-9.454639	1	0	0	0		$|
4545890	3375362	object/static/item/item_container_organic_food.iff	10	-19.76592	-0.894989	-9.524423	1	0	0	0		$|
4545891	3375362	object/static/item/item_basket_closed.iff	10	-21.24402	-0.894988	10.2494	1	0	0	0		$|
4545892	3375362	object/static/item/item_basket_closed.iff	10	-20.19985	-0.894988	10.05031	1	0	0	0		$|
4545893	3375362	object/static/item/item_bottle_fat.iff	10	-21.11054	-0.894988	9.520884	1	0	0	0		$|
4545894	3375362	object/static/item/item_bottle_pear.iff	10	-20.81581	-0.894988	9.630177	1	0	0	0		$|
4545895	3375362	object/static/item/item_bottle_tall.iff	10	-20.82002	-0.894988	9.274635	1	0	0	0		$|
3375363	3375352	object/cell/cell.iff	11	0	0	0	1	1.541428E-44	0	0		$|
4545818	3375363	object/tangible/crafting/station/food_station.iff	11	-29.07264	-0.894981	0.402178	0.7073851	0	0.7068289	0		$|
4545819	4545818	object/tangible/hopper/crafting_station_ingredient_hopper_1.iff	11	0	0	0	1	0	0	0		$|
4545820	3375363	object/tangible/furniture/modern/chest_modern_style_01.iff	11	-28.31189	2.395183	-3.422042	0	0	0.707107	0		$|
4545821	3375363	object/tangible/furniture/modern/chest_modern_style_01.iff	11	-26.56336	2.395185	-3.421554	0	0	0.707107	0		$|
4545822	3375363	object/tangible/furniture/modern/chest_modern_style_01.iff	11	-24.83045	2.395185	-3.424972	0	0	0.707107	0		$|
4545823	3375363	object/tangible/furniture/modern/chest_modern_style_01.iff	11	-23.31189	2.395186	-3.433272	0	0	0.707107	0		$|
4545824	3375363	object/tangible/furniture/modern/chest_modern_style_01.iff	11	-23.21131	2.362164	4.179521	-0.7071069	0	0	0.707107		$|
4545825	3375363	object/tangible/furniture/modern/chest_modern_style_01.iff	11	-24.95984	2.362165	4.179032	-0.7071069	0	0	0.707107		$|
4545826	3375363	object/tangible/furniture/modern/chest_modern_style_01.iff	11	-26.69275	2.362165	4.18245	-0.7071069	0	0	0.707107		$|
4545827	3375363	object/tangible/furniture/modern/chest_modern_style_01.iff	11	-28.2118	2.362165	4.190751	0.7071119	0	0	-0.7071011		$|
4545828	3375363	object/tangible/furniture/modern/coffee_table_modern_style_01.iff	11	-28.11463	-0.894983	-2.495285	1	0	0	0		$|
4545829	3375363	object/tangible/furniture/modern/coffee_table_modern_style_01.iff	11	-24.23523	-0.894983	-2.508468	1	0	0	0		$|
4545830	3375363	object/tangible/furniture/modern/coffee_table_modern_style_01.iff	11	-24.26502	-0.894981	3.255693	1	0	0	0		$|
4545831	3375363	object/tangible/furniture/modern/coffee_table_modern_style_01.iff	11	-28.14441	-0.894981	3.268876	1	0	0	0		$|
4545832	3375363	object/static/item/item_glass_bluemilk.iff	11	-24.99598	-0.894981	3.107743	0.8309403	0	0.5563616	0		$|
4545833	3375363	object/static/item/item_basket_shallow.iff	11	-24.21863	-0.894983	-2.467453	1	0	0	0		$|
4545834	3375363	object/static/item/item_kitchen_cook_set_lg_s1.iff	11	-27.03601	-0.104412	-2.495772	1	0	0	0		$|
4545835	3375363	object/static/item/item_jar_guts.iff	11	-25.15467	2.741638	3.509598	0.9267984	0	0.3755592	0		$|
4545836	3375363	object/static/item/item_con_ration_kit_m.iff	11	-27.87732	-0.104413	-2.233078	1	0	0	0		$|
4545837	3375363	object/static/item/item_fruit_melon.iff	11	-27.45496	-0.086069	3.068681	0.227274	0	0.869034	0.111191		$|
4545838	3375363	object/static/item/item_bowl_plain.iff	11	-27.78308	-0.136035	3.056474	0.2530159	0	0.967462	0		$|
4545839	3375363	object/static/item/item_con_plate_s1_full.iff	11	-29.52381	0.053702	1.42708	1	0	0	0		$|
4545840	3375363	object/static/item/item_kitchen_pot_style_03.iff	11	-29.08289	-0.104412	3.089189	1	0	0	0		$|
4545841	3375363	object/static/item/item_con_bowl_serving_full.iff	11	-26.77723	-0.104412	3.045243	0.8196474	0	-0.5728684	0		$|
4545842	3375363	object/static/item/item_jar_berries.iff	11	-24.73279	2.741638	3.785478	0.9267984	0	0.3755592	0		$|
4545843	3375363	object/static/item/item_con_bowl_serving_full.iff	11	-26.75574	-0.104412	3.331376	0.390152	0	0.920751	0		$|
4545844	3375363	object/static/item/item_con_plate_s1_full.iff	11	-28.7157	0.053702	0.1126268	1	0	0	0		$|
4545845	3375363	object/static/item/item_glass_empty.iff	11	-25.76746	-0.136035	3.118486	1	0	0	0		$|
4545846	3375363	object/static/item/item_bread_loaf.iff	11	-24.17517	-0.83174	-2.694503	1	0	0	0		$|
4545847	3375363	object/static/item/item_con_bowl_serving_full.iff	11	-27.00721	-0.104412	3.220536	1	0	0	0		$|
4545848	3375363	object/static/item/item_bottle_tall.iff	11	-24.09461	-0.128915	3.607255	0.7071069	0	0.707107	0		$|
4545849	3375363	object/static/item/item_bottle_fat.iff	11	-24.38416	-0.128916	3.292314	0.7071069	0	0.707107	0		$|
4545850	3375363	object/static/item/item_bottle_tall.iff	11	-24.40467	-0.128916	3.606277	0.7071069	0	0.707107	0		$|
4545851	3375363	object/static/item/item_cheese_wheel_s1_partial.iff	11	-27.86609	-0.114275	3.050126	0.7868947	0	0.5920162	0.1391301		$|
4545852	3375363	object/static/item/item_cheese_wheel_s1_partial.iff	11	-27.76892	-0.041166	2.942704	0.2530159	0	0.967462	0		$|
4545853	3375363	object/static/item/item_con_tato_bowl_full_s01.iff	11	-25.45398	-0.104413	-2.300461	0.710913	0	-0.70328	0		$|
4545854	3375363	object/static/item/item_bottle_tall.iff	11	-23.48767	-0.128915	3.68782	0.7071069	0	0.707107	0		$|
4545855	3375363	object/static/item/item_bottle_tall.iff	11	-24.8949	-0.128917	3.669267	0.7071069	0	0.707107	0		$|
4545856	3375363	object/static/item/item_bottle_fat.iff	11	-24.03601	-0.128915	3.283525	0.7071069	0	0.707107	0		$|
4545857	3375363	object/static/item/item_jar_berries.iff	11	-25.27771	2.741638	3.769364	0.9267984	0	0.3755592	0		$|
4545858	3375363	object/static/item/item_con_ration_kit_m.iff	11	-28.53553	-0.104412	-2.123702	1	0	0	0		$|
4545859	3375363	object/static/item/item_con_ration_kit_lg.iff	11	-28.39295	-0.104412	-2.498214	1	0	0	0		$|
4545860	3375363	object/static/item/item_jar_funk.iff	11	-24.84705	2.741638	3.511551	0.9267984	0	0.3755592	0		$|
4545861	3375363	object/static/item/item_bottle_pear.iff	11	-24.67176	-0.128916	3.445146	0.7071069	0	0.707107	0		$|
4545862	3375363	object/static/item/item_fruit_melon.iff	11	-27.51697	-0.136035	2.832841	0.2530159	0	0.967462	0		$|
4545863	3375363	object/static/item/item_kitchen_pot_style_02.iff	11	-29.05603	-0.104412	3.413406	1	0	0	0		$|
4545864	3375363	object/static/item/item_jar_bugs.iff	11	-25.06971	2.741638	3.760087	0.9267984	0	0.3755592	0		$|
4545865	3375363	object/static/item/item_kitchen_pot_style_01.iff	11	-29.30408	-0.104412	3.286943	1	0	0	0		$|
4545866	3375363	object/static/item/item_bottle_pear.iff	11	-23.71717	-0.128915	3.41243	0.7071069	0	0.707107	0		$|
4545867	3375363	object/static/item/item_bread_loaf.iff	11	-24.31629	-0.831739	-2.526046	1	0	0	0		$|
4545868	3375363	object/static/item/item_bread_loaf.iff	11	-24.09656	-0.83174	-2.4113	1	0	0	0		$|
4545869	3375363	object/static/item/item_bread_loaf.iff	11	-24.31873	-0.831739	-2.274094	1	0	0	0		$|
4545870	3375363	object/static/item/item_cheese_wheel_s1_partial.iff	11	-27.74646	-0.091902	3.075028	0.1974809	0	0.934912	0.2508189		$|
4545871	3375363	object/static/item/item_con_tato_bowl_full_s02.iff	11	-24.89637	-0.104414	-2.585128	0.710913	0	-0.70328	0		$|
4545876	3375363	object/static/item/item_glass_empty.iff	11	-25.55799	-0.136035	3.31331	1	0	0	0		$|
4545877	3375363	object/static/item/item_glass_empty.iff	11	-25.40906	-0.136035	2.92415	1	0	0	0		$|
4545878	3375363	object/static/item/item_glass_empty.iff	11	-25.31385	-0.136035	3.155107	1	0	0	0		$|
4545879	3375363	object/static/item/item_glass_empty.iff	11	-25.65418	-0.136035	2.962724	1	0	0	0		$|
4545880	3375363	object/static/item/item_glass_empty.iff	11	-25.56141	-0.136035	3.089677	1	0	0	0		$|
4545881	3375363	object/static/item/item_glass_bluemilk.iff	11	-24.82654	-0.894981	3.172196	0.8309403	0	0.5563616	0		$|
4545882	3375363	object/static/item/item_glass_bluemilk.iff	11	-24.93982	-0.894981	2.978837	0.8309403	0	0.5563616	0		$|
4545883	3375363	object/static/item/item_glass_bluemilk.iff	11	-25.15271	-0.894981	3.022294	0.8309403	0	0.5563616	0		$|
4545884	3375363	object/static/item/item_con_plate_s1_full.iff	11	-29.2533	0.243439	1.959794	1	0	0	0		$|
3375364	3375352	object/cell/cell.iff	12	0	0	0	1	1.681558E-44	0	0		$|
4545798	3375364	object/static/structure/general/streetlamp_medium_green_style_02.iff	12	-30.82948	3.014865	25.63183	0.2915547	0	0.6442017	0.2915547		$|
4545801	3375364	object/static/item/item_music_microphone_s2.iff	12	-29.31511	-0.894991	20.11862	1	0	0	0		$|
4545802	3375364	object/static/item/item_music_red_ball_jet_organ.iff	12	-25.61647	-0.894991	24.61138	0.1669141	0	0.9859715	0		$|
4545803	3375364	object/static/item/item_speaker.iff	12	-32.01527	-0.894991	17.85836	0.7071066	0	0.7071068	0		$|
4545808	3375364	object/tangible/furniture/all/frn_all_couch_lg_s2.iff	12	-16.47946	-0.894988	21.90406	0.707107	0	-0.7071065	0		$|
4545811	3375364	object/tangible/furniture/all/frn_all_couch_lg_s2.iff	12	-17.35711	-0.894988	24.04123	-0.3826853	0	0.9238788	0		$|
4545812	3375364	object/tangible/furniture/all/frn_all_couch_lg_s2.iff	12	-17.40398	-0.894989	19.75772	0.9238809	0	-0.3826801	0		$|
4545814	3375364	object/tangible/furniture/modern/coffee_table_modern_style_02.iff	12	-17.5112	-0.894988	21.95289	0.7002848	0	0.7138636	0		$|
4545815	3375364	object/tangible/furniture/all/frn_all_potted_plants_sml_s04.iff	12	-17.02653	-0.894988	26.14523	1	0	0	0		$|
4545816	3375364	object/soundobject/soundobject_cantina_small.iff	12	-26.15869	-0.894991	21.07736	1	0	0	0		$|
4545817	3375364	object/tangible/furniture/all/frn_all_decorative_lg_s2.iff	12	-21.37749	-0.894992	12.46069	0.9582438	0	0.2859523	0		$|
3375365	3375352	object/cell/cell.iff	13	0	0	0	1	1.821688E-44	0	0		$|
4545757	3375365	object/tangible/furniture/modern/bar_counter_s1.iff	13	-23.35951	-0.519991	9.201255	0.707108	0	-0.7071055	0		$|
4545758	3375365	object/tangible/furniture/modern/couch_modern_style_01.iff	13	-31.00915	-0.519991	6.553338	0.9393728	0	0.3428977	0		$|
4545759	3375365	object/tangible/furniture/modern/couch_modern_style_01.iff	13	-31.20965	-0.519991	10.12627	0.4217714	0	0.9067021	0		$|
4545760	3375365	object/tangible/furniture/modern/bar_counter_s1.iff	13	-23.34104	-0.519991	6.666558	0.7071046	0	0.7071089	0		$|
4545761	3375365	object/tangible/furniture/modern/couch_modern_style_01.iff	13	-27.47595	-0.519991	7.079244	0.906702	0	-0.4217719	0		$|
4545763	3375365	object/tangible/furniture/modern/coffee_table_modern_style_02.iff	13	-29.60291	-0.519991	8.447748	-0.4130462	0	0.9107102	0		$|
4545766	3375365	object/tangible/furniture/all/frn_all_potted_plants_sml_s05.iff	13	-26.63709	-0.519991	5.923124	1	0	0	0		$|
4545768	3375365	object/tangible/furniture/all/frn_all_decorative_lg_s2.iff	13	-32.23339	-0.519991	14.40119	0.4491344	0	0.8934641	0		$|
4545769	3375365	object/static/item/item_basket_frame.iff	13	-23.51921	-0.519991	11.40421	1	0	0	0		$|
4545770	3375365	object/static/item/item_basket_shallow.iff	13	-23.56369	0.1124644	11.42211	1	0	0	0		$|
4545771	3375365	object/static/item/item_bottle_fat.iff	13	-23.09956	0.6184287	5.798	1	0	0	0		$|
4545772	3375365	object/static/item/item_bottle_pear.iff	13	-23.32997	0.6184287	5.682101	1	0	0	0		$|
4545773	3375365	object/static/item/item_bottle_tall.iff	13	-23.33725	0.6184287	5.988809	1	0	0	0		$|
4545775	3375365	object/static/item/item_bowl_carved.iff	13	-23.36392	0.6500515	6.519969	1	0	0	0		$|
4545776	3375365	object/static/item/item_bread_loaf.iff	13	-23.22225	0.7449199	6.539511	1	0	0	0		$|
4545777	3375365	object/static/item/item_bread_loaf.iff	13	-23.40658	0.7652378	6.448288	0.9130889	0	0	-0.4077604		$|
4545778	3375365	object/static/item/item_bread_loaf.iff	13	-23.43651	0.7449199	6.61094	1	0	0	0		$|
4545779	3375365	object/static/item/item_con_bowl_serving_full.iff	13	-23.60024	0.6184288	7.720366	1	0	0	0		$|
4545781	3375365	object/static/item/item_con_ration_kit_lg.iff	13	-23.18442	0.6184287	7.57317	1	0	0	0		$|
4545782	3375365	object/static/item/item_con_ration_kit_lg.iff	13	-23.47267	0.6184287	7.282974	-0.514819	0	0.857299	0		$|
4545783	3375365	object/static/item/item_con_tato_cup_s3.iff	13	-23.41805	-0.1405178	10.22797	1	0	0	0		$|
4545784	3375365	object/static/item/item_con_tato_cup_s3.iff	13	-23.33535	-0.1405178	10.10659	1	0	0	0		$|
4545785	3375365	object/static/item/item_con_tato_cup_s3.iff	13	-23.54011	-0.1405178	10.04572	1	0	0	0		$|
4545786	3375365	object/static/item/item_con_plate_s1_full.iff	13	-23.39365	0.6500515	9.561323	1	0	0	0		$|
4545787	3375365	object/static/item/item_bottle_tall.iff	13	-23.15101	0.6184288	8.851162	1	0	0	0		$|
4545788	3375365	object/static/item/item_bottle_tall.iff	13	-23.13051	0.6184288	8.509887	1	0	0	0		$|
4545789	3375365	object/static/item/item_bottle_pear.iff	13	-23.39754	0.6184288	8.670433	1	0	0	0		$|
4545793	3375365	object/static/item/item_painting_corellia_style_02.iff	13	-30.16639	0.4171979	14.95219	0.7071078	0	-0.7071057	0		$|
4545797	3375365	object/static/structure/general/streetlamp_medium_blue_style_01.iff	13	-27.44396	7.086977	10.10055	3.1219E-08	0	0	1		$|
4612695	3375365	object/tangible/collection/rare_heavy_corellian_destroyer.iff	13	-23.76932	-0.2453802	8.59674	0.08610218	0	0.7018451	0.0983379		$|
3375366	3375352	object/cell/cell.iff	14	0	0	0	1	1.961818E-44	0	0		$|
525454241	3375366	object/tangible/collection/hanging_light_02_02.iff	14	-33.77066	4.292605	-22.9507	1	0	0	0		$|
3375367	3375352	object/cell/cell.iff	15	0	0	0	1	2.101948E-44	0	0		$|
3375372	0	object/building/corellia/hospital_corellia_s02.iff	0	569.248	330	202.187	1	0	0	0		$|
3375373	3375372	object/cell/cell.iff	1	0	0	0	1	1.401298E-45	0	0		$|
3375374	3375372	object/cell/cell.iff	2	0	0	0	1	2.802597E-45	0	0		$|
8105466	3375374	object/soundobject/soundobject_city_crowd_medium.iff	2	-0.009952	0.184067	0.230322	1	0	0	0		$|
3375375	3375372	object/cell/cell.iff	3	0	0	0	1	4.203895E-45	0	0		$|
3375376	0	object/tangible/furniture/elegant/end_table_s01.iff	3	581.253	330	233.808	0.935897	0	-0.352275	0		$|
3375377	0	object/tangible/furniture/elegant/chair_s01.iff	0	578.956	330	233.417	0.830939	0	0.556363	0		$|
3375378	0	object/tangible/furniture/elegant/chair_s01.iff	0	581.553	330	236.035	-0.155167	0	0.987888	0		$|
3375379	0	object/tangible/furniture/elegant/chair_s01.iff	0	583.498	330	233.921	-0.674875	0	0.737932	0		$|
3375380	0	object/tangible/furniture/elegant/chair_s01.iff	0	581.945	330	231.693	0.970137	0	-0.242556	0		$|
3375381	0	object/tangible/furniture/elegant/chair_s01.iff	0	578.463	330	248.623	0.81295	0	0.582333	0		$|
3375382	0	object/tangible/furniture/elegant/chair_s01.iff	0	580.561	330	246.968	0.999058	0	-0.0433936	0		$|
3375383	0	object/tangible/furniture/elegant/chair_s01.iff	0	582.222	330	249.774	-0.453597	0	0.891207	0		$|
3375384	0	object/tangible/furniture/elegant/end_table_s01.iff	0	580.356	330	249.142	0.113955	0	0.993486	0		$|
3375385	0	object/tangible/furniture/elegant/chair_s01.iff	0	580.056	330	251.385	0.104015	0	0.994576	0		$|
3555580	0	object/static/item/item_tank_gas.iff	0	610.799	315	366.865	0.921061	0	-0.389417	0		$|
3555581	0	object/static/item/item_tool_turbine_generator.iff	0	609.693	315	364.619	0.921061	0	-0.389417	0		$|
3555582	0	object/static/item/item_comp_blaster_cannon.iff	0	609.393	315	363.265	0.522008	0	0.85294	0		$|
3555583	0	object/static/structure/general/debris_deathstar_small_tube.iff	0	610.313	315	368.951	0.997551	0	0.0699425	0		$|
3555584	0	object/static/structure/general/debris_deathstar_small_chunk.iff	0	610.607	315	362.352	0.921061	0	-0.389417	0		$|
3555585	0	object/static/structure/general/debris_deathstar_small_tube.iff	0	610.719	315	368.042	-0.380925	0	0.924606	0		$|
3555586	0	object/static/structure/general/droid_r2_powerdown.iff	0	609.658	315	366.485	0.324797	0	0.945784	0		$|
3555588	0	object/static/structure/general/debris_deathstar_small_tube.iff	0	611.603	315	369.426	-0.685869	0	0.727726	0		$|
3555589	0	object/static/structure/general/debris_deathstar_small_tube.iff	0	612.009	315	368.516	0.572211	0	0.820107	0		$|
3555590	0	object/static/structure/corellia/corl_tent_med.iff	0	611.875	315	365.661	1	0	0	0		$|
3695413	0	object/tangible/crafting/station/public_weapon_station.iff	0	613.058	314.996	484.479	0.707107	0	-0.707106	0		$|
3695414	0	object/static/item/item_container_inorganic_minerals.iff	0	613.432	314.99	490.929	1	0	0	0		$|
3695415	0	object/static/item/item_container_organic_structure.iff	0	612.349	314.988	491.613	0.976976	0	0.213347	0		$|
3695416	0	object/static/item/item_container_organic_structure.iff	0	612.201	314.991	490.688	1	0	0	0		$|
3695418	0	object/static/structure/corellia/corl_imprv_column_s02.iff	0	609.876	312.345	498.353	0.707108	0	-0.707106	0		$|
3695419	0	object/static/structure/general/streetlamp_large_style_02.iff	0	609.868	315.077	498.363	0.707107	0	0.707107	0		$|
3695425	0	object/static/structure/corellia/corl_imprv_wall_4x16_s03.iff	0	602.039	313.247	418.607	0.707108	0	0.707106	0		$|
3695426	0	object/static/structure/corellia/corl_imprv_wall_4x16_s03.iff	0	590.155	313.077	430.469	-3.48103e-007	0	1	0		$|
3695427	0	object/static/structure/corellia/corl_imprv_column_s02.iff	0	602.03	312.459	426.53	0.92388	0	0.382682	0		$|
3695428	0	object/static/structure/corellia/corl_imprv_column_s02.iff	0	597.836	312.43	430.457	-0.382684	0	0.92388	0		$|
3695429	0	object/tangible/furniture/all/frn_all_tiki_torch_s1.iff	0	602.039	315.999	426.529	0.707107	0	0.707107	0		$|
3695430	0	object/tangible/furniture/all/frn_all_tiki_torch_s1.iff	0	597.835	315.964	430.492	1	0	0	0		$|
3695434	0	object/static/structure/general/skeleton_human_head.iff	0	602.043	317.337	426.534	0.92388	0	0.382683	0		$|
3695435	0	object/static/structure/general/skeleton_human_head.iff	0	597.823	317.308	430.517	0.92388	0	0.382683	0		$|
3695474	0	object/tangible/furniture/tatooine/frn_tato_table_small_style_01.iff	0	628.288	315	431.509	1	0	0	0		$|
3695477	0	object/static/item/item_carbine_dh17.iff	0	628.322	315.632	431.474	-0.703845	0	0	0.710353		$|
3695478	0	object/static/item/item_carbine_dh17.iff	0	628.053	315.632	431.568	-0.703845	0	0	0.710353		$|
3695479	0	object/static/item/item_pistol.iff	0	628.196	315.632	431.043	-0.703845	0	0	0.710353		$|
3695480	0	object/static/structure/tatooine/debris_tatt_crate_metal_1.iff	0	628.382	315	430.516	0.997189	0	-0.0749297	0		$|
3695481	0	object/static/structure/tatooine/debris_tatt_drum_storage_2.iff	0	628.423	315	430.066	0.995953	0	-0.0898786	0		$|
3695484	0	object/tangible/camp/camp_spit_s1.iff	0	579.741	315.001	462.928	0.937646	0	-0.34759	0		$|
3695487	0	object/tangible/camp/camp_spit_s2.iff	0	579.908	315.048	463.719	0.892608	0	-0.450834	0		$|
3695488	0	object/tangible/camp/camp_spit.iff	0	579.911	315.012	462.988	0.993956	0	-0.109778	0		$|
3695491	0	object/tangible/camp/camp_tent_s2.iff	0	584.47	315.002	462.059	0.755093	0	-0.655617	0		$|
3695492	0	object/tangible/camp/camp_lawn_chair.iff	0	581.869	315.001	462.11	0.896053	0	-0.443948	0		$|
3695497	0	object/static/structure/general/streetlamp_small_green_style_02.iff	0	581.239	315	433.35	1	0	0	0		$|
3695498	0	object/static/structure/general/streetlamp_small_green_style_02.iff	0	588.774	315	336.221	1	0	0	0		$|
3695501	0	object/tangible/terminal/terminal_bazaar.iff	0	501.188	330	200.926	0.707107	0	-0.707106	0		$|
3695502	0	object/tangible/terminal/terminal_bazaar.iff	0	504.791	330	200.886	0.707105	0	0.707108	0		$|
3695503	0	object/static/structure/corellia/corl_imprv_column_s01.iff	0	468.902	327.967	208.186	-0.0349949	0	0.999387	0		$|
3695545	0	object/tangible/microphone/microphone.iff	0	685.434	330	715.438	3.20013e-008	0	1	0		$|
3695546	0	object/tangible/speaker/speaker.iff	0	681.005	330	716.32	0.0741356	0	0.997248	0		$|
3695547	0	object/tangible/speaker/speaker.iff	0	689.794	330	712.753	-0.326219	0	0.945294	0		$|
3695552	0	object/tangible/terminal/terminal_bank.iff	0	782.526	330	589.815	0.994493	0	0.104807	0		$|
3695553	0	object/tangible/terminal/terminal_bank.iff	0	784.483	330	589.373	0.994493	0	0.104807	0		$|
4435407	0	object/tangible/sign/all_sign_city_s03.iff	0	710.426	315	317.389	1	0	0	0		$|
4435408	0	object/tangible/sign/all_sign_city_s03.iff	0	561.447	315.034	316.194	1	0	0	0		$|
4435409	0	object/tangible/sign/all_sign_city_s03.iff	0	575.634	327.559	278.839	1	0	0	0		$|
4435410	0	object/tangible/sign/all_sign_city_s03.iff	0	542.009	330	193.496	0.707107	0	0.707106	0		$|
4435411	0	object/tangible/sign/all_sign_city_s03.iff	0	526.492	330	232.083	1	0	0	0		$|
5406050	0	object/static/structure/general/streetlamp_small_style_01.iff	0	570.139	333.849	277.891	-0.000796397	0	0	1		$|
5406062	0	object/static/structure/general/streetlamp_medium_blue_style_02.iff	0	573.456	330	224.531	1	0	0	0		$|
5406122	0	object/static/structure/general/streetlamp_medium_blue_style_02.iff	0	565.087	330	180.541	3.20013e-008	0	1	0		$|
5406132	0	object/static/structure/general/streetlamp_large_style_02.iff	0	527.421	330	240.011	1	0	0	0		$|
5406139	0	object/static/structure/general/streetlamp_large_style_02.iff	0	498.389	329.974	262.912	0.999987	0	0	0.00500013		$|
5406176	0	object/static/structure/general/streetlamp_large_style_02.iff	0	601.259	315	319.029	1	0	0	0		$|
5406626	0	object/static/structure/general/streetlamp_large_style_02.iff	0	570.255	314.607	545.593	1	0	0	0		$|
5406628	0	object/static/structure/general/streetlamp_large_style_02.iff	0	556.035	314.938	545.734	1	0	0	0		$|
5406639	0	object/static/structure/general/streetlamp_large_style_02.iff	0	575.056	314.981	585.563	1	0	0	0		$|
5406664	0	object/static/structure/general/streetlamp_small_style_01.iff	0	563.167	322.464	603.433	0.710913	-0.70328	0	0		$|
5406706	0	object/static/structure/general/streetlamp_large_style_02.iff	0	588.645	315	461.505	1	0	0	0		$|
5406719	0	object/static/structure/general/streetlamp_medium_blue_style_02.iff	0	607.555	315.229	633.975	0.382683	0	0.92388	0		$|
5406736	0	object/static/structure/general/streetlamp_large_style_02.iff	0	673.053	330	710.592	0.540302	0	0.841471	0		$|
5406776	0	object/static/structure/general/streetlamp_large_style_02.iff	0	767.19	330	616.53	0.990216	0	-0.139543	0		$|
5406783	0	object/static/structure/general/streetlamp_large_style_02.iff	0	781.065	330	590.256	0.993956	0	0.109778	0		$|
5406811	0	object/static/structure/general/streetlamp_medium_blue_style_01.iff	0	832.657	330	554.582	0.518759	0	0.854921	0		$|
5406814	0	object/static/structure/general/streetlamp_medium_blue_style_01.iff	0	831.409	330	587.864	0.770993	0	0.636844	0		$|
5406828	0	object/static/structure/general/streetlamp_medium_blue_style_02.iff	0	764.805	330.98	559.996	0.777323	0	-0.629102	0		$|
5406830	0	object/static/structure/general/streetlamp_large_style_02.iff	0	753.705	330	538.67	0.958244	0	0.285952	0		$|
5406834	0	object/static/structure/general/streetlamp_large_style_02.iff	0	697.742	315	595.619	1	0	0	0		$|
5406835	0	object/static/structure/general/streetlamp_large_style_02.iff	0	703.718	315	578.548	0.707107	0	0.707107	0		$|
5406859	0	object/static/structure/general/streetlamp_large_style_02.iff	0	681.034	315	440.992	1	0	0	0		$|
5406862	0	object/static/structure/general/streetlamp_medium_blue_style_01.iff	0	738.5	315	453.82	0.707107	0	0.707106	0		$|
5406865	0	object/static/structure/general/streetlamp_medium_blue_style_01.iff	0	724.677	315	378.607	1	0	0	0		$|
5406871	0	object/static/structure/general/streetlamp_large_style_02.iff	0	709.063	315	439.13	1	0	0	0		$|
5406916	0	object/static/structure/general/streetlamp_medium_blue_style_02.iff	0	647.048	315	448.948	0.707107	0	0.707107	0		$|
5406921	0	object/static/structure/general/streetlamp_medium_blue_style_01.iff	0	740.715	330.361	714.859	0.707107	0	0.707107	0		$|
5406958	0	object/static/structure/corellia/corl_imprv_column_s02.iff	0	668.779	312.184	373.398	-0.705479	0	0.708733	0		$|
5406960	0	object/static/structure/general/streetlamp_large_style_02.iff	0	668.812	315	373.386	0.707107	0	0.707106	0		$|
5406985	0	object/static/structure/general/streetlamp_small_style_01.iff	0	548.168	334.065	261.133	0.00420125	2.10186e-005	-0.00499987	0.999979		$|
6205380	0	object/static/structure/general/streetlamp_small_style_02.iff	0	694.415	315	377.765	1	0	0	0		$|
6205381	0	object/static/structure/general/streetlamp_small_style_02.iff	0	694.279	315	342.813	1	0	0	0		$|
6205382	0	object/static/structure/general/streetlamp_small_style_02.iff	0	709.468	317.466	365.809	1	0	0	0		$|
6205383	0	object/static/structure/general/streetlamp_small_style_02.iff	0	709.555	317.467	354.84	1	0	0	0		$|
6205384	0	object/static/structure/general/streetlamp_medium_blue_style_01.iff	0	737.065	315	405.708	1	0	0	0		$|
6205385	0	object/static/structure/general/streetlamp_small_style_02.iff	0	699.146	332.439	702.187	1	0	0	0		$|
6205386	0	object/static/structure/general/streetlamp_small_style_02.iff	0	718.628	332.487	696.372	1	0	0	0		$|
6476252	0	object/tangible/terminal/terminal_mission_scout.iff	0	771.256	330	540.825	0.767799	0	-0.640691	0		$|
6476256	0	object/tangible/terminal/terminal_mission_scout.iff	0	770.968	330	539.46	0.767799	0	-0.640691	0		$|
6476258	0	object/tangible/terminal/terminal_mission_artisan.iff	0	779.003	330	578.398	0.774167	0	-0.632981	0		$|
6476260	0	object/tangible/terminal/terminal_mission_artisan.iff	0	779.34	330	579.935	0.774168	0	-0.63298	0		$|
6476262	0	object/tangible/terminal/terminal_mission_entertainer.iff	0	549.25	315	548.702	1	0	0	0		$|
6476264	0	object/tangible/terminal/terminal_mission_artisan.iff	0	547.346	315	548.256	1	0	0	0		$|
6476266	0	object/tangible/terminal/terminal_mission_scout.iff	0	545.335	315	548.64	1	0	0	0		$|
6476268	0	object/tangible/terminal/terminal_mission_entertainer.iff	0	577.045	315	548.709	1	0	0	0		$|
6476270	0	object/tangible/terminal/terminal_mission_artisan.iff	0	578.662	314.999	548.422	1	0	0	0		$|
6476272	0	object/tangible/terminal/terminal_mission_scout.iff	0	580.748	314.995	548.697	1	0	0	0		$|
6476274	0	object/tangible/terminal/terminal_mission_artisan.iff	0	555.845	317.272	598.296	0.354799	0	0.934943	0		$|
6476276	0	object/tangible/terminal/terminal_mission_artisan.iff	0	570.529	317.3	598.324	-0.350121	0	0.936705	0		$|
6476278	0	object/tangible/terminal/terminal_mission_scout.iff	0	694.827	315	372.391	0.707107	0	-0.707106	0		$|
6476280	0	object/tangible/terminal/terminal_mission_scout.iff	0	694.852	315	348.278	0.707107	0	-0.707106	0		$|
6625547	0	object/soundobject/soundobject_city_crowd_sentients_large.iff	0	612.712	315	423.363	1	0	0	0		$|
6625557	0	object/soundobject/soundobject_city_crowd_medium.iff	0	606.884	314.942	526.177	1	0	0	0		$|
6625558	0	object/soundobject/soundobject_city_crowd_sentients_large.iff	0	603.391	315	483.963	1	0	0	0		$|
7985449	0	object/static/structure/general/banner_imperial_style_01.iff	0	572.525	315	340.516	1	0	0	0		$|
7985450	0	object/static/structure/general/banner_imperial_style_01.iff	0	577.521	315	340.503	1	0	0	0		$|
7985452	0	object/tangible/terminal/terminal_mission_imperial.iff	0	568.37	315	338.414	0.707107	0	0.707106	0		$|
7985454	0	object/tangible/terminal/terminal_mission_imperial.iff	0	581.538	315	338.576	0.707107	0	-0.707106	0		$|
8675748	0	object/static/structure/corellia/corl_imprv_bannerpole_s01.iff	0	567.712	316.458	545.096	1	0	0	0		$|
8675750	0	object/static/structure/corellia/corl_imprv_bannerpole_s01.iff	0	558.672	316.452	545.16	1	0	0	0		$|
8675751	0	object/static/structure/corellia/corl_imprv_flagpole_s01.iff	0	791.634	339.265	593.019	1	0	0	0		$|
8675752	0	object/static/structure/corellia/corl_imprv_flagpole_s01.iff	0	491.9	339.276	237.598	1	0	0	0		$|
8675753	0	object/static/structure/corellia/corl_imprv_flagpole_s01.iff	0	692.645	315	360.365	1	0	0	0		$|
8675754	0	object/tangible/terminal/terminal_bank.iff	0	691.279	315	360.361	0.70739	0	-0.706823	0		$|
9665461	0	object/tangible/furniture/all/frn_bench_generic.iff	0	563.097	315	563.052	-3.20013e-008	0	1	0		$|
9665462	0	object/tangible/furniture/all/frn_bench_generic.iff	0	560.065	315	565.999	0.707107	0	-0.707106	0		$|
9665463	0	object/tangible/furniture/all/frn_bench_generic.iff	0	560.111	315	571.008	0.707107	0	-0.707106	0		$|
9665464	0	object/tangible/furniture/all/frn_bench_generic.iff	0	563.107	315	573.09	1	0	0	0		$|
9665465	0	object/tangible/furniture/all/frn_bench_generic.iff	0	565.988	315	566.11	0.707107	0	0.707106	0		$|
9665466	0	object/tangible/furniture/all/frn_bench_generic.iff	0	753.767	330	575.217	0.896053	0	-0.443948	0		$|
9665467	0	object/tangible/furniture/all/frn_bench_generic.iff	0	747.4	330	571.768	1	0	0	0		$|
9665468	0	object/tangible/furniture/all/frn_bench_generic.iff	0	741.546	330	574.44	0.92388	0	0.382683	0		$|
9665469	0	object/tangible/furniture/all/frn_bench_generic.iff	0	738.744	330	581.259	0.707107	0	0.707107	0		$|
9665470	0	object/tangible/furniture/all/frn_bench_generic.iff	0	741.648	330	586.769	0.382683	0	0.92388	0		$|
9665471	0	object/tangible/furniture/all/frn_bench_generic.iff	0	747.379	330	589.269	-3.20013e-008	0	1	0		$|
9665472	0	object/tangible/furniture/all/frn_bench_generic.iff	0	752.253	330	587.511	-0.382683	0	0.92388	0		$|
9665473	0	object/tangible/furniture/all/frn_bench_generic.iff	0	755.928	330	581.166	0.707107	0	-0.707107	0		$|
9665474	0	object/tangible/furniture/all/frn_bench_generic.iff	0	577.305	315	585.285	-3.20013e-008	0	1	0		$|
9665475	0	object/tangible/furniture/all/frn_bench_generic.iff	0	548.55	315	585.405	-3.20013e-008	0	1	0		$|
9665476	0	object/tangible/furniture/all/frn_bench_generic.iff	0	544.38	315	569.201	0.707107	0	0.707107	0		$|
9665477	0	object/tangible/furniture/all/frn_bench_generic.iff	0	558.641	315	546.815	1	0	0	0		$|
9665478	0	object/tangible/furniture/all/frn_bench_generic.iff	0	567.895	315	546.901	1	0	0	0		$|
9665479	0	object/tangible/furniture/all/frn_bench_generic.iff	0	787.833	330	598.897	0.774419	0	-0.632673	0		$|
9665480	0	object/tangible/furniture/all/frn_bench_generic.iff	0	789.298	330	606.033	0.774419	0	-0.632673	0		$|
9665481	0	object/tangible/furniture/all/frn_bench_generic.iff	0	790.452	330	611.853	0.774419	0	-0.632673	0		$|
9665482	0	object/tangible/furniture/all/frn_bench_generic.iff	0	702.667	315.001	572.338	0.707107	0	-0.707107	0		$|
9665483	0	object/tangible/furniture/all/frn_bench_generic.iff	0	702.667	315	580.23	0.707107	0	-0.707107	0		$|
9665484	0	object/tangible/furniture/all/frn_bench_generic.iff	0	702.681	315	588.249	0.707107	0	-0.707107	0		$|
9665485	0	object/tangible/furniture/all/frn_bench_generic.iff	0	695.968	315	594.272	-3.20013e-008	0	1	0		$|
9665486	0	object/tangible/furniture/all/frn_bench_generic.iff	0	669.53	315	379.838	0.707107	0	0.707107	0		$|
9665487	0	object/tangible/furniture/all/frn_bench_generic.iff	0	669.653	315	387.786	0.707107	0	0.707106	0		$|
9665488	0	object/tangible/furniture/all/frn_bench_generic.iff	0	669.674	315	395.833	0.707107	0	0.707107	0		$|
9665489	0	object/tangible/furniture/all/frn_bench_generic.iff	0	647.065	315	341.651	-3.20013e-008	0	1	0		$|
9665490	0	object/tangible/furniture/all/frn_bench_generic.iff	0	664.049	315	341.565	-3.20013e-008	0	1	0		$|
9665491	0	object/tangible/furniture/all/frn_bench_generic.iff	0	498.363	330	261.011	0.707107	0	0.707107	0		$|
9665492	0	object/tangible/furniture/all/frn_bench_generic.iff	0	565.899	315	570.668	0.707107	0	0.707106	0		$|
9665493	0	object/tangible/furniture/all/frn_bench_generic.iff	0	486.719	330	206.019	-0.0341969	0	0.999415	0		$|
9665494	0	object/tangible/furniture/all/frn_bench_generic.iff	0	481.383	330	206.362	-0.034197	0	0.999415	0		$|
9665495	0	object/tangible/furniture/all/frn_bench_generic.iff	0	529.547	330	239.711	-3.20013e-008	0	1	0		$|
9665496	0	object/tangible/furniture/all/frn_bench_generic.iff	0	614.97	315	324.936	1	0	0	0		$|
9665497	0	object/tangible/furniture/all/frn_bench_generic.iff	0	671.624	315	348.402	0.707107	0	0.707107	0		$|
9665498	0	object/tangible/furniture/all/frn_bench_generic.iff	0	487.996	330	197.85	1	0	0	0		$|
2365732	0	object/building/corellia/filler_slum_24x16_s01.iff	0	705.271	315	413.59	1	0	0	0		$|
2365734	0	object/building/corellia/filler_slum_24x16_s01.iff	0	688.34	315	311.878	0.707107	0	0.707107	0		$|
2365743	0	object/building/corellia/filler_slum_24x16_s02.iff	0	657.793	315	429.845	0.707108	0	-0.707105	0		$|
2365751	0	object/building/corellia/filler_slum_24x16_s02.iff	0	706.311	315	390.705	1	0	0	0		$|
2365787	0	object/building/corellia/filler_slum_24x16_s02.iff	0	717.814	315	329.909	1	0	0	0		$|
2365814	0	object/building/corellia/filler_slum_24x16_s01.iff	0	662.553	315.019	513.679	0.707107	0	0.707107	0		$|
2365816	0	object/building/corellia/filler_slum_24x16_s01.iff	0	618.754	315	489.054	1	0	0	0		$|
2365818	0	object/building/corellia/filler_slum_24x16_s02.iff	0	633.704	314.888	512.22	0.701926	0	0.71225	0		$|
2365821	0	object/building/corellia/filler_slum_24x16_s02.iff	0	709.314	314.378	519.553	0.939373	0	0.342898	0		$|
2365839	0	object/building/corellia/filler_slum_24x16_s02.iff	0	556.591	330	165.511	0.696706	0	0.717357	0		$|
2365908	0	object/building/corellia/filler_slum_24x16_s01.iff	0	661.345	315	458.669	0.707107	0	-0.707106	0		$|
2365949	0	object/building/corellia/filler_slum_24x16_s01.iff	0	586.63	314.807	519.985	-3.20013e-008	0	1	0		$|
2365951	0	object/building/corellia/filler_slum_24x16_s02.iff	0	586.462	314.919	496.907	-0.00730027	0	0.999973	0		$|
2365954	0	object/building/corellia/filler_slum_24x16_s02.iff	0	538.694	315	569.485	-0.00730028	0	0.999973	0		$|
2395555	0	object/static/corellia/rock_bowl_agrilat_single.iff	0	643.971	313.067	575.412	1	0	0	0		$|
2395558	0	object/building/corellia/filler_slum_24x16_s01.iff	0	632.31	315	665.297	-0.486168	0	0.873865	0		$|
