objid	container	server_template_crc	cell_index	px	py	pz	qw	qx	qy	qz	scripts	objvars
i	i	h	i	f	f	f	f	f	f	f	s	p
58025	0	object/building/naboo/filler_building_naboo_style_2.iff	0	605.0449	330.0106	779.5681	0.1733235	0	0.984865	0		$|
141353	0	object/building/naboo/filler_building_naboo_style_2.iff	0	946.5898	360	646.7448	0.03919349	0	0.9992316	0		$|
141357	0	object/building/naboo/filler_building_naboo_style_6.iff	0	761.437	360	625.7813	0.7111933	0	0.7029966	0		$|
141364	0	object/static/structure/naboo/planter_naboo_theed_style_1.iff	0	856.21	360	582.45	0.8960525	0	-0.4439481	0		$|
141365	0	object/static/structure/naboo/planter_naboo_theed_style_2.iff	0	856.1069	360	566.8386	-0.4801242	0	0.8772005	0		$|
141388	0	object/static/structure/general/planter_generic_style_1.iff	0	846.0625	360.0002	639.4897	0.9998875	0	-0.01499946	0		$|
141393	0	object/static/structure/naboo/streetlamp_naboo_theed_style_1.iff	0	799.5044	360	668.1166	0.9999875	0	0.004999963	0		$|
141394	0	object/static/structure/naboo/streetlamp_naboo_theed_style_1.iff	0	758.6216	360	682.528	0.99995	0	0.009999848	0		$|
141397	0	object/static/structure/naboo/streetlamp_naboo_theed_style_1.iff	0	864.853	360	631.8456	0.9998875	0	0.01499944	0		$|
141400	0	object/static/structure/naboo/streetlamp_naboo_theed_style_1.iff	0	888.1646	360	580.9696	1	0	0	0		$|
141401	0	object/static/structure/naboo/streetlamp_naboo_theed_style_1.iff	0	858.3198	360	501.0634	1	0	0	0		$|
141402	0	object/static/structure/naboo/streetlamp_naboo_theed_style_1.iff	0	891.2261	360	497.9243	1	0	0	0		$|
141403	0	object/static/structure/naboo/streetlamp_naboo_theed_style_1.iff	0	888.0298	360	537.4274	1	0	0	0		$|
141404	0	object/static/structure/naboo/streetlamp_naboo_theed_style_1.iff	0	829.7593	360	516.0459	1	0	0	0		$|
141405	0	object/static/structure/naboo/streetlamp_naboo_theed_style_1.iff	0	767	360	541.3414	1	0	0	0		$|
141406	0	object/static/structure/naboo/streetlamp_naboo_theed_style_1.iff	0	796.6743	360	540.8997	1	0	0	0		$|
141407	0	object/static/structure/naboo/streetlamp_naboo_theed_style_1.iff	0	982.3286	350	513.7278	0.9999875	0	-0.00499994	0		$|
141408	0	object/static/structure/naboo/streetlamp_naboo_theed_style_1.iff	0	1003.715	350	539.7717	0.9998	0	-0.01999867	0		$|
141409	0	object/static/structure/naboo/streetlamp_naboo_theed_style_1.iff	0	1050.639	350.2213	581.9463	0.9880115	0	0.1543802	0		$|
141410	0	object/static/structure/naboo/streetlamp_naboo_theed_style_1.iff	0	762.2129	360	659.4414	1	0	0	0		$|
141411	0	object/static/structure/naboo/streetlamp_naboo_theed_style_1.iff	0	671.9121	330	775.571	0.99955	0	0.0299955	0		$|
141412	0	object/static/structure/naboo/streetlamp_naboo_theed_style_1.iff	0	665.5503	329.9481	706.7205	1	0	0	0		$|
141413	0	object/static/structure/naboo/streetlamp_naboo_theed_style_1.iff	0	603.3423	330	727.3507	1	0	0	0		$|
141415	0	object/static/structure/naboo/streetlamp_naboo_theed_style_1.iff	0	635.6416	330	637.5436	0.9963897	0	-0.08489757	0		$|
141416	0	object/static/structure/naboo/streetlamp_naboo_theed_style_1.iff	0	421.9946	317.6849	777.6156	0.990216	0	0.1395431	0		$|
141418	0	object/static/structure/naboo/streetlamp_naboo_theed_style_1.iff	0	523.7227	328.9742	716.1699	0.8702929	0	-0.4925345	0		$|
141419	0	object/static/structure/naboo/streetlamp_naboo_theed_style_1.iff	0	565.271	330	703.4294	0.9998	0	-0.01999867	0		$|
141420	0	object/static/structure/naboo/streetlamp_naboo_theed_style_1.iff	0	646.5425	328.0021	603.3896	0.9993876	0	0.03499286	0		$|
141421	0	object/static/structure/naboo/streetlamp_naboo_theed_style_1.iff	0	617.8296	330.1029	621.3011	0.99955	0	-0.0299955	0		$|
141449	0	object/static/structure/naboo/obelisk_naboo_theed_style_3.iff	0	755.5737	360	542.0255	1	0	0	0		$|
141483	0	object/static/structure/naboo/planter_naboo_theed_style_2.iff	0	647.0313	329.9927	722.7709	1	0	0	0		$|
141484	0	object/static/structure/naboo/planter_naboo_theed_style_1.iff	0	621.8486	330	597.9404	1	0	0	0		$|
141486	0	object/static/structure/naboo/planter_naboo_theed_style_1.iff	0	623.6963	330.0006	722.6718	0.9803472	0	0.1972797	0		$|
142320	0	object/static/structure/general/planter_generic_style_1.iff	0	827.1304	360	640.7224	0.9999867	0	0.005150556	0		$|
142321	0	object/static/structure/general/planter_generic_style_1.iff	0	802.8882	360	641.5967	0.362135	0	0.9321256	0		$|
142323	0	object/static/structure/naboo/streetlamp_naboo_theed_style_1.iff	0	826.8472	360	655.0759	0.9999417	0	0.01079681	0		$|
142324	0	object/static/structure/naboo/streetlamp_naboo_theed_style_1.iff	0	804.1738	360	655.311	0.9999417	0	0.01079681	0		$|
151340	0	object/static/structure/naboo/streetlamp_naboo_theed_style_1.iff	0	719.7881	336.5	565.5541	1	0	0	0		$|
164330	0	object/static/structure/naboo/fountain_naboo_style_1.iff	0	860.8022	359.9888	574.5857	0.9887711	0	-0.1494381	0		$|
164332	0	object/static/structure/general/planter_generic_style_4.iff	0	864.2031	360	551.2533	-0.3105734	0	0.9505494	0		$|
164333	0	object/static/structure/naboo/streetlamp_naboo_theed_style_1.iff	0	872.2441	360.1581	541.7607	1	0	0	0		$|
683316	0	object/building/naboo/filler_building_naboo_style_4.iff	0	669.7583	330	786.9381	-0.05916903	0	0.998248	0		$|
683317	0	object/building/naboo/filler_building_naboo_style_4.iff	0	839.0542	360	505.7017	0.7141438	0	0.6999989	0		$|
1419009	0	object/building/naboo/hotel_naboo_theed.iff	0	1049.215	350	616.6432	-0.1543801	0	0.9880114	0		$|
1419010	1419009	object/cell/cell.iff	1	0	0	0	1	1.401298E-45	0	0		$|
1419011	1419009	object/cell/cell.iff	2	0	0	0	1	2.802597E-45	0	0		$|
1419012	1419009	object/cell/cell.iff	3	0	0	0	1	4.203895E-45	0	0		$|
1419013	1419009	object/cell/cell.iff	4	0	0	0	1	5.605194E-45	0	0		$|
1143423	1419013	object/tangible/gambling/slot/standard.iff	4	4.391758	1.190705	-22.04385	0.9999704	0	0.007697993	0		$|
1143424	1419013	object/tangible/gambling/slot/standard.iff	4	0.3201969	1.189805	-21.91982	0.9999704	0	0.007697993	0		$|
1143425	1419013	object/tangible/gambling/wheel/roulette.iff	4	-1.042279	1.000001	-16.03071	0.9999704	0	0.007697993	0		$|
1143426	1419013	object/tangible/gambling/wheel/roulette.iff	4	9.599933	1.000962	-16.25403	0.9999704	0	0.007697993	0		$|
1143427	1419013	object/tangible/gambling/slot/standard.iff	4	8.43074	1.190705	-22.22866	0.9999704	0	0.007697993	0		$|
8085592	1419013	object/soundobject/soundobject_city_crowd_small.iff	4	-0.521749	0.999999	-1.141149	1	0	0	0		$|
1419014	1419009	object/cell/cell.iff	5	0	0	0	1	7.006492E-45	0	0		$|
7515359	1419014	object/soundobject/soundobject_cantina_small.iff	5	21.21107	1.283091	-1.041438	1	0	0	0		$|
1419015	1419009	object/cell/cell.iff	6	0	0	0	1	8.407791E-45	0	0		$|
1143417	1419015	object/tangible/gambling/wheel/roulette.iff	6	-15.93471	1.000879	-0.1196441	0.9999973	0	-0.002301938	0		$|
1143418	1419015	object/tangible/gambling/wheel/roulette.iff	6	-15.94091	1.000894	4.25004	0.9999973	0	-0.002301938	0		$|
1143419	1419015	object/tangible/gambling/slot/standard.iff	6	-12.34798	1.000711	-0.1268392	-0.7054793	0	0.7087319	0		$|
1143420	1419015	object/tangible/gambling/slot/standard.iff	6	-12.14541	1.000559	-0.1468103	0.7087334	0	0.7054763	0		$|
1143421	1419015	object/tangible/gambling/slot/standard.iff	6	-12.02801	1.000818	4.159801	0.6997173	0	0.7144199	0		$|
1143422	1419015	object/tangible/gambling/slot/standard.iff	6	-12.22997	1.000666	4.184704	0.7144163	0	-0.6997213	0		$|
8085596	1419015	object/soundobject/soundobject_city_crowd_small.iff	6	-19.95532	1.100003	2.957972	1	0	0	0		$|
1419016	1419009	object/cell/cell.iff	7	0	0	0	1	9.809089E-45	0	0		$|
1419017	1419009	object/cell/cell.iff	8	0	0	0	1	1.121039E-44	0	0		$|
1419018	1419009	object/cell/cell.iff	9	0	0	0	1	1.261169E-44	0	0		$|
1419019	1419009	object/cell/cell.iff	10	0	0	0	1	1.401298E-44	0	0		$|
1419039	0	object/static/structure/naboo/seawall_stair_naboo_theed_style_1.iff	0	1043.482	344.154	548.5283	0.3200634	0	0.9473961	0		$|
1419043	0	object/static/structure/naboo/wall_a1_naboo_theed_style_1.iff	0	1042.8	344.0696	503.0439	0.8702928	0	0.4925346	0		$|
1419044	0	object/static/structure/naboo/wall_a1_naboo_theed_style_1.iff	0	1032.167	344.096	520.8406	0.64864	0	0.7610956	0		$|
1419047	0	object/static/structure/naboo/wallend_a1_naboo_theed_style_1.iff	0	1035.566	344.1105	541.0157	0.3623581	0	0.932039	0		$|
1419088	0	object/static/structure/naboo/nboo_imprv_pillar_pillar_s01.iff	0	1060.663	345.5066	504.4967	0.9995258	0	0.03079168	0		$|
1419128	0	object/building/naboo/filler_nboo_bldg_32x16_style_01.iff	0	964.3262	350	537.4095	0.2474042	0	0.9689124	0		$|
1419150	0	object/static/structure/naboo/nboo_imprv_pillar_pillar_s01.iff	0	1043.232	348.001	502.624	0.2563112	0	0.9665946	0		$|
1419151	0	object/static/structure/naboo/wallend_a1_naboo_theed_style_1.iff	0	1059.888	344.1273	559.276	0.9507963	0	-0.3098167	0		$|
1419152	0	object/static/structure/naboo/wall_a1_naboo_theed_style_1.iff	0	1076.783	344.1549	570.8163	0.9553367	0	-0.2955195	0		$|
1419153	0	object/static/structure/naboo/nboo_imprv_pillar_pillar_s01.iff	0	1076.941	347.0358	570.7682	0.2947596	0	0.9555721	0		$|
1419154	0	object/building/naboo/shuttleport_naboo.iff	0	1255.937	327.0276	471.2188	0.9999964	0	0.002697022	0	structure.municipal.starport:planet_map.map_loc	travel.cost|0|200|travel.ground_time|0|300|travel.is_shuttleport|0|1|travel.point_name|4|Dee' Ja Peak Shuttleport|travel.shuttle_available|0|1|travel.version|0|3|$|
1422845	0	object/building/naboo/filler_nboo_bldg_64x32_style_01.iff	0	899.9619	360	569.5685	0.7103479	0	-0.7038508	0		$|
1422846	0	object/static/structure/naboo/seawall_stair_naboo_theed_style_1.iff	0	956.3584	346.76	511.0132	0.8653261	0	0.5012093	0		$|
1422847	0	object/static/structure/naboo/seawall_stair_naboo_theed_style_1.iff	0	947.9604	350.4889	506.2275	0.8678221	0	0.4968751	0		$|
1422848	0	object/static/structure/naboo/seawall_stair_naboo_theed_style_1.iff	0	940.0986	354.1902	501.5942	0.8678212	0	0.4968767	0		$|
1422849	0	object/building/naboo/filler_nboo_bldg_32x16_style_01.iff	0	972.7959	350	500.1826	0.99995	0	0.009999732	0		$|
1426845	0	object/building/naboo/filler_nboo_bldg_32x16_style_02.iff	0	573.1499	330	711.2012	1	0	0	0		$|
1426851	0	object/building/naboo/filler_nboo_bldg_32x16_style_01.iff	0	595.5488	330	741.7012	0.7071117	0	0.7071018	0		$|
1426852	0	object/static/structure/naboo/nboo_imprv_pillar_wall_ornate_large_s01.iff	0	1074.189	346.5	543.0316	0.5772837	0	0.8165436	0		$|
1426853	0	object/static/structure/naboo/nboo_imprv_pillar_wall_ornate_large_s01.iff	0	1071.519	346.5	535.4907	0.5772837	0	0.8165436	0		$|
1426854	0	object/static/structure/naboo/nboo_imprv_pillar_wall_ornate_large_s01.iff	0	1066.182	346.5	520.3998	0.5772838	0	0.8165439	0		$|
1426855	0	object/static/structure/naboo/nboo_imprv_pillar_wall_ornate_large_s01.iff	0	1068.852	346.5	527.9406	0.5772838	0	0.8165439	0		$|
1426856	0	object/static/structure/naboo/nboo_imprv_pillar_wall_ornate_large_s01.iff	0	1060.848	346.5	505.3136	0.5772838	0	0.8165439	0		$|
1426857	0	object/static/structure/naboo/nboo_imprv_pillar_wall_ornate_large_s01.iff	0	1063.514	346.5	512.8561	0.5772838	0	0.8165439	0		$|
1426858	0	object/static/structure/naboo/nboo_imprv_pillar_wall_ornate_small_s01.iff	0	1076.842	346.5	550.5829	0.5857431	0	0.8104969	0		$|
1426859	0	object/static/structure/naboo/nboo_imprv_pillar_wall_ornate_large_s01.iff	0	1088.208	346.5	563.986	0.777072	0	-0.6294118	0		$|
1426860	0	object/static/structure/naboo/nboo_imprv_pillar_wall_ornate_large_s01.iff	0	1080.619	346.5	566.5361	-0.1452811	0	0.9893909	0		$|
1426862	0	object/static/structure/naboo/nboo_imprv_pillar_pillar_s07.iff	0	1086.555	346.6265	555.932	0.9954908	0	0.09485738	0		$|
1426863	0	object/static/structure/naboo/nboo_imprv_pillar_pillar_s07.iff	0	1088.277	346.7213	564.2155	0.9959527	0	0.08987887	0		$|
1426865	0	object/static/structure/naboo/streetlamp_naboo_theed_style_1.iff	0	1027.783	350.2213	589.2679	0.9880115	0	0.1543802	0		$|
1426866	0	object/building/naboo/filler_nboo_bldg_32x16_style_02.iff	0	911.8789	360	526.6879	0.99995	0	0.00999976	0		$|
1426869	0	object/building/naboo/filler_nboo_bldg_64x32_s02.iff	0	880.9185	360	481.0468	5.149508E-08	0	1	0		$|
1426872	0	object/static/structure/naboo/nboo_imprv_short_curved_wall_large_s01.iff	0	710.4741	336.5	572.8875	1	0	0	0		$|
1426873	0	object/static/structure/naboo/nboo_imprv_short_curved_wall_large_s01.iff	0	702.3872	336.5072	580.8293	0.7071114	0	0.7071021	0		$|
1426874	0	object/static/structure/naboo/nboo_imprv_pillar_pillar_s03.iff	0	702.4888	336.5	581.744	1	0	0	0		$|
1426875	0	object/static/structure/naboo/nboo_imprv_pillar_pillar_s03.iff	0	718.4165	336.5	581.8708	1	0	0	0		$|
1426876	0	object/static/structure/naboo/nboo_imprv_pillar_pillar_s03.iff	0	710.667	336.5	573.0634	1	0	0	0		$|
1426878	0	object/static/structure/naboo/nboo_imprv_pristine_wall_large_s01.iff	0	720.2607	335.2395	563.5939	1	0	0	0		$|
1426879	0	object/static/structure/naboo/nboo_imprv_pillar_pillar_s01.iff	0	721.106	335.3718	563.4857	1	0	0	0		$|
1426880	0	object/static/structure/naboo/nboo_imprv_pillar_pillar_s01.iff	0	702.9805	335.3718	563.558	1	0	0	0		$|
1426900	0	object/static/structure/naboo/nboo_imprv_short_curved_wall_small_s01.iff	0	743.625	360	661.6667	-0.004203662	0	0.9999912	0		$|
1426902	0	object/static/structure/naboo/nboo_imprv_short_curved_wall_large_s01.iff	0	736.8843	360	672.2943	0.01420316	0	0.9998991	0		$|
1426906	0	object/static/structure/naboo/nboo_imprv_pillar_pillar_s03.iff	0	718.4917	336.5031	581.9266	1	0	0	0		$|
1426907	0	object/static/structure/naboo/nboo_imprv_short_curved_wall_small_s01.iff	0	758.3516	360	659.072	0.741832	0	0.6705858	0		$|
1426908	0	object/static/structure/naboo/nboo_imprv_short_curved_wall_small_s01.iff	0	761.8906	360	663.4862	0.05037401	0	0.9987302	0		$|
1426909	0	object/static/structure/naboo/nboo_imprv_short_curved_wall_small_s01.iff	0	762.7646	360	655.5348	0.9987304	0	-0.05037412	0		$|
1503404	0	object/building/naboo/housing_naboo_style_3.iff	0	868.3735	360	639.6021	3.200127E-08	0	1	0		$|
1685119	0	object/building/naboo/housing_naboo_style_1.iff	0	1028.444	350	501.0769	0.2619092	0	0.9650925	0		$|
1685120	1685119	object/cell/cell.iff	1	0	0	0	1	1.401298E-45	0	0		$|
1685121	1685119	object/cell/cell.iff	2	0	0	0	1	2.802597E-45	0	0		$|
1685122	1685119	object/cell/cell.iff	3	0	0	0	1	4.203895E-45	0	0		$|
1685123	1685119	object/cell/cell.iff	4	0	0	0	1	5.605194E-45	0	0		$|
1685124	1685119	object/cell/cell.iff	5	0	0	0	1	7.006492E-45	0	0		$|
1685125	1685119	object/cell/cell.iff	6	0	0	0	1	8.407791E-45	0	0		$|
1685126	1685119	object/cell/cell.iff	7	0	0	0	1	9.809089E-45	0	0		$|
1685127	0	object/building/naboo/filler_building_naboo_style_4.iff	0	1000.189	350	495.8829	1	0	0	0		$|
1685129	0	object/static/structure/naboo/nboo_imprv_pillar_pillar_s01.iff	0	942.6475	353.4038	513.0198	0.96639	0	-0.2570806	0		$|
1685130	0	object/static/structure/naboo/nboo_imprv_pillar_pillar_s01.iff	0	946.8145	353.5025	505.7496	0.9663898	0	-0.2570811	0		$|
1685131	0	object/static/structure/naboo/nboo_imprv_pillar_pillar_s01.iff	0	950.6411	348.8475	517.4501	0.9663898	0	-0.2570811	0		$|
1685132	0	object/static/structure/naboo/nboo_imprv_pillar_pillar_s01.iff	0	954.8081	348.9462	510.1799	0.9663898	0	-0.2570811	0		$|
1685136	0	object/static/structure/naboo/nboo_imprv_pillar_pillar_s02.iff	0	934.1411	360	508.0306	0.8653241	0	0.5012128	0		$|
1685137	0	object/static/structure/naboo/nboo_imprv_pillar_pillar_s02.iff	0	938.5654	360	500.5959	0.9662876	0	-0.2574652	0		$|
1685170	0	object/building/naboo/filler_building_naboo_style_6.iff	0	990.6348	350	542.1208	-0.014204	0	0.999899	0		$|
1685171	0	object/building/naboo/filler_nboo_bldg_32x16_style_02.iff	0	998.1714	350	569.6158	0.6928241	0	0.7211066	0		$|
1685199	0	object/building/naboo/housing_naboo_style_3.iff	0	968.2847	360	602.7793	0.7518057	0	-0.6593847	0		$|
1685202	0	object/building/naboo/housing_naboo_style_3.iff	0	954.5195	360	581.0713	0.9460419	0	-0.3240445	0		$|
1685205	0	object/building/naboo/housing_naboo_style_3.iff	0	935.8755	360	566.6309	0.9410751	0	-0.3381977	0		$|
1685208	0	object/building/naboo/housing_naboo_style_3.iff	0	928.9199	360	638.0114	0.3043012	0	0.9525759	0		$|
1685211	0	object/building/naboo/housing_naboo_style_3.iff	0	912.6025	360	613.3318	0.6991475	0	0.7149774	0		$|
1685216	0	object/static/structure/naboo/nboo_imprv_pillar_pillar_s01.iff	0	899.604	360	633.0996	0.7181892	0	-0.6958479	0		$|
1685217	0	object/static/structure/naboo/nboo_imprv_pristine_wall_large_s01.iff	0	919.4463	360	632.4698	0.9998752	0	0.0157962	0		$|
1685230	0	object/static/structure/general/planter_generic_style_4.iff	0	864.4058	360	597.6979	0.9847265	0	-0.1741081	0		$|
1685231	0	object/building/naboo/guild_university_naboo_style_01.iff	0	635.2715	330	772.5201	-3.200127E-08	0	1	0		$|
1685232	1685231	object/cell/cell.iff	1	0	0	0	1	1.401298E-45	0	0		$|
1685233	1685231	object/cell/cell.iff	2	0	0	0	1	2.802597E-45	0	0		$|
1685234	1685231	object/cell/cell.iff	3	0	0	0	1	4.203895E-45	0	0		$|
1685235	1685231	object/cell/cell.iff	4	0	0	0	1	5.605194E-45	0	0		$|
1685236	1685231	object/cell/cell.iff	5	0	0	0	1	7.006492E-45	0	0		$|
1685237	1685231	object/cell/cell.iff	6	0	0	0	1	8.407791E-45	0	0		$|
1685238	1685231	object/cell/cell.iff	7	0	0	0	1	9.809089E-45	0	0		$|
1685239	1685231	object/cell/cell.iff	8	0	0	0	1	1.121039E-44	0	0		$|
1685240	1685231	object/cell/cell.iff	9	0	0	0	1	1.261169E-44	0	0		$|
1685241	0	object/static/structure/naboo/archway_narrow_s01.iff	0	906.4111	360	536.5563	0.7071086	0	0.7071049	0		$|
1688885	0	object/static/structure/naboo/nboo_imprv_pillar_pillar_s07.iff	0	1080.568	346.7529	566.5586	0.988771	0	0.1494385	0		$|
1688887	0	object/static/structure/naboo/arbor_corner_90_s01.iff	0	1084.95	345.8453	560.5226	-0.1246748	0	0.9921977	0		$|
1692551	0	object/static/structure/naboo/nboo_imprv_pillar_pillar_s02.iff	0	640.1777	329.9998	683.4974	-0.7071066	0	0.7071068	0		$|
1692558	0	object/static/structure/naboo/nboo_imprv_pristine_wall_sml_s03.iff	0	646.2827	329.7342	636.2235	-0.6521357	0	0.7581022	0		$|
1692559	0	object/static/structure/naboo/nboo_imprv_pillar_pillar_s02.iff	0	646.0269	329.7345	637.0872	0.1246749	0	0.9921976	0		$|
1692561	0	object/static/structure/naboo/nboo_imprv_pillar_pillar_s02.iff	0	647.9072	329.7397	625.3079	0.03998943	0	0.9992001	0		$|
1692565	0	object/static/structure/naboo/nboo_imprv_pristine_wall_sml_s03.iff	0	635.9473	330.0963	634.7664	-0.652136	0	0.758102	0		$|
1692566	0	object/static/structure/naboo/nboo_imprv_pillar_pillar_s02.iff	0	635.8291	330.0965	635.6143	0.07991502	0	0.996802	0		$|
1692568	0	object/static/structure/naboo/nboo_imprv_pillar_pillar_s02.iff	0	637.5718	330.1017	623.8507	0.03998893	0	0.9992	0		$|
1692573	0	object/static/structure/naboo/gate_narrow_s02.iff	0	640.916	329.7673	636.2914	0.08410414	0	0.996457	0		$|
1692614	0	object/static/structure/naboo/nboo_imprv_short_curved_wall_large_s01.iff	0	650.4688	330	703.0728	-0.005796313	0	0.9999833	0		$|
1692615	0	object/static/structure/naboo/nboo_imprv_short_curved_wall_small_s01.iff	0	654.4243	330	699.0277	0.7111935	0	-0.7029963	0		$|
1692616	0	object/static/structure/naboo/nboo_imprv_pillar_pillar_s02.iff	0	642.1611	330	694.9161	0.7928044	0	-0.6094761	0		$|
1692617	0	object/static/structure/naboo/nboo_imprv_pristine_wall_sml_s03.iff	0	641.9883	330	694.1327	0.7677975	0	-0.6406926	0		$|
1692618	0	object/static/structure/naboo/nboo_imprv_pillar_pillar_s02.iff	0	654.5811	330	698.2576	-0.6445221	0	0.7645859	0		$|
1692619	0	object/static/structure/naboo/nboo_imprv_pristine_wall_sml_s03.iff	0	654.748	330	697.2725	-0.6445221	0	0.7645859	0		$|
1692620	0	object/static/structure/naboo/nboo_imprv_pillar_pillar_s03.iff	0	650.979	330	703.0135	1	0	0	0		$|
1692621	0	object/static/structure/naboo/nboo_imprv_pillar_pillar_s02.iff	0	656.6924	329.9894	686.5712	0.08489834	0	0.9963897	0		$|
1692622	0	object/static/structure/naboo/nboo_imprv_pillar_pillar_s02.iff	0	667.5566	329.8004	706.7253	0.721105	0	-0.6928259	0		$|
1692623	0	object/static/structure/naboo/nboo_imprv_pristine_wall_sml_s03.iff	0	667.5151	329.8004	705.7273	0.721105	0	-0.6928259	0		$|
1692624	0	object/static/structure/naboo/nboo_imprv_pillar_pillar_s02.iff	0	667.1841	329.8004	694.8551	-0.01999841	0	0.9998003	0		$|
1692638	0	object/static/structure/naboo/nboo_imprv_pillar_pillar_s02.iff	0	698.0942	329.8712	781.5145	0.7741657	0	-0.6329829	0		$|
1692639	0	object/static/structure/naboo/nboo_imprv_pristine_wall_sml_s03.iff	0	700.2583	329.3655	791.9447	0.7738171	0	-0.6326985	0.01898665		$|
1692640	0	object/static/structure/naboo/nboo_imprv_pillar_pillar_s02.iff	0	700.3784	329.8701	792.6741	0.7741657	0	-0.6329829	0		$|
1692641	0	object/static/structure/naboo/nboo_imprv_pristine_wall_sml_s03.iff	0	689.689	330	795.115	-0.1101731	0	0.9939125	0		$|
1692642	0	object/static/structure/naboo/nboo_imprv_pillar_pillar_s02.iff	0	688.7139	330	795.3353	-0.1101731	0	0.9939125	0		$|
1692663	0	object/static/structure/naboo/nboo_imprv_pristine_wall_sml_s03.iff	0	513.0879	325.0523	725.2311	-0.2943896	0	0.9466379	-0.1256673		$|
1692664	0	object/static/structure/naboo/nboo_imprv_pillar_pillar_s02.iff	0	512.4243	324.9122	725.6768	-0.2990263	0	0.9542223	0.005080141		$|
1692667	0	object/static/structure/naboo/nboo_imprv_pillar_pillar_s02.iff	0	521.3721	328.1108	719.4185	-0.2862046	0	0.9579244	-0.02011113		$|
1692672	0	object/static/structure/naboo/nboo_imprv_pristine_wall_large_s02.iff	0	513.8906	324.4334	711.1187	0.9427735	0	0.3072022	0.04016279		$|
1692673	0	object/static/structure/naboo/nboo_imprv_pillar_pillar_s01.iff	0	505.1694	321.4525	717.4718	0.9507964	0	0.3098165	0		$|
1692675	0	object/static/structure/naboo/nboo_imprv_pillar_pillar_s01.iff	0	513.3184	323.9795	711.4955	0.9507964	0	0.3098165	0		$|
1692678	0	object/static/structure/naboo/gate_narrow_s02.iff	0	517.4233	327.8863	715.0907	0.9089658	0	-0.4168708	0		$|
1692679	0	object/static/structure/naboo/nboo_imprv_metal_fence_wall_lg_s02.iff	0	524.6548	327.3865	723.6921	0.462486	0	0.886627	0		$|
1714691	0	object/building/naboo/filler_nboo_bldg_32x16_style_01.iff	0	626.48	330	616.1414	-0.6892069	0	0.724565	0		$|
1714694	0	object/static/structure/naboo/garden_gazebo_lg_s01.iff	0	612.3315	329.9024	594.9813	1	0	0	0		$|
1714700	0	object/static/structure/naboo/planter_naboo_theed_style_1.iff	0	604.9639	330	598.9579	1	0	0	0		$|
1714701	0	object/static/structure/general/planter_generic_style_4.iff	0	613.5586	330	603.828	0.7202805	0	0.6936828	0		$|
1714702	0	object/static/structure/naboo/streetlamp_naboo_theed_style_1.iff	0	630.3638	301.0681	516.8016	0.9993876	0	0.03499302	0		$|
1714703	0	object/static/structure/naboo/streetlamp_naboo_theed_style_1.iff	0	492.8018	321.1771	739.6108	0.8982611	0	-0.4394622	0		$|
1714704	0	object/static/structure/naboo/nboo_imprv_tall_curved_wall_large_s01.iff	0	643.6074	330	718.2849	1	0	0	0		$|
1714705	0	object/static/structure/naboo/nboo_imprv_pillar_pillar_s01.iff	0	642.6074	330	718.2849	1	0	0	0		$|
1714706	0	object/static/structure/naboo/nboo_imprv_pillar_pillar_s01.iff	0	651.6074	330	727.2849	1	0	0	0		$|
1714708	0	object/static/structure/naboo/nboo_imprv_tall_curved_wall_large_s01.iff	0	618.998	330	726.3682	0.7071066	0	0.7071068	0		$|
1714709	0	object/static/structure/naboo/nboo_imprv_pillar_pillar_s01.iff	0	618.9985	330	727.3682	0.7071066	0	0.7071068	0		$|
1714710	0	object/static/structure/naboo/nboo_imprv_pillar_pillar_s01.iff	0	627.9985	330	718.3682	0.7071066	0	0.7071068	0		$|
1714712	0	object/static/structure/naboo/nboo_imprv_tall_curved_wall_large_s01.iff	0	628.9956	330.7962	709.9076	0.9249091	0	0.3801883	0		$|
1714713	0	object/static/structure/naboo/nboo_imprv_pillar_pillar_s01.iff	0	628.2852	330	710.6115	0.9249091	0	0.3801883	0		$|
1714714	0	object/static/structure/naboo/nboo_imprv_pillar_pillar_s01.iff	0	641.0146	330	710.6791	0.9249091	0	0.3801883	0		$|
1714715	0	object/static/structure/naboo/nboo_imprv_pristine_wall_sml_s03.iff	0	618.9507	330	728.1075	0.7071086	0	0.7071049	0		$|
1714716	0	object/static/structure/naboo/nboo_imprv_pristine_wall_sml_s03.iff	0	651.6655	330	728.2236	0.7071069	0	0.707107	0		$|
1714718	0	object/static/structure/naboo/nboo_imprv_pillar_pillar_s01.iff	0	651.5059	330	738.687	1	0	0	0		$|
1714719	0	object/static/structure/naboo/nboo_imprv_pillar_pillar_s01.iff	0	618.897	330	738.7703	0.7071069	0	0.707107	0		$|
1714723	0	object/static/structure/naboo/planter_naboo_theed_style_2.iff	0	618.207	330	632.9138	-0.6332895	0	0.773915	0		$|
1714727	0	object/building/naboo/filler_nboo_bldg_32x16_style_02.iff	0	892.6963	360	617.2018	0.71063	0	-0.703566	0		$|
1714744	0	object/static/structure/naboo/nboo_imprv_pillar_pillar_s01.iff	0	919.6753	360.1262	632.6266	0.718191	0	-0.6958459	0		$|
1714760	0	object/static/structure/naboo/elevated_walkway_cap_s01.iff	0	1083.692	318.8616	497.0607	0.9928086	0	0.1197119	0		$|
1714761	0	object/static/structure/naboo/elevated_walkway_s03.iff	0	1193.745	318.885	470.0908	-0.119712	0	0.9928088	0		$|
1714762	0	object/static/structure/naboo/elevated_walkway_s03.iff	0	1131.574	318.885	485.3052	-0.119712	0	0.9928088	0		$|
1714763	0	object/static/structure/naboo/elevated_walkway_s03.iff	0	1162.659	318.885	477.698	-0.119712	0	0.9928088	0		$|
1714764	0	object/static/structure/naboo/elevated_walkway_s03.iff	0	1099.742	318.885	493.1036	-0.119712	0	0.9928088	0		$|
1714781	0	object/building/naboo/housing_naboo_style_1.iff	0	777.6816	360	684.4866	0.9999459	0	0.01040315	0		$|
1714782	1714781	object/cell/cell.iff	1	0	0	0	1	1.401298E-45	0	0		$|
1714783	1714781	object/cell/cell.iff	2	0	0	0	1	2.802597E-45	0	0		$|
1714784	1714781	object/cell/cell.iff	3	0	0	0	1	4.203895E-45	0	0		$|
1714785	1714781	object/cell/cell.iff	4	0	0	0	1	5.605194E-45	0	0		$|
1714786	1714781	object/cell/cell.iff	5	0	0	0	1	7.006492E-45	0	0		$|
1714787	1714781	object/cell/cell.iff	6	0	0	0	1	8.407791E-45	0	0		$|
1714788	1714781	object/cell/cell.iff	7	0	0	0	1	9.809089E-45	0	0		$|
1714818	0	object/static/structure/general/planter_generic_style_4.iff	0	1058.514	346.5	507.8281	1	0	0	0		$|
1714819	0	object/static/structure/naboo/nboo_imprv_pristine_wall_large_s01.iff	0	1061.468	346.0175	504.6359	0.9984879	0	-0.05497231	0		$|
1714820	0	object/static/structure/naboo/arbor_short_s01.iff	0	1084.207	345.8453	557.616	-0.1246748	0	0.9921977	0		$|
1714821	0	object/static/structure/naboo/arbor_long_s01.iff	0	1073.307	346.0626	564.6843	0.8704451	0	0.4921639	-0.004480597		$|
1714822	0	object/static/structure/naboo/nboo_imprv_pillar_wall_ornate_small_s01.iff	0	1077.909	346.5	567.3689	-0.1403317	0	0.9901045	0		$|
1714823	0	object/static/structure/naboo/nboo_imprv_pillar_pillar_s07.iff	0	1077.687	346.7213	567.423	0.9887709	0	0.1494391	0		$|
1714824	0	object/static/structure/naboo/arbor_corner_45_s01.iff	0	1075.583	346.024	565.0305	0.6094751	0	0.7928051	0		$|
1714825	0	object/static/structure/naboo/arbor_long_s02.iff	0	1075.494	345.9941	565.0375	0.7899923	0	-0.6131168	0		$|
1714826	0	object/static/structure/naboo/arbor_pillar_s01.iff	0	1065.23	346.0258	558.6555	0.990216	0	0.139543	0		$|
1714827	0	object/static/structure/naboo/arbor_long_s01.iff	0	1062.902	346.0258	549.9545	-0.1304238	0	0.9914584	0		$|
1714828	0	object/static/structure/naboo/arbor_corner_45_s01.iff	0	1066.379	346.0258	560.4688	0.8749822	0	0.4841551	0		$|
1714829	0	object/static/structure/naboo/nboo_imprv_pillar_pillar_s07.iff	0	1077.712	346.6581	553.1542	0.9880115	0	0.15438	0		$|
1714830	0	object/static/structure/general/planter_generic_style_4.iff	0	1073.78	346.5	552.5431	0.9939561	0	-0.1097783	0		$|
1714832	0	object/static/structure/naboo/streetlamp_naboo_theed_style_1.iff	0	1023.199	350	512.8568	0.9637707	0	-0.2667318	0		$|
1714833	0	object/static/structure/naboo/nboo_imprv_pillar_pillar_s03.iff	0	766.2324	360	660.7465	0.9987503	0	-0.04997917	0		$|
1714834	0	object/static/structure/naboo/nboo_imprv_pillar_pillar_s03.iff	0	762.7607	360	663.5309	0.9987503	0	-0.04997899	0		$|
1714835	0	object/static/structure/naboo/nboo_imprv_pillar_pillar_s03.iff	0	744.5938	360	661.9105	0.9987503	0	-0.04997899	0		$|
1714836	0	object/static/structure/naboo/nboo_imprv_pillar_pillar_s03.iff	0	739.6753	360.0147	657.5721	0.9987503	0	-0.04997899	0		$|
1714837	0	object/static/structure/naboo/nboo_imprv_pillar_pillar_s03.iff	0	736.8921	360	672.3546	0.9987503	0	-0.04997899	0		$|
1714838	0	object/static/structure/naboo/nboo_imprv_pillar_pillar_s03.iff	0	729.2915	360	664.0707	0.9987503	0	-0.04997899	0		$|
1714839	0	object/static/structure/naboo/nboo_imprv_pristine_wall_large_s02.iff	0	702.5962	335.1404	563.5978	0.9982005	0	0.05996401	0		$|
1714840	0	object/static/structure/naboo/nboo_imprv_pillar_pillar_s01.iff	0	692.627	335.1758	564.8615	0.9971888	0	0.07492961	0		$|
1714841	0	object/static/structure/naboo/streetlamp_naboo_theed_style_1.iff	0	887.9595	360	566.5991	1	0	0	0		$|
1714857	0	object/building/naboo/filler_building_naboo_style_6.iff	0	597.7876	330	716.3634	0.696992	0	0.717079	0		$|
1716852	0	object/static/structure/naboo/archway_wide_s02.iff	0	1035.55	350	574.1788	0.9880115	0	0.1543802	0		$|
1716854	0	object/static/structure/naboo/archway_narrow_s01.iff	0	1024.122	350	577.8394	0.9880115	0	0.1543802	0		$|
1716855	0	object/static/structure/naboo/nboo_imprv_pillar_pillar_s01.iff	0	1026.979	350	576.9253	0.9880115	0	0.1543802	0		$|
1716856	0	object/static/structure/naboo/nboo_imprv_pillar_pillar_s01.iff	0	1021.267	350	578.7552	0.9880115	0	0.1543802	0		$|
1716857	0	object/static/structure/naboo/archway_narrow_s01.iff	0	1046.979	350	570.5181	0.9880115	0	0.1543802	0		$|
1716858	0	object/static/structure/naboo/nboo_imprv_pillar_pillar_s01.iff	0	1049.836	350	569.6039	0.9880115	0	0.1543802	0		$|
1716859	0	object/static/structure/naboo/nboo_imprv_pillar_pillar_s01.iff	0	1044.121	350	571.4341	0.9880115	0	0.1543802	0		$|
1716860	0	object/static/structure/naboo/archway_wide_s02.iff	0	1024.011	350	587.3259	0.5894673	0	0.8077923	0		$|
1716861	0	object/static/structure/naboo/nboo_imprv_pillar_pillar_s01.iff	0	1026.756	350	595.8973	0.9880115	0	0.1543802	0		$|
1716862	0	object/static/structure/naboo/nboo_imprv_pillar_pillar_s01.iff	0	1028.587	350	601.611	0.8077938	0	-0.5894651	0		$|
1716863	0	object/static/structure/naboo/archway_narrow_s01.iff	0	1027.672	350	598.7539	0.8077938	0	-0.5894651	0		$|
1716864	0	object/static/structure/naboo/archway_wide_s02.iff	0	1052.582	350	578.1741	0.8077938	0	-0.5894651	0		$|
1716865	0	object/static/structure/naboo/nboo_imprv_pillar_pillar_s01.iff	0	1055.329	350	586.7446	0.5894673	0	0.8077923	0		$|
1716866	0	object/static/structure/naboo/archway_narrow_s01.iff	0	1056.241	350	589.6024	0.5894673	0	0.8077923	0		$|
1716867	0	object/static/structure/naboo/nboo_imprv_pillar_pillar_s01.iff	0	1057.157	350	592.459	0.5894675	0	0.8077921	0		$|
1716998	0	object/static/structure/naboo/nboo_imprv_metal_fence_wall_sml_s02.iff	0	551.9414	330	714.0378	0.004999948	0	0.9999875	0		$|
1716999	0	object/static/structure/naboo/nboo_imprv_metal_fence_wall_sml_s01.iff	0	552	330	718	0.7071078	0	0.7071057	0		$|
1717000	0	object/static/structure/naboo/nboo_imprv_metal_fence_wall_sml_s01.iff	0	552	330	723	0.7071078	0	-0.7071057	0		$|
1717001	0	object/static/structure/naboo/nboo_imprv_metal_fence_wall_sml_s02.iff	0	588.8223	330	720.7314	0.7106547	0	0.70354	0		$|
1717003	0	object/static/structure/naboo/nboo_imprv_metal_fence_wall_sml_s02.iff	0	588.875	330	714.5304	0.7106514	0	0.7035437	0		$|
1717005	0	object/static/structure/general/planter_generic_style_3.iff	0	622.7959	330	736.4036	1	0	0	0		$|
1717006	0	object/static/structure/general/planter_generic_style_3.iff	0	648.1284	330	736.5387	1	0	0	0		$|
1717007	0	object/static/structure/general/planter_generic_style_4.iff	0	634.7432	330	710.6753	1	0	0	0		$|
1717019	0	object/static/structure/general/nboo_imprv_flower_urn_s01.iff	0	651.7827	332.0177	733.7228	1	0	0	0		$|
1717020	0	object/tangible/furniture/all/frn_all_potted_plants_sml_s02.iff	0	620.8711	330	731.1583	0.253016	0	0.9674621	0		$|
1717022	0	object/static/structure/general/nboo_imprv_flower_urn_s01.iff	0	640.8228	330	718.1812	1	0	0	0		$|
1717023	0	object/static/structure/general/nboo_imprv_flower_urn_s01.iff	0	629.6685	330	718.3304	1	0	0	0		$|
1717024	0	object/tangible/furniture/all/frn_all_potted_plants_sml_s02.iff	0	620.8867	330	727.5927	-0.1139555	0	0.9934859	0		$|
1717025	0	object/tangible/furniture/all/frn_all_potted_plants_sml_s02.iff	0	644.6636	330	720.5748	0.9829363	0	-0.1839465	0		$|
1717026	0	object/tangible/furniture/all/frn_all_potted_plants_sml_s02.iff	0	645.1543	330	724.1063	0.9829364	0	0.1839458	0		$|
1717028	0	object/tangible/furniture/all/frn_all_potted_plants_sml_s02.iff	0	648.7461	330	725.2781	0.7213826	0	0.6925368	0		$|
1717030	0	object/tangible/furniture/all/frn_all_potted_plants_sml_s02.iff	0	649.7124	330	727.9675	0.9650925	0	-0.2619092	0		$|
1717031	0	object/tangible/furniture/all/frn_all_potted_plants_sml_s02.iff	0	649.6318	330	731.5317	0.9944927	0	0.1048066	0		$|
1717033	0	object/tangible/furniture/all/frn_all_potted_plants_sml_s02.iff	0	626.0737	330	720.6134	-0.04419036	0	0.9990234	0		$|
1717035	0	object/tangible/furniture/all/frn_all_potted_plants_sml_s02.iff	0	625.374	330	724.3264	0.5105265	0	0.8598621	0		$|
1717037	0	object/tangible/furniture/all/frn_all_potted_plants_sml_s02.iff	0	621.936	330	725.2688	0.7869172	0	0.6170586	0		$|
1717038	0	object/static/structure/general/nboo_imprv_flower_urn_s01.iff	0	618.9751	331.9919	732.6903	1	0	0	0		$|
1717039	0	object/static/structure/naboo/nboo_imprv_pillar_pillar_s01.iff	0	635.0093	330	729.0625	1	0	0	0		$|
1717041	0	object/tangible/terminal/terminal_mission.iff	0	633.6563	330	729.0535	-0.7071066	0	0.7071068	0		$|
1717043	0	object/tangible/terminal/terminal_mission.iff	0	636.2026	330	729.0632	0.7071066	0	0.7071068	0		$|
1717064	0	object/static/structure/naboo/streetlamp_naboo_theed_style_1.iff	0	544.9565	330	693.3512	0.9998	0	-0.019999	0		$|
1717067	0	object/static/structure/naboo/nboo_imprv_metal_fence_wall_sml_s01.iff	0	759.1304	360	681.9659	1	0	0	0		$|
1717068	0	object/static/structure/naboo/nboo_imprv_metal_fence_wall_sml_s02.iff	0	765.6421	360	694.4243	1	0	0	0		$|
1717069	0	object/static/structure/naboo/nboo_imprv_metal_fence_wall_sml_s02.iff	0	759.3896	360	694.4224	1	0	0	0		$|
1717070	0	object/static/structure/naboo/nboo_imprv_metal_fence_wall_sml_s02.iff	0	753.1313	360	694.4117	0.7071081	0	-0.7071053	0		$|
1717071	0	object/static/structure/naboo/nboo_imprv_metal_fence_wall_sml_s02.iff	0	753.1299	360	688.1963	0.7071078	0	-0.7071057	0		$|
1717072	0	object/static/structure/naboo/nboo_imprv_metal_fence_wall_sml_s01.iff	0	753.1304	360	681.9659	-3.200127E-08	0	1	0		$|
1717073	0	object/static/structure/general/planter_generic_style_2.iff	0	754.9878	360	692.672	1	0	0	0		$|
1717077	0	object/static/structure/general/nboo_imprv_flower_urn_s01.iff	0	753.7378	360	686.6823	1	0	0	0		$|
1717079	0	object/static/structure/general/nboo_imprv_flower_urn_s01.iff	0	753.8252	360	690.8679	1	0	0	0		$|
1717080	0	object/static/structure/general/nboo_imprv_flower_urn_s01.iff	0	753.8179	360	682.606	1	0	0	0		$|
1717081	0	object/static/structure/general/nboo_imprv_flower_urn_s01.iff	0	765.0723	360	693.7267	0.7071078	0	0.7071057	0		$|
1717084	0	object/static/structure/general/nboo_imprv_flower_urn_s01.iff	0	760.8862	360	693.8143	0.7071078	0	0.7071057	0		$|
1717085	0	object/static/structure/general/nboo_imprv_flower_urn_s01.iff	0	756.8101	360	693.7343	0.7071078	0	0.7071057	0		$|
1717086	0	object/static/structure/naboo/nboo_imprv_pillar_pillar_s03.iff	0	802.9194	360	644.92	0.9999875	0	0.005000165	0		$|
1717087	0	object/static/structure/naboo/nboo_imprv_pillar_pillar_s03.iff	0	811.3828	360	652.3197	0.9999875	0	0.005000165	0		$|
1717088	0	object/static/structure/naboo/nboo_imprv_short_curved_wall_large_s01.iff	0	811.3682	360	652.2604	-0.04078519	0	0.9991679	0		$|
1717089	0	object/static/structure/naboo/nboo_imprv_pillar_pillar_s03.iff	0	819.8081	360	652.1964	0.7000004	0	0.7141424	0		$|
1717090	0	object/static/structure/naboo/nboo_imprv_pillar_pillar_s03.iff	0	827.54	360	644.0353	0.7035624	0	0.7106335	0		$|
1717091	0	object/static/structure/naboo/nboo_imprv_short_curved_wall_large_s01.iff	0	827.4805	360	644.047	0.7216604	0	-0.6922473	0		$|
1717096	0	object/static/structure/general/nboo_imprv_flower_urn_s01.iff	0	806.3589	360	649.4045	1	0	0	0		$|
1717097	0	object/static/structure/general/nboo_imprv_flower_urn_s01.iff	0	824.6206	360	648.8533	1	0	0	0		$|
1717098	0	object/tangible/furniture/all/frn_all_potted_plants_sml_s02.iff	0	805.3979	360.9748	650.3798	1	0	0	0		$|
1717101	0	object/tangible/furniture/all/frn_all_potted_plants_sml_s02.iff	0	825.7393	360.9724	649.4521	1	0	0	0		$|
1717107	0	object/tangible/terminal/terminal_mission.iff	0	804.4707	360	644.8556	0.7071078	0	0.7071057	0		$|
1717110	0	object/tangible/terminal/terminal_mission.iff	0	826.0474	360	644.0614	0.7106336	0	-0.7035623	0		$|
1717115	0	object/static/structure/general/planter_generic_style_2.iff	0	831.8452	360	611.2604	1	0	0	0		$|
1717116	0	object/static/structure/general/planter_generic_style_3.iff	0	788.978	360	636.6805	1	0	0	0		$|
1717117	0	object/static/structure/general/planter_generic_style_2.iff	0	767.3296	360	611.6011	1	0	0	0		$|
1717123	0	object/tangible/furniture/modern/table_modern_style_01.iff	0	785.3364	360.6008	605.2546	0.9984879	0	0.05497236	0		$|
1717124	0	object/tangible/furniture/elegant/chair_s01.iff	0	784.353	360.6008	603.663	0.9984879	0	0.05497236	0		$|
1717125	0	object/tangible/furniture/elegant/chair_s01.iff	0	787.3198	360.6008	604.8373	0.8678192	0	-0.4968801	0		$|
1717126	0	object/tangible/furniture/elegant/chair_s01.iff	0	784.7344	360.6008	607.2581	0.1105698	0	0.9938684	0		$|
1717127	0	object/tangible/furniture/modern/table_modern_style_01.iff	0	779.0498	360.6008	606.0381	0.4801243	0	0.8772005	0		$|
1717128	0	object/tangible/furniture/elegant/chair_s01.iff	0	778.061	360.6008	607.6235	0.4801243	0	0.8772005	0		$|
1717129	0	object/tangible/furniture/elegant/chair_s01.iff	0	777.7983	360.6008	604.444	0.8799688	0	0.4750315	0		$|
1717130	0	object/tangible/furniture/elegant/chair_s01.iff	0	781.1133	360.6008	605.6904	0.7859345	0	-0.6183097	0		$|
1717131	0	object/tangible/furniture/modern/table_modern_style_01.iff	0	782.4448	360.6008	609.858	0.9984879	0	0.05497236	0		$|
1717132	0	object/tangible/furniture/elegant/chair_s01.iff	0	781.7393	360.6008	608.0088	0.9984879	0	0.05497236	0		$|
1717133	0	object/tangible/furniture/elegant/chair_s01.iff	0	784.707	360.6008	609.1836	0.8678192	0	-0.4968801	0		$|
1717134	0	object/tangible/furniture/elegant/chair_s01.iff	0	783.0356	360.6008	611.5802	-0.1585316	0	0.9873536	0		$|
1717135	0	object/tangible/furniture/elegant/chair_s01.iff	0	780.4839	360.6008	610.325	0.7213831	0	0.6925362	0		$|
1717143	0	object/static/structure/naboo/streetlamp_naboo_theed_style_1.iff	0	872.9033	360.2213	607.0057	1	0	0	0		$|
1717149	0	object/tangible/furniture/modern/table_modern_style_01.iff	0	788.2095	360.6008	544.932	0.9725145	0	0.2328427	0		$|
1717150	0	object/tangible/furniture/elegant/chair_s01.iff	0	786.897	360.6008	543.4498	0.9725145	0	0.2328427	0		$|
1717151	0	object/tangible/furniture/elegant/chair_s01.iff	0	790.0879	360.6008	543.504	0.9427548	0	-0.3334867	0		$|
1717152	0	object/tangible/furniture/elegant/chair_s01.iff	0	789.3682	360.6008	546.3357	-0.3327363	0	0.94302	0		$|
1717153	0	object/tangible/furniture/elegant/chair_s01.iff	0	786.5366	360.6008	546.0601	0.5857448	0	0.8104955	0		$|
1717157	0	object/tangible/furniture/modern/table_modern_style_01.iff	0	770.9341	360	535.2831	0.536088	0	0.8441625	0		$|
1717158	0	object/tangible/furniture/elegant/chair_s01.iff	0	769.7476	360	536.7271	0.536088	0	0.8441625	0		$|
1717159	0	object/tangible/furniture/elegant/chair_s01.iff	0	769.8989	360	533.5404	0.9089654	0	0.4168715	0		$|
1717160	0	object/tangible/furniture/elegant/chair_s01.iff	0	773.0239	360	535.2059	0.7441108	0	-0.6680563	0		$|
1717161	0	object/tangible/furniture/modern/table_modern_style_01.iff	0	774.5356	360.6008	545.2296	0.9725144	0	0.2328429	0		$|
1717162	0	object/tangible/furniture/elegant/chair_s01.iff	0	773.2231	360.6008	543.7474	0.9725144	0	0.2328429	0		$|
1717163	0	object/tangible/furniture/elegant/chair_s01.iff	0	776.4141	360.6008	543.8016	0.9427546	0	-0.3334872	0		$|
1717164	0	object/tangible/furniture/elegant/chair_s01.iff	0	775.6943	360.6008	546.6333	-0.3327359	0	0.94302	0		$|
1717165	0	object/tangible/furniture/elegant/chair_s01.iff	0	772.8628	360.6008	546.3577	0.585745	0	0.810495	0		$|
1717166	0	object/tangible/furniture/modern/table_modern_style_01.iff	0	784.6484	360	530.5387	0.9725144	0	0.2328429	0		$|
1717167	0	object/tangible/furniture/elegant/chair_s01.iff	0	783.3359	360	529.0565	0.9725144	0	0.2328429	0		$|
1717168	0	object/tangible/furniture/elegant/chair_s01.iff	0	786.5269	360	529.1107	0.9427546	0	-0.3334872	0		$|
1717169	0	object/tangible/furniture/elegant/chair_s01.iff	0	785.8081	360	532.1168	-0.3327359	0	0.94302	0		$|
1717170	0	object/tangible/furniture/elegant/chair_s01.iff	0	782.9766	360	531.8412	0.585745	0	0.810495	0		$|
1717192	0	object/building/naboo/housing_naboo_style_3.iff	0	806.4468	360	515.7815	0.9999788	0	-0.006505433	0		$|
1717199	0	object/static/structure/naboo/nboo_imprv_metal_fence_wall_sml_s01.iff	0	829.3164	360	495.939	0.99995	0	-0.009999847	0		$|
1717200	0	object/static/structure/naboo/nboo_imprv_metal_fence_wall_sml_s02.iff	0	826.1812	360	495.8577	0.7071082	0	-0.7071053	0		$|
1717201	0	object/static/structure/naboo/nboo_imprv_metal_fence_wall_sml_s02.iff	0	826.1812	360	489.8577	0.7071082	0	-0.7071053	0		$|
1717202	0	object/static/structure/naboo/nboo_imprv_metal_fence_wall_sml_s02.iff	0	826.1812	360	483.8575	0.7071082	0	-0.7071053	0		$|
1717207	0	object/static/structure/naboo/nboo_imprv_metal_fence_wall_sml_s02.iff	0	826.1792	360	477.6683	-0.3989761	0	0.9169611	0		$|
1717208	0	object/static/structure/naboo/nboo_imprv_metal_fence_wall_sml_s02.iff	0	830.4395	360	473.0906	-0.398976	0	0.916961	0		$|
1717209	0	object/static/structure/naboo/nboo_imprv_metal_fence_wall_sml_s02.iff	0	834.6553	360	468.5558	-0.398976	0	0.916961	0		$|
1717212	0	object/static/structure/naboo/nboo_imprv_metal_fence_wall_sml_s02.iff	0	850.7329	360	460.2545	-0.1547753	0	0.9879494	0		$|
1717213	0	object/static/structure/naboo/nboo_imprv_metal_fence_wall_sml_s02.iff	0	844.8403	360	462.1536	-0.1547753	0	0.9879494	0		$|
1717214	0	object/static/structure/naboo/nboo_imprv_metal_fence_wall_sml_s02.iff	0	838.8882	360	464.0692	-0.1547753	0	0.9879494	0		$|
1717215	0	object/static/structure/naboo/nboo_imprv_metal_fence_wall_sml_s02.iff	0	868.7891	360	457.007	-0.05537182	0	0.9984655	0		$|
1717216	0	object/static/structure/naboo/nboo_imprv_metal_fence_wall_sml_s02.iff	0	862.6357	360	457.6976	-0.05537182	0	0.9984655	0		$|
1717217	0	object/static/structure/naboo/nboo_imprv_metal_fence_wall_sml_s02.iff	0	856.4219	360	458.3928	-0.05537182	0	0.9984655	0		$|
1717223	0	object/static/structure/naboo/nboo_imprv_metal_fence_wall_sml_s02.iff	0	887.2852	360	457.9348	0.3046769	0	0.9524553	0		$|
1717224	0	object/static/structure/naboo/nboo_imprv_metal_fence_wall_sml_s02.iff	0	881.1157	360	457.1313	0.0645548	0	0.9979139	0		$|
1717225	0	object/static/structure/naboo/nboo_imprv_metal_fence_wall_sml_s02.iff	0	874.9155	360	456.3291	0.0645548	0	0.9979139	0		$|
1717227	0	object/static/structure/naboo/nboo_imprv_metal_fence_wall_sml_s02.iff	0	892.3525	360	467.8162	0.7065416	0	0.707671	0		$|
1717228	0	object/static/structure/naboo/nboo_imprv_metal_fence_wall_sml_s02.iff	0	892.3398	360	461.5656	0.7065416	0	0.707671	0		$|
1717230	0	object/static/structure/general/planter_generic_style_4.iff	0	772.2744	360	529.3779	-0.4801242	0	0.8772005	0		$|
1717233	0	object/tangible/furniture/elegant/chair_s01.iff	0	791.6284	360	524.0313	0.8281485	0	-0.5605087	0		$|
1717234	0	object/tangible/furniture/elegant/chair_s01.iff	0	789.5337	360	526.3041	-0.08410405	0	0.996457	0		$|
1717235	0	object/tangible/furniture/modern/table_modern_style_01.iff	0	789.293	360	524.3611	0.9998	0	-0.01999876	0		$|
1717236	0	object/tangible/furniture/elegant/chair_s01.iff	0	788.8701	360	522.4266	0.9998	0	-0.01999876	0		$|
1717237	0	object/tangible/furniture/elegant/chair_s01.iff	0	787.1978	360	524.6816	0.7712491	0	0.6365335	0		$|
1717242	0	object/static/structure/general/planter_generic_style_3.iff	0	793.085	360	520.3545	0.7002848	0	0.7138636	0		$|
1717243	0	object/static/structure/general/planter_generic_style_4.iff	0	835.6323	358.1252	487.1257	0.8050717	0	0.5931775	0		$|
1717244	0	object/static/structure/general/planter_generic_style_3.iff	0	866.8975	360	466.3281	1	0	0	0		$|
1717245	0	object/tangible/furniture/elegant/chair_s01.iff	0	877.1069	360	458.0249	0.9864184	0	-0.1642524	0		$|
1717246	0	object/tangible/furniture/elegant/chair_s01.iff	0	877.4624	360	461.0952	-0.4918415	0	0.8706848	0		$|
1717247	0	object/tangible/furniture/modern/table_modern_style_01.iff	0	875.832	360	460.0105	0.9171208	0	0.3986093	0		$|
1717248	0	object/tangible/furniture/elegant/chair_s01.iff	0	874.0913	360	459.0682	0.9171208	0	0.3986093	0		$|
1717249	0	object/tangible/furniture/elegant/chair_s01.iff	0	874.7085	360	461.8074	0.4356851	0	0.900099	0		$|
1717250	0	object/tangible/furniture/elegant/chair_s01.iff	0	885.8843	360	461.4025	-0.6332891	0	0.7739145	0		$|
1717251	0	object/tangible/furniture/modern/table_modern_style_01.iff	0	884.1274	360	460.3905	0.9523333	0	-0.3050596	0		$|
1717252	0	object/tangible/furniture/elegant/chair_s01.iff	0	884.4585	360	458.5481	0.9523333	0	-0.3050596	0		$|
1717253	0	object/tangible/furniture/elegant/chair_s01.iff	0	882.3442	360	461.4817	0.4580468	0	0.8889276	0		$|
1717254	0	object/static/structure/naboo/arbor_long_s02.iff	0	829.2251	359.6559	490.9971	0.9999875	0	-0.00499998	0		$|
1717255	0	object/static/structure/naboo/arbor_corner_90_s01.iff	0	831.2041	359.6559	493.0168	0.7106354	0	0.7035604	0		$|
1717256	0	object/static/structure/naboo/arbor_long_s02.iff	0	831.3252	359.6559	481.0177	-0.7035625	0	0.7106333	0		$|
1717257	0	object/static/structure/naboo/arbor_corner_90_s01.iff	0	829.3052	359.6559	482.9974	0.9999875	0	-0.004999675	0		$|
1717258	0	object/static/structure/naboo/arbor_long_s02.iff	0	841.3042	359.6559	483.1174	0.00500001	0	0.9999875	0		$|
1717259	0	object/static/structure/naboo/arbor_corner_90_s01.iff	0	839.3252	359.6559	481.0977	-0.7035626	0	0.7106337	0		$|
1717260	0	object/static/structure/naboo/arbor_long_s02.iff	0	839.2041	359.6559	493.0968	0.7106356	0	0.7035602	0		$|
1717261	0	object/static/structure/naboo/arbor_corner_90_s01.iff	0	841.2241	359.6559	491.1171	0.004999718	0	0.9999876	0		$|
1717273	0	object/static/structure/naboo/archway_narrow_s01.iff	0	853.0044	360	498.7423	1	0	0	0		$|
1717274	0	object/static/structure/naboo/nboo_imprv_pillar_pillar_s01.iff	0	850.0054	360	498.7439	1	0	0	0		$|
1717275	0	object/static/structure/naboo/nboo_imprv_pillar_pillar_s01.iff	0	856.0029	360	498.7434	1	0	0	0		$|
1717279	0	object/building/naboo/filler_nboo_bldg_32x16_style_01.iff	0	1001.763	350	601.8088	0.6961344	0	0.7179105	0		$|
1717299	0	object/static/structure/naboo/nboo_imprv_pillar_wall_ornate_large_s01.iff	0	1076.23	350	667.3092	-0.1699672	0	0.9854497	0		$|
1717300	0	object/static/structure/naboo/nboo_imprv_pillar_wall_ornate_large_s01.iff	0	1091.264	350	661.949	-0.589788	0	0.8075581	0		$|
1717301	0	object/static/structure/naboo/nboo_imprv_pillar_wall_ornate_large_s01.iff	0	1083.754	350	664.6287	-0.1699672	0	0.9854497	0		$|
1717303	0	object/static/structure/naboo/nboo_imprv_pillar_wall_ornate_large_s01.iff	0	1068.503	350	669.0513	-0.11057	0	0.9938683	0		$|
1717307	0	object/static/structure/naboo/nboo_imprv_pillar_pillar_s07.iff	0	1068.222	350.2141	669.0974	0.9939561	0	0.1097783	0		$|
1717308	0	object/static/structure/naboo/nboo_imprv_pillar_pillar_s07.iff	0	1091.287	350.1265	661.9329	0.9151164	0	-0.4031897	0		$|
1717315	0	object/static/structure/general/nboo_imprv_flower_urn_s01.iff	0	1037.992	346.5	529.4561	0.6599832	0	0.7512804	0		$|
1717323	0	object/static/structure/general/nboo_imprv_flower_urn_s01.iff	0	1039.736	346.5	518.0261	0.8972477	0	0.4415276	0		$|
1717326	0	object/static/structure/general/nboo_imprv_flower_urn_s01.iff	0	1047.65	346.5	511.4421	0.9683405	0	0.2496331	0		$|
1717332	0	object/static/structure/naboo/streetlamp_naboo_theed_style_1.iff	0	1054.941	346.5	548.6431	0.9460422	0	-0.3240433	0		$|
1717333	0	object/static/structure/naboo/streetlamp_naboo_theed_style_1.iff	0	1086.125	346.5	556.8086	0.9950042	0	0.0998327	0		$|
1717334	0	object/static/structure/naboo/streetlamp_naboo_theed_style_1.iff	0	1077.38	325.9946	493.9825	0.9982006	0	0.05996357	0		$|
1717335	0	object/static/structure/naboo/streetlamp_naboo_theed_style_1.iff	0	1211.476	326	469.1005	0.9939561	0	0.1097779	0		$|
1717336	0	object/static/structure/naboo/streetlamp_naboo_theed_style_1.iff	0	1245.215	327	451.9076	0.9998875	0	-0.01499991	0		$|
1945387	0	object/building/naboo/capitol_naboo_theed.iff	0	551.3101	330	641.53	0.8419009	0	0.5396322	0		$|
1945388	1945387	object/cell/cell.iff	1	0	0	0	1	1.401298E-45	0	0		$|
1945389	1945387	object/cell/cell.iff	2	0	0	0	1	2.802597E-45	0	0		$|
8085609	1945389	object/soundobject/soundobject_city_crowd_small.iff	2	1.019525	3.111052	21.75383	1	0	0	0		$|
1945390	1945387	object/cell/cell.iff	3	0	0	0	1	4.203895E-45	0	0		$|
4656394	1945390	object/tangible/collection/rare_melee_hammer_miner.iff	3	-0.1571843	2.707897	-28.97124	0.7073902	0	0	0		$|
8085598	1945390	object/soundobject/soundobject_city_crowd_sentients_large.iff	3	-15.11267	1.303665	-1.546227	1	0	0	0		$|
8085599	1945390	object/soundobject/soundobject_city_crowd_sentients_large.iff	3	14.08726	1.303907	-2.173428	1	0	0	0		$|
8085600	1945390	object/soundobject/soundobject_city_crowd_medium.iff	3	0.092309	2.27819	-26.86617	1	0	0	0		$|
1945391	1945387	object/cell/cell.iff	4	0	0	0	1	5.605194E-45	0	0		$|
4015374	1945391	object/tangible/terminal/terminal_mission_imperial.iff	4	-0.0322413	7.900132	-38.82439	0.99995	0	0.009999836	0		$|
1945392	1945387	object/cell/cell.iff	5	0	0	0	1	7.006492E-45	0	0		$|
1945393	1945387	object/cell/cell.iff	6	0	0	0	1	8.407791E-45	0	0		$|
8085605	1945393	object/soundobject/soundobject_city_crowd_medium.iff	6	-20.72609	3.223238	-32.43176	1	0	0	0		$|
1945394	1945387	object/cell/cell.iff	7	0	0	0	1	9.809089E-45	0	0		$|
1945395	1945387	object/cell/cell.iff	8	0	0	0	1	1.121039E-44	0	0		$|
8085608	1945395	object/soundobject/soundobject_city_crowd_small.iff	8	-21.3596	3.223238	21.19383	1	0	0	0		$|
1945396	1945387	object/cell/cell.iff	9	0	0	0	1	1.261169E-44	0	0		$|
8085603	1945396	object/soundobject/soundobject_city_crowd_small.iff	9	20.91491	3.223238	22.35936	1	0	0	0		$|
1945397	1945387	object/cell/cell.iff	10	0	0	0	1	1.401298E-44	0	0		$|
1945398	1945387	object/cell/cell.iff	11	0	0	0	1	1.541428E-44	0	0		$|
8085604	1945398	object/soundobject/soundobject_city_crowd_small.iff	11	18.94917	3.223238	-31.3089	1	0	0	0		$|
1945408	0	object/static/structure/general/planter_generic_style_4.iff	0	615.0439	330	654.2249	0.7202751	0	0.6936887	0		$|
1945409	0	object/static/structure/general/planter_generic_style_4.iff	0	603.1411	330	681.8053	0.9892746	0	0.1460674	0		$|
1945410	0	object/static/structure/general/planter_generic_style_4.iff	0	581.6616	330	688.3933	0.4743315	0	0.8803465	0		$|
1945411	0	object/static/structure/general/planter_generic_style_4.iff	0	606.2842	330	633.7874	-0.4713281	0	0.8819582	0		$|
1945412	0	object/static/structure/general/planter_generic_style_4.iff	0	546.7324	330	593.6178	0.7202756	0	0.6936883	0		$|
1945413	0	object/static/structure/general/planter_generic_style_4.iff	0	569.3823	330	594.6393	0.5305119	0	0.8476774	0		$|
1945414	0	object/static/structure/general/planter_generic_style_4.iff	0	588.9907	330	614.6235	0.9841275	0	-0.1774632	0		$|
1945415	0	object/static/structure/general/planter_generic_style_4.iff	0	526.4028	330	686.8214	0.7528531	0	-0.6581886	0		$|
1945416	0	object/static/structure/general/planter_generic_style_4.iff	0	512.4614	330	667.2999	0.7202747	0	0.693689	0		$|
1945417	0	object/static/structure/general/planter_generic_style_4.iff	0	552.7666	330	689.9016	-0.4594615	0	0.888198	0		$|
1945418	0	object/static/structure/general/planter_generic_style_4.iff	0	626.4595	330	641.4221	0.9032946	0	-0.4290208	0		$|
1945419	0	object/tangible/furniture/all/frn_all_potted_plants_sml_s02.iff	0	589.8276	330	683.4419	0.9460424	0	0.3240429	0		$|
1945420	0	object/tangible/furniture/all/frn_all_potted_plants_sml_s02.iff	0	595.0093	330	685.7015	0.7648409	0	0.6442193	0		$|
1945422	0	object/tangible/furniture/all/frn_all_potted_plants_sml_s02.iff	0	572.5493	330	686.0261	0.4401774	0	0.8979107	0		$|
1945423	0	object/tangible/furniture/all/frn_all_potted_plants_sml_s02.iff	0	574.5327	330	681.8269	0.08569068	0	0.996322	0		$|
1945425	0	object/tangible/furniture/all/frn_all_potted_plants_sml_s02.iff	0	567.3369	330	689.1904	0.7744181	0	0.6326741	0		$|
1945426	0	object/tangible/furniture/all/frn_all_potted_plants_sml_s02.iff	0	562.2256	330	686.7764	0.9507964	0	0.3098163	0		$|
1945428	0	object/tangible/furniture/all/frn_all_potted_plants_sml_s02.iff	0	536.4048	330	681.7654	0.771245	0	0.6365384	0		$|
1945429	0	object/tangible/furniture/all/frn_all_potted_plants_sml_s02.iff	0	531.1172	330	678.803	0.9460424	0	0.3240429	0		$|
1945432	0	object/tangible/furniture/all/frn_all_potted_plants_sml_s02.iff	0	525.7061	330	676.8208	0.9492355	0	0.3145663	0		$|
1945437	0	object/tangible/furniture/all/frn_all_potted_plants_sml_s02.iff	0	501.1768	330	658.7466	0.9492356	0	0.314566	0		$|
1945439	0	object/tangible/furniture/all/frn_all_potted_plants_sml_s02.iff	0	506.312	330	661.1095	0.771246	0	0.6365372	0		$|
1945440	0	object/tangible/furniture/all/frn_all_potted_plants_sml_s02.iff	0	546.3379	330	676.2443	0.9507965	0	0.3098159	0		$|
1945441	0	object/tangible/furniture/all/frn_all_potted_plants_sml_s02.iff	0	552.0068	330	678.838	0.9476508	0	0.3193085	0		$|
1945442	0	object/tangible/furniture/all/frn_all_potted_plants_sml_s02.iff	0	557.5317	330	681.2965	0.774419	0	0.632673	0		$|
1945445	0	object/tangible/furniture/all/frn_all_potted_plants_sml_s02.iff	0	613.231	330	645.8755	-0.3098163	0	0.9507964	0		$|
1945446	0	object/tangible/furniture/all/frn_all_potted_plants_sml_s02.iff	0	608.1196	330	643.4608	-0.6326741	0	0.7744181	0		$|
1945448	0	object/tangible/furniture/all/frn_all_potted_plants_sml_s02.iff	0	596.5693	330	633.2952	0.1892501	0	0.9819289	0		$|
1945449	0	object/tangible/furniture/all/frn_all_potted_plants_sml_s02.iff	0	599.0273	330	628.0804	0.247788	0	0.9688142	0		$|
1945451	0	object/tangible/furniture/all/frn_all_potted_plants_sml_s02.iff	0	597.6694	330	622.5875	-0.3145664	0	0.9492354	0		$|
1945452	0	object/tangible/furniture/all/frn_all_potted_plants_sml_s02.iff	0	592.5342	330	620.2245	-0.6365385	0	0.7712449	0		$|
1945454	0	object/tangible/furniture/all/frn_all_potted_plants_sml_s02.iff	0	569.0928	330	603.4587	-0.5687621	0	0.8225022	0		$|
1945455	0	object/tangible/furniture/all/frn_all_potted_plants_sml_s02.iff	0	563.8296	330	601.1049	-0.518419	0	0.8551264	0		$|
1945457	0	object/tangible/furniture/all/frn_all_potted_plants_sml_s02.iff	0	557.4131	330	600.4241	0.9828629	0	-0.1843381	0		$|
1945458	0	object/tangible/furniture/all/frn_all_potted_plants_sml_s02.iff	0	555.0078	330	605.6636	0.9700411	0	-0.2429408	0		$|
1945460	0	object/tangible/furniture/all/frn_all_potted_plants_sml_s02.iff	0	543.9697	330	601.3551	-0.5605088	0	0.8281486	0		$|
1945461	0	object/tangible/furniture/all/frn_all_potted_plants_sml_s02.iff	0	538.7544	330	598.8972	-0.509842	0	0.8602677	0		$|
1945463	0	object/tangible/furniture/all/frn_all_potted_plants_sml_s02.iff	0	549.2646	330	603.6517	-0.560509	0	0.828149	0		$|
1945466	0	object/tangible/furniture/all/frn_all_potted_plants_sml_s02.iff	0	579.1973	330	617.4132	-0.560509	0	0.828149	0		$|
1945467	0	object/tangible/furniture/all/frn_all_potted_plants_sml_s02.iff	0	573.9819	330	614.9553	-0.509842	0	0.860268	0		$|
1945468	0	object/tangible/furniture/all/frn_all_potted_plants_sml_s02.iff	0	584.4922	330	619.7098	-0.560509	0	0.828149	0		$|
2705581	0	object/static/structure/naboo/nboo_imprv_pristine_wall_sml_s03.iff	0	671.1348	333.5746	637.8396	-0.6058045	0	0.7939564	-0.05072845		$|
2705582	0	object/static/structure/naboo/nboo_imprv_pillar_pillar_s02.iff	0	670.9243	333.5595	638.7924	0.1246189	0	0.9917516	-0.02976147		$|
2705583	0	object/static/structure/naboo/nboo_imprv_pillar_pillar_s02.iff	0	673.7139	334.4735	627.3665	0.1345882	0	0.9908888	0.004954489		$|
2705584	0	object/static/structure/naboo/nboo_imprv_pristine_wall_sml_s03.iff	0	664.2197	330.0034	663.8114	-0.6398909	0	0.7668388	-0.03202123		$|
2705585	0	object/static/structure/naboo/nboo_imprv_pillar_pillar_s02.iff	0	664.0649	329.9938	664.8162	0.06979533	0	0.9954447	-0.06479517		$|
2705586	0	object/static/structure/naboo/nboo_imprv_pillar_pillar_s02.iff	0	666.1938	330.0038	653.4274	0.08968835	0	0.9938494	-0.06469134		$|
2725352	0	object/building/naboo/guild_theater_naboo_s01.iff	0	833.0801	360	574.77	0.7106358	0	-0.7035599	0		$|
2725353	2725352	object/cell/cell.iff	1	0	0	0	1	1.401298E-45	0	0		$|
7605396	2725353	object/soundobject/soundobject_cantina_large.iff	1	1.361489	0.6	-6.071039	1	0	0	0		$|
2725354	2725352	object/cell/cell.iff	2	0	0	0	1	2.802597E-45	0	0		$|
2725355	2725352	object/cell/cell.iff	3	0	0	0	1	4.203895E-45	0	0		$|
2725356	2725352	object/cell/cell.iff	4	0	0	0	1	5.605194E-45	0	0		$|
2725357	2725352	object/cell/cell.iff	5	0	0	0	1	7.006492E-45	0	0		$|
2725358	2725352	object/cell/cell.iff	6	0	0	0	1	8.407791E-45	0	0		$|
2725359	2725352	object/cell/cell.iff	7	0	0	0	1	9.809089E-45	0	0		$|
2725360	2725352	object/cell/cell.iff	8	0	0	0	1	1.121039E-44	0	0		$|
2725361	2725352	object/cell/cell.iff	9	0	0	0	1	1.261169E-44	0	0		$|
2725362	2725352	object/cell/cell.iff	10	0	0	0	1	1.401298E-44	0	0		$|
2776142	0	object/tangible/furniture/all/frn_bench_generic.iff	0	552.3267	330	605.0975	0.2133474	0	0.9769764	0		$|
2776143	0	object/tangible/furniture/all/frn_bench_generic.iff	0	546.6001	330	602.5547	0.213347	0	0.976976	0		$|
2776144	0	object/tangible/furniture/all/frn_bench_generic.iff	0	541.248	330	600.2261	0.213347	0	0.976976	0		$|
2776145	0	object/tangible/furniture/all/frn_bench_generic.iff	0	556.1602	330	603.2297	-0.5376934	0	0.8431404	0		$|
2776146	0	object/tangible/furniture/all/frn_bench_generic.iff	0	566.416	330	602.2401	0.2159835	0	0.976397	0		$|
2776147	0	object/tangible/furniture/all/frn_bench_generic.iff	0	576.501	330	616.241	0.213347	0	0.976976	0		$|
2776148	0	object/tangible/furniture/all/frn_bench_generic.iff	0	581.7407	330	618.6605	0.213347	0	0.976976	0		$|
2776149	0	object/tangible/furniture/all/frn_bench_generic.iff	0	594.9609	330	622.1826	0.213347	0	0.976976	0		$|
2776150	0	object/tangible/furniture/all/frn_bench_generic.iff	0	597.7046	330	630.5708	0.841687	0	0.5399656	0		$|
2776151	0	object/tangible/furniture/all/frn_bench_generic.iff	0	610.4731	330	645.467	0.213347	0	0.976976	0		$|
2776153	0	object/tangible/furniture/all/frn_bench_generic.iff	0	592.5928	330	683.754	0.9769765	0	-0.2133468	0		$|
2776154	0	object/tangible/furniture/all/frn_bench_generic.iff	0	573.5239	330	683.9923	0.841687	0	0.5399656	0		$|
2776155	0	object/tangible/furniture/all/frn_bench_generic.iff	0	564.96	330	687.2266	0.9769765	0	-0.2133468	0		$|
2776156	0	object/tangible/furniture/all/frn_bench_generic.iff	0	554.8682	330	679.9014	0.9769765	0	-0.2133468	0		$|
2776157	0	object/tangible/furniture/all/frn_bench_generic.iff	0	549.3252	330	677.248	0.9769765	0	-0.2133468	0		$|
2776158	0	object/tangible/furniture/all/frn_bench_generic.iff	0	533.9883	330	679.8026	0.9769765	0	-0.2133468	0		$|
2776159	0	object/tangible/furniture/all/frn_bench_generic.iff	0	528.3989	330	677.2599	0.9769765	0	-0.2133468	0		$|
2776160	0	object/tangible/furniture/all/frn_bench_generic.iff	0	503.9004	330	659.1587	0.9769765	0	-0.2133468	0		$|
2776161	0	object/tangible/furniture/all/frn_bench_generic.iff	0	1040.247	346.5	536.0504	0.5148189	0	0.857299	0		$|
2776162	0	object/tangible/furniture/all/frn_bench_generic.iff	0	1044.21	346.5	542.1228	0.3855432	0	0.9226898	0		$|
2776163	0	object/tangible/furniture/all/frn_bench_generic.iff	0	1038.002	346.5	523.6713	0.7583619	0	0.6518337	0		$|
2776164	0	object/tangible/furniture/all/frn_bench_generic.iff	0	1043.606	346.5109	514.0131	0.9229966	0	0.3848082	0		$|
2776165	0	object/tangible/furniture/all/frn_bench_generic.iff	0	1051.379	346.5	509.8569	0.9984879	0	0.05497229	0		$|
2776166	0	object/tangible/furniture/all/frn_bench_generic.iff	0	762.9663	360	693.6655	-3.200127E-08	0	1	0		$|
2776167	0	object/tangible/furniture/all/frn_bench_generic.iff	0	758.8735	360	693.7242	-3.200127E-08	0	1	0		$|
2776168	0	object/tangible/furniture/all/frn_bench_generic.iff	0	753.9111	360	688.7207	0.7071072	0	0.7071063	0		$|
2776169	0	object/tangible/furniture/all/frn_bench_generic.iff	0	753.8481	360	684.7672	0.707107	0	0.7071065	0		$|
2776170	0	object/tangible/furniture/all/frn_bench_generic.iff	0	755.9106	360	682.7209	1	0	0	0		$|
2776171	0	object/tangible/furniture/all/frn_bench_generic.iff	0	834.8984	360	483.1841	1	0	0	0		$|
2776172	0	object/tangible/furniture/all/frn_bench_generic.iff	0	831.2568	360	486.9904	0.7071069	0	0.7071065	0		$|
2776173	0	object/tangible/furniture/all/frn_bench_generic.iff	0	835.2241	360	491.2582	-3.200127E-08	0	1	0		$|
2776174	0	object/tangible/furniture/all/frn_bench_generic.iff	0	839.374	360	487.1626	0.7071069	0	-0.7071065	0		$|
2776175	0	object/tangible/furniture/all/frn_bench_generic.iff	0	825.4795	360	646.5408	-0.6406912	0	0.7677986	0		$|
2776176	0	object/tangible/furniture/all/frn_bench_generic.iff	0	822.0801	360	650.2729	-0.1246748	0	0.9921976	0		$|
2776177	0	object/tangible/furniture/all/frn_bench_generic.iff	0	808.9268	360	650.5959	0.07073718	0	0.997495	0		$|
2776178	0	object/tangible/furniture/all/frn_bench_generic.iff	0	804.918	360	647.2118	0.5934979	0	0.8048354	0		$|
2776179	0	object/tangible/furniture/all/frn_bench_generic.iff	0	646.8613	330	725.4153	1	0	0	0		$|
2776180	0	object/tangible/furniture/all/frn_bench_generic.iff	0	644.3838	330	722.3367	0.707107	0	-0.7071065	0		$|
2776181	0	object/tangible/furniture/all/frn_bench_generic.iff	0	649.6304	330	729.7423	0.707107	0	-0.7071065	0		$|
2776182	0	object/tangible/furniture/all/frn_bench_generic.iff	0	626.3911	330	722.562	0.707107	0	0.7071065	0		$|
2776183	0	object/tangible/furniture/all/frn_bench_generic.iff	0	623.7559	330	725.1427	1	0	0	0		$|
2776184	0	object/tangible/furniture/all/frn_bench_generic.iff	0	621.1035	330	729.4414	0.707107	0	0.7071065	0		$|
2776185	0	object/tangible/furniture/all/frn_bench_generic.iff	0	645.417	332.5	754.233	-3.200127E-08	0	1	0		$|
2776186	0	object/tangible/furniture/all/frn_bench_generic.iff	0	625.0283	332.5	754.201	-3.200127E-08	0	1	0		$|
2776187	0	object/tangible/furniture/all/frn_bench_generic.iff	0	1244.803	327.1074	492.9036	0.3687827	0	0.9295157	0		$|
2776188	0	object/tangible/furniture/all/frn_bench_generic.iff	0	1249.533	327.0033	495.5105	0.1650378	0	0.9862872	0		$|
2776189	0	object/tangible/furniture/all/frn_bench_generic.iff	0	1255.124	326.959	496.4819	-0.01999871	0	0.9998	0		$|
2776190	0	object/tangible/furniture/all/frn_bench_generic.iff	0	1260.749	326.9966	495.6442	-0.09904097	0	0.9950834	0		$|
2776191	0	object/tangible/furniture/all/frn_bench_generic.iff	0	898.3296	360	484.9337	1	0	0	0		$|
2776192	0	object/tangible/furniture/all/frn_bench_generic.iff	0	893.5337	360	489.6514	0.7071069	0	0.7071065	0		$|
3295533	0	object/static/naboo/waterfall_mist_small.iff	0	1078.295	325.1003	466.201	1	0	0	0		$|
3295535	0	object/static/naboo/waterfall_mist_small.iff	0	1090.823	325.5645	448.2214	1	0	0	0		$|
4015372	0	object/tangible/terminal/terminal_mission_imperial.iff	0	765.3721	360	663.1351	0.9444103	0	0.3287692	0		$|
4295393	0	object/building/general/naboo_veermok_cave.iff	0	1607.383	290.3428	490.4539	0.6614115	0	0.7500233	0	theme_park.dungeon.generic_spawner	spawn_table|4|datatables/spawning/poi_spawner/naboo/veermok.iff|$|
4295394	4295393	object/cell/cell.iff	1	0	0	0	1	1.401298E-45	0	0		$|
4295395	4295393	object/cell/cell.iff	2	0	0	0	1	2.802597E-45	0	0		$|
261338	4295395	object/tangible/container/loot/placable_loot_crate.iff	2	56.9158	-48.40005	-58.31673	-0.6985654	0	0.7125745	-0.04904766		$|
261340	4295395	object/static/item/item_crate_spice.iff	2	57.10546	-48.4306	-57.14508	0.7543584	0	-0.6458807	0.1141009		$|
7955562	4295395	object/tangible/container/loot/placable_loot_crate.iff	2	49.46844	-67.60098	-49.53124	0.7241007	0	0.6882258	-0.03099109		$|
4295396	4295393	object/cell/cell.iff	3	0	0	0	1	4.203895E-45	0	0		$|
7955563	4295396	object/tangible/container/loot/placable_loot_crate.iff	3	96.59402	-61.97869	-12.55269	-0.6486402	0	0.7610953	0		$|
4295397	4295393	object/cell/cell.iff	4	0	0	0	1	5.605194E-45	0	0		$|
4295398	4295393	object/cell/cell.iff	5	0	0	0	1	7.006492E-45	0	0		$|
261341	4295398	object/static/item/item_crate_spice.iff	5	97.43372	-45.69338	-106.6883	0.7373106	0	-0.6723502	-0.03642666		$|
4295399	4295393	object/cell/cell.iff	6	0	0	0	1	8.407791E-45	0	0		$|
4295400	4295393	object/cell/cell.iff	7	0	0	0	1	9.809089E-45	0	0		$|
4295401	4295393	object/cell/cell.iff	8	0	0	0	1	1.121039E-44	0	0		$|
7955560	4295401	object/tangible/container/loot/placable_loot_crate.iff	8	136.9304	-66.04199	-108.9858	-0.6632323	0	0.7480789	-0.01286617		$|
4295402	4295393	object/cell/cell.iff	9	0	0	0	1	1.261169E-44	0	0		$|
7955561	4295402	object/tangible/container/loot/placable_loot_crate.iff	9	194.3557	-66.87571	-102.2657	0.7213823	0	-0.6925371	0		$|
4295403	4295393	object/cell/cell.iff	10	0	0	0	1	1.401298E-44	0	0		$|
4295404	4295393	object/cell/cell.iff	11	0	0	0	1	1.541428E-44	0	0		$|
7955559	4295404	object/tangible/container/loot/placable_loot_crate.iff	11	77.48688	-45.87553	-147.0408	0.9676633	0	0.2522454	0		$|
4295418	0	object/building/endor/endor_tiki_torch.iff	0	1617.566	293.1521	499.7974	0.96639	0	0	0		$|
4295419	0	object/building/endor/endor_tiki_torch.iff	0	1619.083	293.9196	514.7273	0.9663898	0	0	0		$|
4655562	0	object/tangible/furniture/modern/table_modern_style_01.iff	0	1079.468	350	601.0613	0.9725144	0	0.2328429	0		$|
4655563	0	object/tangible/furniture/elegant/chair_s01.iff	0	1078.156	350	599.5791	0.9725144	0	0.2328429	0		$|
4655564	0	object/tangible/furniture/elegant/chair_s01.iff	0	1081.347	350	599.6333	0.9427547	0	-0.3334871	0		$|
4655565	0	object/tangible/furniture/elegant/chair_s01.iff	0	1080.628	350	602.6394	-0.3327359	0	0.94302	0		$|
4655566	0	object/tangible/furniture/elegant/chair_s01.iff	0	1077.796	350	602.3638	0.585745	0	0.810495	0		$|
4655567	0	object/tangible/furniture/modern/table_modern_style_01.iff	0	1083.28	350	613.5909	0.9725144	0	0.2328429	0		$|
4655568	0	object/tangible/furniture/elegant/chair_s01.iff	0	1081.968	350	612.1088	0.9725144	0	0.2328429	0		$|
4655569	0	object/tangible/furniture/elegant/chair_s01.iff	0	1085.159	350	612.163	0.9427547	0	-0.3334871	0		$|
4655570	0	object/tangible/furniture/elegant/chair_s01.iff	0	1084.44	350	615.1691	-0.3327359	0	0.94302	0		$|
4655571	0	object/tangible/furniture/elegant/chair_s01.iff	0	1081.608	350	614.8934	0.585745	0	0.810495	0		$|
4655572	0	object/tangible/furniture/modern/table_modern_style_01.iff	0	1066.724	350	648.203	0.9725144	0	0.2328429	0		$|
4655573	0	object/tangible/furniture/elegant/chair_s01.iff	0	1065.411	350	646.7208	0.9725144	0	0.2328429	0		$|
4655574	0	object/tangible/furniture/elegant/chair_s01.iff	0	1068.602	350	646.775	0.9427547	0	-0.3334871	0		$|
4655575	0	object/tangible/furniture/elegant/chair_s01.iff	0	1067.883	350	649.7811	-0.3327359	0	0.94302	0		$|
4655576	0	object/tangible/furniture/elegant/chair_s01.iff	0	1065.052	350	649.5055	0.585745	0	0.810495	0		$|
4655577	0	object/tangible/furniture/modern/table_modern_style_01.iff	0	1067.802	350	660.8245	0.9725144	0	0.2328429	0		$|
4655578	0	object/tangible/furniture/elegant/chair_s01.iff	0	1066.49	350	659.3423	0.9725144	0	0.2328429	0		$|
4655579	0	object/tangible/furniture/elegant/chair_s01.iff	0	1069.681	350	659.3965	0.9427547	0	-0.3334871	0		$|
4655580	0	object/tangible/furniture/elegant/chair_s01.iff	0	1068.962	350	662.4026	-0.3327359	0	0.94302	0		$|
4655581	0	object/tangible/furniture/elegant/chair_s01.iff	0	1066.13	350	662.127	0.585745	0	0.810495	0		$|
4655582	0	object/tangible/furniture/modern/table_modern_style_01.iff	0	1087.292	350	652.3859	0.9725144	0	0.2328429	0		$|
4655583	0	object/tangible/furniture/elegant/chair_s01.iff	0	1085.979	350	650.9037	0.9725144	0	0.2328429	0		$|
4655584	0	object/tangible/furniture/elegant/chair_s01.iff	0	1089.17	350	650.9579	0.9427547	0	-0.3334871	0		$|
4655585	0	object/tangible/furniture/elegant/chair_s01.iff	0	1088.451	350	653.964	-0.3327359	0	0.94302	0		$|
4655586	0	object/tangible/furniture/elegant/chair_s01.iff	0	1085.62	350	653.6884	0.585745	0	0.810495	0		$|
4655587	0	object/tangible/furniture/modern/table_modern_style_01.iff	0	1079.289	350	660.2253	0.9725144	0	0.2328429	0		$|
4655588	0	object/tangible/furniture/elegant/chair_s01.iff	0	1077.977	350	658.7432	0.9725144	0	0.2328429	0		$|
4655589	0	object/tangible/furniture/elegant/chair_s01.iff	0	1081.167	350	658.7974	0.9427547	0	-0.3334871	0		$|
4655590	0	object/tangible/furniture/elegant/chair_s01.iff	0	1080.449	350	661.8035	-0.3327359	0	0.94302	0		$|
4655591	0	object/tangible/furniture/elegant/chair_s01.iff	0	1077.617	350	661.5278	0.585745	0	0.810495	0		$|
4655592	0	object/tangible/furniture/modern/table_modern_style_01.iff	0	1080.03	350	645.5176	0.9725144	0	0.2328429	0		$|
4655593	0	object/tangible/furniture/elegant/chair_s01.iff	0	1078.718	350	644.0354	0.9725144	0	0.2328429	0		$|
4655594	0	object/tangible/furniture/elegant/chair_s01.iff	0	1081.909	350	644.0896	0.9427547	0	-0.3334871	0		$|
4655595	0	object/tangible/furniture/elegant/chair_s01.iff	0	1081.19	350	647.0957	-0.3327359	0	0.94302	0		$|
4655596	0	object/tangible/furniture/elegant/chair_s01.iff	0	1078.358	350	646.8201	0.585745	0	0.810495	0		$|
4655645	0	object/tangible/terminal/terminal_bank.iff	0	845.1704	360.6008	599.916	0.8702927	0	0.492535	0		$|
4655646	0	object/tangible/terminal/terminal_bank.iff	0	844.4473	360.5742	549.2898	0.4713284	0	0.8819578	0		$|
4655647	0	object/tangible/terminal/terminal_bank.iff	0	1044.563	350	572.8595	0.9872273	0	0.1593182	0		$|
4655648	0	object/tangible/terminal/terminal_bank.iff	0	1027.465	350	578.4215	0.9887711	0	0.1494377	0		$|
4776039	0	object/tangible/terminal/terminal_bazaar.iff	0	1243.473	327.0176	487.8344	0.9999049	0	2.08092E-05	-0.01370608		$|
4776042	0	object/tangible/terminal/terminal_bazaar.iff	0	840.8203	360.6934	546.366	-0.004999947	0	0.9999875	0		$|
4776043	0	object/tangible/terminal/terminal_bazaar.iff	0	841.2744	360.7172	603.0389	0.9999875	0	0.005000038	0		$|
4776044	0	object/tangible/terminal/terminal_bazaar.iff	0	634.6011	330	705.9347	-0.005	0	0.999987	0		$|
5555386	0	object/static/structure/naboo/streetlamp_naboo_theed_style_1.iff	0	1148.213	326	479.0099	0.9933948	0	0.1147467	0		$|
5555390	0	object/static/structure/naboo/streetlamp_naboo_theed_style_1.iff	0	939.9917	360	639.3815	0.9676633	0	-0.2522454	0		$|
5555398	0	object/static/structure/naboo/streetlamp_naboo_theed_style_1.iff	0	925.0254	360	566.6859	0.9089658	0	0.4168707	0		$|
5555440	0	object/static/structure/general/streetlamp_medium_green_style_02.iff	0	782.2285	360.6063	604.2576	1	0	0	0		$|
5555482	0	object/static/structure/naboo/streetlamp_naboo_theed_style_1.iff	0	733.0781	344.6987	616.2009	1	0	0	0		$|
5555483	0	object/static/structure/general/streetlamp_small_style_01.iff	0	587.4771	338.4112	658.1415	-2.797324E-08	0	-3.092778E-08	0.8419009		$|
6015482	0	object/static/structure/general/streetlamp_small_style_02.iff	0	862.5342	359.0199	560.7344	1	0	0	0		$|
6015483	0	object/static/structure/general/streetlamp_small_style_02.iff	0	862.8096	359.0199	588.2787	1	0	0	0		$|
6015484	0	object/static/structure/general/streetlamp_small_style_02.iff	0	768.7788	360	628.6823	1	0	0	0		$|
6015485	0	object/static/structure/naboo/streetlamp_naboo_theed_style_1.iff	0	936.1357	360.047	499.1715	0.9643821	0	-0.2645132	0		$|
6015486	0	object/static/structure/naboo/streetlamp_naboo_theed_style_1.iff	0	1047.147	346.5	510.3118	1	0	0	0		$|
6336694	0	object/tangible/terminal/terminal_mission_artisan.iff	0	634.8945	330	730.4321	1	0	0	0		$|
6336696	0	object/tangible/terminal/terminal_mission_artisan.iff	0	635.0835	330	727.6948	-3.200127E-08	0	1	0		$|
6336698	0	object/tangible/terminal/terminal_mission_scout.iff	0	627.9644	330	719.7681	1	0	0	0		$|
6336700	0	object/tangible/terminal/terminal_mission_scout.iff	0	642.5439	330	719.7504	1	0	0	0		$|
6336702	0	object/tangible/terminal/terminal_mission_artisan.iff	0	819.9731	360	650.9285	-0.01499947	0	0.9998875	0		$|
6336704	0	object/tangible/terminal/terminal_mission_artisan.iff	0	811.4551	360	650.9601	-0.004999527	0	0.999988	0		$|
6336706	0	object/tangible/terminal/terminal_mission_entertainer.iff	0	851.7563	360.5691	573.4269	0.7071074	0	0.7071061	0		$|
6336708	0	object/tangible/terminal/terminal_mission_entertainer.iff	0	851.7563	360.5691	575.4269	0.7071074	0	0.7071061	0		$|
6336712	0	object/tangible/terminal/terminal_mission_entertainer.iff	0	819.8604	360.5791	603.3577	1	0	0	0		$|
6336714	0	object/tangible/terminal/terminal_mission_entertainer.iff	0	817.8599	360.5791	603.3575	1	0	0	0		$|
6336716	0	object/tangible/terminal/terminal_mission_entertainer.iff	0	816.0342	360.5825	546.6641	-3.481026E-07	0	1	0		$|
6336718	0	object/tangible/terminal/terminal_mission_entertainer.iff	0	818.0342	360.5825	546.6638	-3.481026E-07	0	1	0		$|
6875380	0	object/soundobject/soundobject_city_crowd_medium.iff	0	1038.794	350	580.2369	1	0	0	0		$|
6875387	0	object/soundobject/soundobject_city_crowd_medium.iff	0	1254.529	326.9841	496.0482	1	0	0	0		$|
6875402	0	object/soundobject/soundobject_city_crowd_medium.iff	0	780.4146	360	532.6766	1	0	0	0		$|
6875408	0	object/soundobject/soundobject_city_crowd_small.iff	0	593.5615	330	657.201	1	0	0	0		$|
6875419	0	object/soundobject/soundobject_city_crowd_small.iff	0	635.8701	330	738.2722	1	0	0	0		$|
6905359	0	object/soundobject/soundobject_city_crowd_medium.iff	0	810.8794	360	625.6096	1	0	0	0		$|
6905367	0	object/soundobject/soundobject_city_crowd_small.iff	0	927.2202	360	600.0214	1	0	0	0		$|
6905373	0	object/soundobject/soundobject_city_crowd_small.iff	0	1063.806	350	651.3733	1	0	0	0		$|
7005401	0	object/static/naboo/waterfall_200m.iff	0	1082.673	389.9057	401.2391	1	0	0	0		$|
7085363	0	object/static/naboo/waterfall_200m.iff	0	1090.744	331.5041	464.983	0.9267985	0	0.375559	0		$|
8725359	0	object/static/structure/naboo/nboo_imprv_pillar_pillar_s07.iff	0	1093.749	350.1581	654.1381	0.990216	0	-0.1395428	0		$|
8725360	0	object/static/structure/general/nboo_imprv_flower_urn_s01.iff	0	1041.946	346.5037	539.1659	0.659983	0	0.75128	0		$|
8845415	0	object/tangible/sign/all_sign_city_s03.iff	0	1219.678	326	460.2142	0.8050719	0	-0.5931773	0		$|
8845416	0	object/building/naboo/association_hall_civilian_naboo.iff	0	815.4663	360	675.014	-3.200127E-08	0	1	0		$|
8845417	8845416	object/cell/cell.iff	1	0	0	0	1	1.401298E-45	0	0		$|
8845418	8845416	object/cell/cell.iff	2	0	0	0	1	2.802597E-45	0	0		$|
8845419	8845416	object/cell/cell.iff	3	0	0	0	1	4.203895E-45	0	0		$|
8845420	8845416	object/cell/cell.iff	4	0	0	0	1	5.605194E-45	0	0		$|
8845421	8845416	object/cell/cell.iff	5	0	0	0	1	7.006492E-45	0	0		$|
8845422	8845416	object/cell/cell.iff	6	0	0	0	1	8.407791E-45	0	0		$|
8845423	8845416	object/cell/cell.iff	7	0	0	0	1	9.809089E-45	0	0		$|
8845424	8845416	object/cell/cell.iff	8	0	0	0	1	1.121039E-44	0	0		$|
8845425	8845416	object/cell/cell.iff	9	0	0	0	1	1.261169E-44	0	0		$|
8845426	8845416	object/cell/cell.iff	10	0	0	0	1	1.401298E-44	0	0		$|
8845427	8845416	object/cell/cell.iff	11	0	0	0	1	1.541428E-44	0	0		$|
8845428	8845416	object/cell/cell.iff	12	0	0	0	1	1.681558E-44	0	0		$|
8845429	8845416	object/cell/cell.iff	13	0	0	0	1	1.821688E-44	0	0		$|
8845430	8845416	object/cell/cell.iff	14	0	0	0	1	1.961818E-44	0	0		$|
8845431	8845416	object/cell/cell.iff	15	0	0	0	1	2.101948E-44	0	0		$|
8845432	8845416	object/cell/cell.iff	16	0	0	0	1	2.242078E-44	0	0		$|
8845433	8845416	object/cell/cell.iff	17	0	0	0	1	2.382207E-44	0	0		$|
8905413	0	object/static/structure/naboo/nboo_imprv_flagpole_s01.iff	0	1019.8	358.2507	607.4275	1	0	0	0		$|
8905414	0	object/static/structure/naboo/nboo_imprv_flagpole_s01.iff	0	1067.472	358.2507	592.1787	1	0	0	0		$|
8905415	0	object/static/structure/naboo/nboo_imprv_flagpole_s01.iff	0	797.5405	372.4969	658.6655	1	0	0	0		$|
8905416	0	object/static/structure/naboo/nboo_imprv_flagpole_s01.iff	0	833.5942	372.4969	658.8818	1	0	0	0		$|
8905421	0	object/static/structure/naboo/nboo_imprv_bannerpole_s01.iff	0	609.5581	330.4077	658.6903	0.8404413	0	0.5419025	0		$|
8905422	0	object/static/structure/naboo/nboo_imprv_bannerpole_s01.iff	0	602.2891	330.4077	674.5938	0.8404411	0	0.5419029	0		$|
8905423	0	object/static/structure/naboo/nboo_imprv_flagpole_s01.iff	0	594.1851	343.2614	643.3695	1	0	0	0		$|
8905424	0	object/static/structure/naboo/nboo_imprv_flagpole_s01.iff	0	580.6738	343.2614	672.8939	1	0	0	0		$|
8905425	0	object/static/structure/naboo/nboo_imprv_flagpole_s01.iff	0	1243.932	335.7992	455.8744	1	0	0	0		$|
8905429	0	object/static/structure/general/cave_wall_damprock_style_01.iff	0	1079.092	381.9294	385.0165	0.9734716	0	0.004559247	0.01947203		$|
8905430	0	object/static/structure/general/cave_wall_damprock_style_01.iff	0	1089.356	381.9657	384.3455	0.948956	0	-0.009434678	0.0228705		$|
8905431	0	object/static/structure/general/cave_wall_damprock_style_01.iff	0	1092.189	383.7233	390.5403	0.9100189	0	0.04468391	0.1421937		$|
8905434	0	object/static/structure/general/cave_wall_damprock_style_01.iff	0	1073.981	384.1972	393.0983	0.9661967	0	0.005140952	0.01932698		$|
8905439	0	object/static/structure/general/cave_wall_damprock_style_01.iff	0	1071.864	345.2769	443.5341	1	0	0	0		$|
8905442	0	object/static/structure/general/cave_wall_damprock_style_01.iff	0	1089.97	324.489	453.0627	0.9742299	0	-0.01598606	0.2127477		$|
8905443	0	object/static/structure/general/cave_wall_damprock_style_01.iff	0	1078.451	324.6329	463.1389	0.9836469	0	0.003580001	0.019676		$|
8905496	0	object/building/naboo/housing_naboo_style_3.iff	0	965.2939	360	631.6774	-0.5360876	0	0.8441625	0		$|
9795376	0	object/tangible/sign/all_sign_city_s03.iff	0	633.9268	305.5488	545.3591	0.99995	0	-0.00999918	0		$|
9795377	0	object/tangible/sign/all_sign_city_s03.iff	0	477.1367	323.1624	748.4556	0.8938219	0	-0.4484222	0		$|
9895358	0	object/static/naboo/waterfall_mist_small.iff	0	1087.597	327.3344	452.123	1	0	0	0		$|
9895359	0	object/static/naboo/waterfall_mist_small.iff	0	1076.143	328.5302	460.8229	1	0	0	0		$|
9895360	0	object/static/naboo/waterfall_200m.iff	0	1075.904	354.092	448.5719	0.9425326	0	0.3341142	0		$|
