objid	container	server_template_crc	cell_index	px	py	pz	qw	qx	qy	qz	scripts	objvars
i	i	h	i	f	f	f	f	f	f	f	s	p
7806062	0	object/static/structure/general/atst_debris_01.iff	0	365.748	17.7005	34.9596	0.526266	0	0.85032	0		$|
7806064	0	object/static/structure/general/atst_destroyed.iff	0	371.929	18.2625	34.1082	-0.403017	0.109372	0.876915	0.23798		$|
