objid	container	server_template_crc	cell_index	px	py	pz	qw	qx	qy	qz	scripts	objvars
i	i	h	i	f	f	f	f	f	f	f	s	p
9685617	0	object/static/structure/tatooine/beam_tatooine_overhead_style_01.iff	0	1805.74	12.3491	1573.12	0.707086	-0.00544413	0.707085	-0.0054438		$|
9685643	0	object/static/structure/tatooine/pillar_pristine_large_style_01.iff	0	1807	12.9441	1569.96	0	0.92388	0.382683	0		$|
9685644	0	object/static/structure/tatooine/pillar_pristine_large_style_01.iff	0	1809.76	12.9181	1571.01	1	0	0	0		$|
9685646	0	object/static/structure/tatooine/wall_pristine_tatooine_large_style_01.iff	0	1814.81	12.9598	1569.33	-0.707107	0	0.707107	0		$|
9685668	0	object/static/structure/tatooine/pillar_pristine_tall_style_01.iff	0	1806.3	8.91642	1576.08	1	0	0	0		$|
9685672	0	object/static/structure/tatooine/wall_pristine_tatooine_small_style_01.iff	0	1823.68	13.0707	1572.87	0.707107	0	-0.707107	0		$|
9685676	0	object/static/structure/tatooine/pillar_pristine_large_style_01.iff	0	1816.57	13.1311	1596.74	1	0	0	0		$|
9685677	0	object/static/structure/tatooine/pillar_pristine_large_style_01.iff	0	1818.36	13.0607	1575.84	1	0	0	0		$|
9685679	0	object/static/structure/tatooine/wall_pristine_tatooine_large_style_01.iff	0	1813.54	12.9305	1575.67	0.707107	0	-0.707107	0		$|
9685680	0	object/static/structure/tatooine/wall_pristine_tatooine_large_style_01.iff	0	1815.76	13.0168	1605.64	0	0	1	0		$|
9685681	0	object/static/structure/tatooine/wall_pristine_tatooine_large_style_01.iff	0	1815.76	13.0154	1599.83	0	0	1	0		$|
9685682	0	object/static/structure/tatooine/wall_pristine_tatooine_large_style_01.iff	0	1811.62	13.0042	1610.33	-0.707107	0	0.707107	0		$|
9685684	0	object/static/structure/tatooine/pillar_pristine_large_style_01.iff	0	1816.52	13.0827	1609.63	0.707107	0	0.707107	0		$|
9685686	0	object/static/structure/tatooine/pillar_pristine_large_style_01.iff	0	1813.15	12.9249	1599.45	1	0	0	0		$|
9685687	0	object/static/structure/tatooine/wall_pristine_tatooine_large_style_01.iff	0	1812.93	12.9976	1595.08	1	0	0	0		$|
9685688	0	object/static/structure/tatooine/wall_pristine_tatooine_large_style_01.iff	0	1809.82	12.7655	1602.16	0.92388	0	-0.382683	0		$|
9685689	0	object/static/structure/tatooine/wall_pristine_tatooine_large_style_02.iff	0	1816.94	13.1051	1583.7	1	0	0	0		$|
9685690	0	object/static/structure/tatooine/pillar_pristine_large_style_01.iff	0	1813.1	12.952	1577.01	1	0	0	0		$|
9685691	0	object/static/structure/tatooine/wall_pristine_tatooine_large_style_02.iff	0	1812.92	12.998	1583.96	1	0	0	0		$|
9685705	0	object/static/structure/tatooine/wall_pristine_tatooine_small_style_01.iff	0	1806.12	13.0036	1577.59	1	0	0	0		$|
9685707	0	object/static/structure/tatooine/pillar_pristine_large_style_01.iff	0	1806.28	12.9003	1570.98	1	0	0	0		$|
9685708	0	object/static/structure/tatooine/pillar_pristine_large_style_01.iff	0	1801.98	12.0575	1610.62	1	0	0	0		$|
9685709	0	object/static/structure/tatooine/pillar_pristine_large_style_01.iff	0	1813.17	13.0143	1588.96	1	0	0	0		$|
9685711	0	object/static/structure/tatooine/wall_pristine_tatooine_large_style_01.iff	0	1825.62	13.0839	1577.05	1	0	0	0		$|
9685712	0	object/static/structure/tatooine/pillar_pristine_large_style_01.iff	0	1825.88	13.0452	1573.08	1	0	0	0		$|
9685714	0	object/static/structure/tatooine/pillar_pristine_large_style_01.iff	0	1827.08	13.0845	1592.87	1	0	0	0		$|
9685715	0	object/static/structure/tatooine/pillar_pristine_large_style_01.iff	0	1827.1	12.9707	1578.67	1	0	0	0		$|
9685716	0	object/static/structure/tatooine/pillar_pristine_large_style_01.iff	0	1825.85	13.0056	1596.79	1	0	0	0		$|
9685717	0	object/static/structure/tatooine/wall_pristine_tatooine_large_style_01.iff	0	1826.17	13.0491	1578.33	0.706038	-0.038871	0.706037	-0.038871		$|
9685718	0	object/static/structure/tatooine/wall_pristine_tatooine_large_style_01.iff	0	1826.11	13.0515	1592.5	0.706038	-0.038871	0.706037	-0.038871		$|
9685719	0	object/static/structure/tatooine/pillar_pristine_large_style_01.iff	0	1830.77	12.9304	1578.68	1	0	0	0		$|
9685720	0	object/static/structure/tatooine/pillar_pristine_large_style_01.iff	0	1830.8	12.9417	1592.88	1	0	0	0		$|
9685721	0	object/static/structure/tatooine/wall_pristine_tatooine_large_style_01.iff	0	1830.06	12.8964	1588.22	0	0	1	0		$|
9685722	0	object/static/structure/tatooine/wall_pristine_tatooine_large_style_01.iff	0	1830.06	12.7293	1582.42	0	0	1	0		$|
268517850	0	object/tangible/weather_object/weather_object_base.iff	0	0	195	0	1	0	0	0		$|
