objid	container	server_template_crc	cell_index	px	py	pz	qw	qx	qy	qz	scripts	objvars
i	i	h	i	f	f	f	f	f	f	f	s	p
3515384	0	object/static/structure/general/gravestone_generic_style_02.iff	0	215.866	13.6934	166.453	0.707107	0	0.707107	0		$|
3515386	0	object/static/structure/general/gravestone_generic_style_02.iff	0	215.895	13.5308	168.193	0.707107	0	0.707107	0		$|
3515387	0	object/static/structure/general/gravestone_generic_style_02.iff	0	215.91	13.3485	170.046	0.707107	0	0.707107	0		$|
3515388	0	object/static/structure/general/gravestone_generic_style_02.iff	0	215.883	13.273	171.733	0.707107	0	0.707107	0		$|
3515389	0	object/static/structure/general/gravestone_generic_style_02.iff	0	213.744	13.1979	171.786	-0.707107	0	0.707107	0		$|
3515390	0	object/static/structure/general/gravestone_generic_style_02.iff	0	213.751	13.2119	170.04	-0.707107	0	0.707107	0		$|
3515391	0	object/static/structure/general/gravestone_generic_style_02.iff	0	213.74	13.3816	168.172	-0.707107	0	0.707107	0		$|
3515392	0	object/static/structure/general/gravestone_generic_style_02.iff	0	213.662	13.608	166.486	-0.707107	0	0.707107	0		$|
3515393	0	object/static/structure/general/streetlamp_small_style_02.iff	0	209.617	8.88806	169.434	1	0	0	0		$|
3515394	0	object/static/structure/general/streetlamp_small_style_02.iff	0	219.773	8.93633	169.139	1	0	0	0		$|
5126270	0	object/building/general/lok_nymstheme_mercenary_bunker.iff	0	915.785	13.016	1959.14	-0.471328	0	0.881958	0		$|
5126271	5126270	object/cell/cell.iff	1	0	0	0	1	1.401298E-45	0	0		$|
5126272	5126270	object/cell/cell.iff	2	0	0	0	1	2.802597E-45	0	0		$|
5126273	5126270	object/cell/cell.iff	3	0	0	0	1	4.203895E-45	0	0		$|
5126274	5126270	object/cell/cell.iff	4	0	0	0	1	5.605194E-45	0	0		$|
5126275	5126270	object/cell/cell.iff	5	0	0	0	1	7.006492E-45	0	0		$|
5126276	5126270	object/cell/cell.iff	6	0	0	0	1	8.407791E-45	0	0		$|
5126277	5126270	object/cell/cell.iff	7	0	0	0	1	9.809089E-45	0	0		$|
5126278	5126270	object/cell/cell.iff	8	0	0	0	1	1.121039E-44	0	0		$|
5126279	5126270	object/cell/cell.iff	9	0	0	0	1	1.261169E-44	0	0		$|
5126280	5126270	object/cell/cell.iff	10	0	0	0	1	1.401298E-44	0	0		$|
5126281	5126270	object/cell/cell.iff	11	0	0	0	1	1.541428E-44	0	0		$|
5126282	5126270	object/cell/cell.iff	12	0	0	0	1	1.681558E-44	0	0		$|
5126283	5126270	object/cell/cell.iff	13	0	0	0	1	1.821688E-44	0	0		$|
5126284	5126270	object/cell/cell.iff	14	0	0	0	1	1.961818E-44	0	0		$|
5126285	5126270	object/cell/cell.iff	15	0	0	0	1	2.101948E-44	0	0		$|
5126286	5126270	object/cell/cell.iff	16	0	0	0	1	2.242078E-44	0	0		$|
5126287	5126270	object/cell/cell.iff	17	0	0	0	1	2.382207E-44	0	0		$|
5126288	5126270	object/cell/cell.iff	18	0	0	0	1	2.522337E-44	0	0		$|
5126289	5126270	object/cell/cell.iff	19	0	0	0	1	2.662467E-44	0	0		$|
5126290	5126270	object/cell/cell.iff	20	0	0	0	1	2.802597E-44	0	0		$|
5126291	5126270	object/cell/cell.iff	21	0	0	0	1	2.942727E-44	0	0		$|
5126292	5126270	object/cell/cell.iff	22	0	0	0	1	3.082857E-44	0	0		$|
5126293	0	object/static/structure/military/military_wall_med_imperial_32_style_01.iff	0	907.82	12.965	1935.65	0.301053	0	0.953607	0		$|
5126294	0	object/static/structure/military/military_wall_med_imperial_style_01.iff	0	918.658	12.9489	1948.79	0.882333	0	0.470626	0		$|
5126295	0	object/static/structure/military/military_column_med_imperial_style_01.iff	0	921.205	13.0122	1945	0.995491	0	0.0948572	0		$|
5126296	0	object/static/structure/military/military_column_med_imperial_style_01.iff	0	894.483	13.0466	1926.23	0.998488	0	0.0549723	0		$|
5126297	0	object/static/structure/military/military_wall_med_imperial_32_style_01.iff	0	885.284	12.9467	1939.83	0.882334	0	0.470624	0		$|
5126298	0	object/static/structure/military/military_column_med_imperial_style_01.iff	0	876.218	12.9509	1953.38	0.993395	0	0.114747	0		$|
5126299	0	object/static/structure/military/military_wall_med_imperial_32_style_01.iff	0	889.701	13.0051	1962.78	0.301053	0	0.953607	0		$|
5126300	0	object/static/structure/military/military_column_med_imperial_style_01.iff	0	903.123	12.9893	1972.16	0.959662	0	-0.281157	0		$|
5126301	0	object/static/structure/tatooine/jawa/tent_jawa_01_med.iff	0	896.878	13.0412	1934.6	0.889293	0	0.457339	0		$|
5126302	0	object/static/vehicle/e3/landspeeder.iff	0	898.574	13.0269	1936.26	0.368783	0	0.929516	0		$|
5126303	0	object/static/vehicle/e3/landspeeder.iff	0	894.978	13.0033	1933.65	0.326595	0	0.945164	0		$|
5126304	0	object/static/structure/corellia/corl_power_transformer_s01.iff	0	912.577	12.9898	1946.32	-0.466913	0	0.884303	0		$|
5126305	0	object/static/structure/tatooine/antenna_tatt_style_1.iff	0	916.05	12.9874	1948.71	1	0	0	0		$|
5126306	0	object/static/structure/tatooine/antenna_tatt_style_2.iff	0	917.967	12.9353	1945.85	1	0	0	0		$|
5126307	0	object/static/structure/tatooine/shed_junkshop_watto.iff	0	885.111	12.9737	1951.78	0.963771	0	-0.266732	0		$|
7805618	0	object/static/structure/tatooine/wall_archway_tatooine_wide_style_01.iff	0	274	12.8517	546	3.48E-07	0	1	0		$|
7805619	0	object/static/structure/tatooine/wall_archway_tatooine_wide_style_01.iff	0	290	13.0769	546	3.48E-07	0	1	0		$|
7805622	0	object/static/structure/naboo/obelisk_naboo_theed_style_1.iff	0	282	12.9429	546	1	0	0	0		$|
7805624	0	object/static/particle/particle_campfire_style_1.iff	0	282.094	29.6001	545.938	1	0	0	0		$|
7805626	0	object/static/particle/particle_campfire_style_1.iff	0	281.872	29.4889	546.017	1	0	0	0		$|
7806056	0	object/static/structure/tatooine/pillar_pristine_tall_style_01.iff	0	215.187	19.7732	173.434	0.707111	-0.707102	0	0		$|
7806075	0	object/static/structure/corellia/corl_tent_small.iff	0	1466.86	15.6251	1681.28	1	0	0	0		$|
7806076	0	object/static/structure/tatooine/debris_tatt_drum_dented_1.iff	0	1473.6	15.8849	1680.31	0.962425	0	0	-0.271547		$|
7806077	0	object/static/structure/tatooine/debris_tatt_drum_dented_1.iff	0	1467.1	15.2705	1679.39	1	0	0	0		$|
7806078	0	object/static/structure/tatooine/debris_tatt_drum_dented_1.iff	0	1468.65	15.5779	1689.91	0.394903	-0.498918	0.721499	-0.273076		$|
9025568	0	object/static/structure/tatooine/wall_archway_tatooine_wide_style_01.iff	0	282	13.0622	537	-0.707107	0	0.707107	0		$|
9025569	0	object/static/structure/tatooine/wall_archway_tatooine_wide_style_01.iff	0	282	13.1018	555	-0.707107	0	0.707107	0		$|
9535442	0	object/static/structure/tatooine/pillar_pristine_tall_style_01.iff	0	224.339	11.553	165.182	1	0	0	0		$|
9535443	0	object/static/structure/tatooine/pillar_pristine_tall_style_01.iff	0	224.315	11.5253	174.395	1	0	0	0		$|
9535444	0	object/static/structure/tatooine/pillar_pristine_tall_style_01.iff	0	215.134	11.528	174.425	1	0	0	0		$|
9535445	0	object/static/structure/tatooine/pillar_pristine_tall_style_01.iff	0	215.205	11.5568	165.217	1	0	0	0		$|
9535446	0	object/static/structure/tatooine/pillar_pristine_tall_style_01.iff	0	215.195	18.7917	164.196	-0.5	-0.5	-0.5	0.5		$|
9535447	0	object/static/structure/tatooine/pillar_pristine_tall_style_01.iff	0	215.123	19.7655	174.418	-0.5	0.5	0.5	0.5		$|
9535448	0	object/static/structure/tatooine/pillar_pristine_tall_style_01.iff	0	205.975	11.5418	174.438	1	0	0	0		$|
9535449	0	object/static/structure/tatooine/pillar_pristine_tall_style_01.iff	0	206.01	11.5593	165.245	1	0	0	0		$|
9535450	0	object/static/structure/tatooine/pillar_pristine_tall_style_01.iff	0	205.908	19.7771	174.435	-0.5	0.5	0.5	0.5		$|
9535451	0	object/static/structure/tatooine/pillar_pristine_tall_style_01.iff	0	205.989	19.7995	165.216	-0.5	0.5	0.5	0.5		$|
9535452	0	object/static/structure/tatooine/pillar_pristine_tall_style_01.iff	0	205.98	19.7807	173.451	0.707107	-0.707106	0	0		$|
9535453	0	object/static/structure/tatooine/pillar_pristine_tall_style_01.iff	0	224.317	19.7849	173.419	0.707108	-0.707105	0	0		$|
9685373	0	object/static/structure/tatooine/pillar_pristine_small_style_01.iff	0	1472.65	15.6482	1677.4	1	0	0	0		$|
9685374	0	object/static/structure/tatooine/pillar_pristine_small_style_01.iff	0	1463.93	15.684	1677.42	1	0	0	0		$|
9685376	0	object/static/structure/tatooine/wall_pristine_tatooine_large_style_01.iff	0	1467.78	13.5648	1677.15	0.707107	0	-0.707106	0		$|
9685377	0	object/static/structure/tatooine/wall_pristine_tatooine_large_style_01.iff	0	1463.21	13.6015	1681.35	3.48E-07	0	1	0		$|
9685378	0	object/static/structure/tatooine/wall_pristine_tatooine_large_style_01.iff	0	1476.31	13.5189	1676.65	0.707107	0	0.707107	0		$|
9685379	0	object/static/structure/tatooine/pillar_pristine_small_style_01.iff	0	1481.29	15.614	1677.36	1	0	0	0		$|
9685380	0	object/static/structure/tatooine/pillar_pristine_small_style_01.iff	0	1463.94	15.6395	1686.3	1	0	0	0		$|
9685381	0	object/static/structure/tatooine/wall_ruined_tatooine_large_style_02.iff	0	1467.85	13.872	1685.78	1	0	0	0		$|
9685383	0	object/static/structure/tatooine/wall_ruined_tatooine_large_style_01.iff	0	1481.03	13.5628	1685.17	1	0	0	0		$|
